# 3ds Max Wavefront OBJ Exporter v0.97b - (c)2007 guruware
# File Created: 29.10.2019 13:15:31

newmtl wire_228153184
	Ns 32
	d 1
	Tr 0
	Tf 1 1 1
	illum 2
	Ka 0.8941 0.6000 0.7216
	Kd 0.8941 0.6000 0.7216
	Ks 0.3500 0.3500 0.3500
