# 3ds Max Wavefront OBJ Exporter v0.97b - (c)2007 guruware
# File Created: 26.11.2019 18:51:35

mtllib sherifs lobby office.mtl

#
# object Box001
#

v  0.5000 1.2592 2.5000
v  0.5000 2.6379 2.5000
v  -0.5000 2.6379 2.5000
v  -0.5000 1.2592 2.5000
v  -0.5000 1.2592 -2.5000
v  -0.5000 2.6379 -2.5000
v  0.5000 2.6379 -2.5000
v  0.5000 1.2592 -2.5000
v  0.5000 3.4252 2.5000
v  0.5000 4.2126 2.5000
v  -0.5000 4.2126 2.5000
v  -0.5000 3.4252 2.5000
v  -0.5000 1.0137 2.5000
v  0.5000 1.0137 2.5000
v  0.5000 4.2126 0.3110
v  0.5000 3.4252 0.3110
v  0.5000 3.4252 -0.3110
v  0.5000 4.2126 -0.3110
v  0.5000 0.0000 0.3110
v  0.5000 0.0000 -0.3110
v  0.5000 1.0137 -0.3110
v  0.5000 1.0137 0.3110
v  -0.5000 3.4252 -2.5000
v  -0.5000 4.2126 -2.5000
v  0.5000 4.2126 -2.5000
v  0.5000 3.4252 -2.5000
v  0.5000 1.0137 -2.5000
v  -0.5000 1.0137 -2.5000
v  -0.5730 4.2126 -0.3110
v  -0.5730 3.4252 -0.3110
v  -0.5730 3.4252 0.3110
v  -0.5730 4.2126 0.3110
v  -0.5000 0.0000 -0.3110
v  -0.5000 0.0000 0.3110
v  -0.5000 1.0137 0.3110
v  -0.5000 1.0137 -0.3110
v  0.7466 2.6379 2.1773
v  0.7466 2.6379 2.5000
v  0.7466 1.2592 2.5000
v  0.7466 1.2592 2.1773
v  0.7466 1.2592 -2.1773
v  0.7466 1.2592 -2.5000
v  0.7466 2.6379 -2.5000
v  0.7466 2.6379 -2.1773
v  -0.7466 2.6379 -2.1773
v  -0.7466 2.6379 -2.5000
v  -0.7466 1.2592 -2.5000
v  -0.7466 1.2592 -2.1773
v  -0.7466 1.2592 2.1773
v  -0.7466 1.2592 2.5000
v  -0.7466 2.6379 2.5000
v  -0.7466 2.6379 2.1773
v  0.7466 4.2126 2.5000
v  0.7466 3.4252 2.5000
v  0.7466 3.4252 2.1773
v  0.7466 4.2126 2.1773
v  0.7466 3.4252 -2.5000
v  0.7466 4.2126 -2.5000
v  0.7466 4.2126 -2.1773
v  0.7466 3.4252 -2.1773
v  0.7466 0.0000 -2.1773
v  0.7466 0.0000 -2.5000
v  0.7466 1.0137 -2.5000
v  0.7466 1.0137 -2.1773
v  0.7466 1.0137 2.5000
v  0.7466 1.0137 2.1773
v  -0.7466 4.2126 -2.5000
v  -0.7466 3.4252 -2.5000
v  -0.7466 3.4252 -2.1773
v  -0.7466 4.2126 -2.1773
v  -0.7466 3.4252 2.5000
v  -0.7466 4.2126 2.5000
v  -0.7466 4.2126 2.1773
v  -0.7466 3.4252 2.1773
v  -0.7466 0.0000 2.1773
v  -0.7466 0.0000 2.5000
v  -0.7466 1.0137 2.5000
v  -0.7466 1.0137 2.1773
v  -0.7466 1.0137 -2.5000
v  -0.7466 1.0137 -2.1773
v  0.5000 4.2126 2.1773
v  0.5000 3.4252 2.1773
v  0.5000 3.4252 1.5552
v  0.5000 4.2126 1.5552
v  0.5000 3.4252 0.9331
v  0.5000 4.2126 0.9331
v  0.5000 3.4252 -2.1773
v  0.5000 4.2126 -2.1773
v  0.5000 4.2126 -1.5552
v  0.5000 3.4252 -1.5552
v  0.5000 4.2126 -0.9331
v  0.5000 3.4252 -0.9331
v  0.5000 0.0000 -1.5552
v  0.5000 0.0000 -2.1773
v  0.5000 1.0137 -2.1773
v  0.5000 1.0137 -1.5552
v  0.5000 0.0000 -0.9331
v  0.5000 1.0137 -0.9331
v  0.5000 1.2592 1.5552
v  0.5000 1.2592 2.1773
v  0.5000 1.0137 2.1773
v  0.5000 1.0137 1.5552
v  0.5000 1.2592 0.9331
v  0.5000 1.0137 0.9331
v  0.5000 1.2592 0.3110
v  -0.5000 4.2126 -2.1773
v  -0.5000 3.4252 -2.1773
v  -0.5000 3.4252 -1.5552
v  -0.5000 4.2126 -1.5552
v  -0.5730 4.2126 -1.5552
v  -0.5730 3.4252 -1.5552
v  -0.5730 3.4252 -0.9331
v  -0.5730 4.2126 -0.9331
v  -0.5000 3.4252 2.1773
v  -0.5000 4.2126 2.1773
v  -0.5000 4.2126 1.5552
v  -0.5000 3.4252 1.5552
v  -0.5730 3.4252 1.5552
v  -0.5730 4.2126 1.5552
v  -0.5730 4.2126 0.9331
v  -0.5730 3.4252 0.9331
v  -0.5000 0.0000 1.5552
v  -0.5000 0.0000 2.1773
v  -0.5000 1.0137 2.1773
v  -0.5000 1.0137 1.5552
v  -0.5000 0.0000 0.9331
v  -0.5000 1.0137 0.9331
v  -0.7466 1.2592 -1.5552
v  -0.7466 1.0137 -1.5552
v  -0.8332 1.2592 -0.9331
v  -0.8332 1.0137 -0.9331
v  -0.8935 1.2592 -0.3110
v  -0.8935 1.0137 -0.3110
v  0.5000 2.6379 2.1773
v  -0.5000 1.2592 2.1773
v  -0.5000 2.6379 2.1773
v  -0.5000 1.2592 1.5552
v  -0.5000 1.2592 0.9331
v  -0.5000 1.2592 0.3110
v  0.5000 1.2592 -0.3110
v  -0.5000 1.2592 -0.3110
v  0.5000 1.2592 -0.9331
v  -0.5000 1.2592 -0.9331
v  0.5000 1.2592 -1.5552
v  -0.5000 1.2592 -1.5552
v  0.5000 1.2592 -2.1773
v  -0.5000 1.2592 -2.1773
v  0.5000 2.6379 -2.1773
v  -0.5000 2.6379 -2.1773
v  0.5000 2.7921 -1.5552
v  -0.5000 2.7921 -1.5552
v  0.5000 2.9129 -0.9331
v  -0.5000 2.9129 -0.9331
v  0.5000 2.9880 -0.3110
v  -0.5000 2.9880 -0.3110
v  0.5000 2.9880 0.3110
v  -0.5000 2.9880 0.3110
v  0.5000 2.9129 0.9331
v  -0.5000 2.9129 0.9331
v  0.5000 2.7921 1.5552
v  -0.5000 2.7921 1.5552
v  -0.5000 0.0000 2.5000
v  0.5000 0.0000 2.5000
v  0.5000 0.0000 -2.5000
v  -0.5000 0.0000 -2.5000
v  -0.8935 1.0137 0.3110
v  -0.8935 1.2592 0.3110
v  0.7466 0.0000 2.5000
v  0.7466 0.0000 2.1773
v  -0.7466 0.0000 -2.5000
v  -0.7466 0.0000 -2.1773
v  0.5000 0.0000 2.1773
v  0.5000 0.0000 1.5552
v  0.5000 0.0000 0.9331
v  -0.7466 1.2592 1.5552
v  -0.7466 1.0137 1.5552
v  -0.8332 1.2592 0.9331
v  -0.8332 1.0137 0.9331
v  -0.5000 1.0137 -2.1773
v  -0.5000 0.0000 -2.1773
v  -0.5000 0.0000 -1.5552
v  -0.5000 1.0137 -1.5552
v  -0.5000 0.0000 -0.9331
v  -0.5000 1.0137 -0.9331
v  0.5000 5.0000 2.5000
v  -0.5000 5.0000 2.5000
v  0.5000 5.0000 -0.3110
v  0.5000 5.0000 0.3110
v  -0.5000 5.0000 -2.5000
v  0.5000 5.0000 -2.5000
v  -0.5000 3.4252 -0.3110
v  -0.5000 3.4252 0.3110
v  -0.5000 4.2126 0.3110
v  -0.5000 5.0000 0.3110
v  -0.5000 5.0000 -0.3110
v  -0.5000 4.2126 -0.3110
v  0.7466 5.0000 2.1773
v  0.7466 5.0000 2.5000
v  0.7466 5.0000 -2.5000
v  0.7466 5.0000 -2.1773
v  -0.7466 5.0000 -2.1773
v  -0.7466 5.0000 -2.5000
v  -0.7466 5.0000 2.5000
v  -0.7466 5.0000 2.1773
v  0.5000 5.0000 1.5552
v  0.5000 5.0000 2.1773
v  0.5000 5.0000 0.9331
v  0.5000 5.0000 -2.1773
v  0.5000 5.0000 -1.5552
v  0.5000 5.0000 -0.9331
v  -0.5000 5.0000 -1.5552
v  -0.5000 5.0000 -2.1773
v  -0.5000 3.4252 -0.9331
v  -0.5000 4.2126 -0.9331
v  -0.5000 5.0000 -0.9331
v  -0.5000 5.0000 2.1773
v  -0.5000 5.0000 1.5552
v  -0.5000 5.0000 0.9331
v  -0.5000 4.2126 0.9331
v  -0.5000 3.4252 0.9331
# 220 vertices

vn 0.0000 0.0000 1.0000
vn 0.0000 0.0000 -1.0000
vn 1.0000 0.0000 -0.0000
vn -0.7071 0.7071 -0.0000
vn -0.7071 -0.7071 -0.0000
vn -1.0000 0.0000 -0.0000
vn 0.7071 0.0000 -0.7071
vn 0.7071 0.0000 0.7071
vn -0.7071 0.0000 0.7071
vn -0.7071 0.0000 -0.7071
vn -0.9045 0.3015 0.3015
vn -0.9045 0.3015 -0.3015
vn -0.9045 -0.3015 -0.3015
vn -0.9045 -0.3015 0.3015
vn 0.7071 0.7071 -0.0000
vn 0.3015 0.3015 -0.9045
vn -0.5774 0.5774 -0.5774
vn -0.5774 -0.5774 -0.5774
vn -0.5774 -0.5774 0.5774
vn -0.5774 0.5774 0.5774
vn -0.6892 0.7230 -0.0477
vn -0.6892 -0.7230 -0.0477
vn -0.7068 0.7024 -0.0834
vn -0.7068 -0.7024 -0.0834
vn -0.7168 0.6964 -0.0347
vn -0.7168 -0.6964 -0.0347
vn 0.2424 -0.2784 -0.9294
vn 0.0000 0.7071 -0.7071
vn -0.2424 -0.2784 -0.9294
vn 0.0000 1.0000 -0.0000
vn 0.3015 0.3015 0.9045
vn 0.0000 0.7071 0.7071
vn 0.2424 -0.2784 0.9294
vn -0.2424 -0.2784 0.9294
vn 0.7129 -0.6847 0.1513
vn -0.7129 -0.6847 0.1513
vn 0.7153 -0.6904 0.1085
vn -0.7153 -0.6903 0.1085
vn 0.7209 -0.6918 0.0416
vn -0.7209 -0.6918 0.0416
vn 0.7208 -0.6919 -0.0416
vn -0.7209 -0.6918 -0.0416
vn 0.7153 -0.6903 -0.1085
vn -0.7153 -0.6904 -0.1085
vn 0.7129 -0.6847 -0.1513
vn -0.7129 -0.6847 -0.1513
vn -0.7168 -0.6964 0.0347
vn -0.7168 0.6964 0.0347
vn -0.6892 0.7230 0.0477
vn -0.6892 -0.7230 0.0477
vn -0.7068 0.7024 0.0834
vn -0.7068 -0.7024 0.0834
# 52 vertex normals

vt 0.1267 0.8561 0.8455
vt 0.1251 0.7163 0.8455
vt 0.2266 0.7151 0.8455
vt 0.2282 0.8550 0.8455
vt 0.7854 0.8539 0.8455
vt 0.7862 0.7137 0.8455
vt 0.8879 0.7143 0.8455
vt 0.8871 0.8545 0.8455
vt 0.1242 0.6364 0.8455
vt 0.1233 0.5565 0.8455
vt 0.2247 0.5554 0.8455
vt 0.2256 0.6352 0.8455
vt 0.2285 0.8799 0.8455
vt 0.1270 0.8810 0.8455
vt 0.8177 0.0920 0.0000
vt 0.8194 0.1587 0.0000
vt 0.7652 0.1588 0.0000
vt 0.7664 0.0922 0.0000
vt 0.3408 0.4381 0.0000
vt 0.3416 0.3712 -7.8310
vt 0.4506 0.3724 0.0000
vt 0.4498 0.4393 0.0000
vt 0.7867 0.6336 0.8455
vt 0.7872 0.5535 0.8455
vt 0.8889 0.5541 0.8455
vt 0.8884 0.6342 0.8455
vt 0.8870 0.8794 0.8455
vt 0.7853 0.8788 0.8455
vt 0.2933 0.2682 -0.4711
vt 0.1928 0.2694 -0.4711
vt 0.1918 0.1900 -0.4711
vt 0.2924 0.1887 -0.4711
vt 0.0327 0.2668 0.6666
vt 0.0327 0.2047 0.6666
vt 0.1339 0.2047 0.6666
vt 0.1339 0.2668 0.6666
vt 0.0674 0.7169 0.8455
vt 0.1001 0.7166 0.8455
vt 0.1017 0.8564 0.8455
vt 0.0690 0.8568 0.8455
vt 0.9450 0.8548 0.8455
vt 0.9122 0.8546 0.8455
vt 0.9130 0.7144 0.8455
vt 0.9458 0.7146 0.8455
vt 0.7283 0.7133 0.8455
vt 0.7611 0.7135 0.8455
vt 0.7603 0.8537 0.8455
vt 0.7275 0.8536 0.8455
vt 0.2859 0.8543 0.8455
vt 0.2532 0.8547 0.8455
vt 0.2516 0.7148 0.8455
vt 0.2843 0.7144 0.8455
vt 0.0983 0.5568 0.8455
vt 0.0992 0.6367 0.8455
vt 0.0665 0.6371 0.8455
vt 0.0655 0.5572 0.8455
vt 0.9135 0.6343 0.8455
vt 0.9140 0.5543 0.8455
vt 0.9468 0.5544 0.8455
vt 0.9463 0.6345 0.8455
vt 0.9442 0.9829 0.8455
vt 0.9114 0.9827 0.8455
vt 0.9120 0.8796 0.8455
vt 0.9448 0.8798 0.8455
vt 0.1020 0.8813 0.8455
vt 0.0693 0.8817 0.8455
vt 0.7621 0.5533 0.8455
vt 0.7616 0.6334 0.8455
vt 0.7288 0.6332 0.8455
vt 0.7293 0.5532 0.8455
vt 0.2507 0.6349 0.8455
vt 0.2497 0.5551 0.8455
vt 0.2825 0.5547 0.8455
vt 0.2834 0.6346 0.8455
vt 0.2874 0.9820 0.8455
vt 0.2547 0.9824 0.8455
vt 0.2535 0.8796 0.8455
vt 0.2862 0.8792 0.8455
vt 0.7602 0.8787 0.8455
vt 0.7274 0.8785 0.8455
vt 0.9692 0.0831 0.0000
vt 0.9743 0.1454 0.0000
vt 0.9246 0.1510 0.0000
vt 0.9194 0.0868 0.0000
vt 0.8728 0.1558 0.0000
vt 0.8689 0.0900 0.0000
vt 0.6107 0.1452 0.0000
vt 0.6165 0.0838 0.0000
vt 0.6655 0.0876 0.0000
vt 0.6602 0.1510 0.0000
vt 0.7155 0.0906 0.0000
vt 0.7118 0.1559 0.0000
vt 0.3431 0.2373 0.0000
vt 0.3439 0.1704 0.0000
vt 0.4529 0.1716 0.0000
vt 0.4521 0.2386 0.0000
vt 0.3423 0.3042 0.0000
vt 0.4514 0.3055 0.0000
vt 0.4747 0.5735 0.0000
vt 0.4739 0.6404 0.0000
vt 0.4475 0.6401 0.0000
vt 0.4483 0.5732 0.0000
vt 0.4755 0.5066 0.0000
vt 0.4491 0.5063 0.0000
vt 0.4763 0.4396 0.0000
vt 0.6236 0.4042 0.0000
vt 0.6157 0.3448 0.0000
vt 0.6637 0.3374 0.0000
vt 0.6712 0.3992 0.0000
vt 0.2953 0.4270 0.4711
vt 0.1947 0.4283 -0.4711
vt 0.1938 0.3488 -0.4711
vt 0.2943 0.3476 -0.4711
vt 0.9678 0.3466 0.0000
vt 0.9590 0.4062 0.0000
vt 0.9112 0.4006 0.0000
vt 0.9194 0.3385 0.0000
vt 0.1899 0.0311 -0.3952
vt 0.2904 0.0299 -0.4711
vt 0.2914 0.1093 -0.4711
vt 0.1909 0.1105 -0.4711
vt 0.0327 0.0804 0.6666
vt 0.0327 0.0183 -0.6666
vt 0.1339 0.0183 0.6666
vt 0.1339 0.0804 0.6666
vt 0.0327 0.1426 0.6666
vt 0.1339 0.1426 0.6666
vt 0.6625 0.8529 0.8455
vt 0.6622 0.8790 0.8455
vt 0.5974 0.8534 0.8455
vt 0.5974 0.8779 0.8455
vt 0.5365 0.8538 0.8455
vt 0.5365 0.8775 0.8455
vt 0.4722 0.7887 7.8310
vt 0.5815 0.6417 0.0000
vt 0.5798 0.7900 0.0000
vt 0.5823 0.5747 0.0000
vt 0.5831 0.5078 0.0000
vt 0.5838 0.4409 0.0000
vt 0.4770 0.3727 0.0000
vt 0.5846 0.3739 0.0000
vt 0.4778 0.3058 0.0000
vt 0.5854 0.3070 0.0000
vt 0.4786 0.2389 0.0000
vt 0.5861 0.2401 0.0000
vt 0.4793 0.1719 0.0000
vt 0.5869 0.1732 0.0000
vt 0.4810 0.0236 0.0000
vt 0.5886 0.0248 0.0000
vt 0.6016 0.2064 0.0000
vt 0.6537 0.2029 0.0000
vt 0.6551 0.2864 0.0000
vt 0.6039 0.2855 0.0000
vt 0.7080 0.1998 0.0000
vt 0.7087 0.2871 0.0000
vt 0.7641 0.1976 0.0000
vt 0.7637 0.2876 0.0000
vt 0.8207 0.1978 0.0000
vt 0.8192 0.2880 0.0000
vt 0.8766 0.1998 0.0000
vt 0.8745 0.2876 0.0000
vt 0.9309 0.2030 0.0000
vt 0.9286 0.2872 0.0000
vt 0.9829 0.2066 0.0000
vt 0.9807 0.2865 0.0000
vt 0.2296 0.9827 0.8455
vt 0.1282 0.9838 -0.8455
vt 0.8863 0.9825 0.8455
vt 0.7847 0.9819 -0.8455
vt 0.4769 0.8775 0.8455
vt 0.4769 0.8537 0.8455
vt 0.1032 0.9841 0.8455
vt 0.0705 0.9845 0.8455
vt 0.7596 0.9817 0.8455
vt 0.7268 0.9815 0.8455
vt 0.3385 0.6389 0.0000
vt 0.3392 0.5719 0.0000
vt 0.3400 0.5050 0.0000
vt 0.3509 0.8531 0.8455
vt 0.3513 0.8792 0.8455
vt 0.4160 0.8537 0.8455
vt 0.4161 0.8782 0.8455
vt 0.1339 0.4532 0.6666
vt 0.0327 0.4532 -0.6666
vt 0.0327 0.3911 0.6666
vt 0.1339 0.3911 0.6666
vt 0.0327 0.3289 0.6666
vt 0.1339 0.3289 0.6666
vt 0.0455 0.9848 0.8455
vt 0.0443 0.8820 0.8455
vt 0.0440 0.8571 0.8455
vt 0.0424 0.7172 0.8455
vt 0.0414 0.6374 0.8455
vt 0.0405 0.5575 0.8455
vt 0.9719 0.5546 0.8455
vt 0.9714 0.6347 0.8455
vt 0.9709 0.7148 0.8455
vt 0.9701 0.8550 0.8455
vt 0.9699 0.8799 0.8455
vt 0.9693 0.9830 0.8455
vt 0.3075 0.5544 0.8455
vt 0.3084 0.6343 0.8455
vt 0.3093 0.7141 0.8455
vt 0.3110 0.8540 0.8455
vt 0.2853 0.8289 0.8455
vt 0.3494 0.8274 0.8455
vt 0.4126 0.8207 0.8455
vt 0.4750 0.8151 0.8455
vt 0.5380 0.8145 0.8455
vt 0.6008 0.8202 0.8455
vt 0.6642 0.8270 0.8455
vt 0.7280 0.8286 0.8455
vt 0.7024 0.8534 0.8455
vt 0.7032 0.7132 0.8455
vt 0.7037 0.6331 0.8455
vt 0.7042 0.5530 0.8455
vt 0.7017 0.9814 0.8455
vt 0.7024 0.8784 0.8455
vt 0.7277 0.9040 0.8455
vt 0.6635 0.9047 0.8455
vt 0.6006 0.9109 0.8455
vt 0.5383 0.9161 0.8455
vt 0.4754 0.9166 0.8455
vt 0.4129 0.9113 0.8455
vt 0.3498 0.9050 0.8455
vt 0.2860 0.9042 0.8455
vt 0.3112 0.8789 0.8455
vt 0.3124 0.9817 0.8455
vt 0.1224 0.4767 0.8455
vt 0.2238 0.4755 0.8455
vt 0.7669 0.0287 0.0000
vt 0.8163 0.0281 8.4783
vt 0.7876 0.4734 0.8455
vt 0.8894 0.4740 0.8455
vt 0.7653 0.3258 0.0000
vt 0.8175 0.3257 0.0000
vt 0.8151 0.3962 0.0000
vt 0.8139 0.4558 0.0000
vt 0.7678 0.4555 0.0000
vt 0.7673 0.3959 0.0000
vt 0.0646 0.4773 0.8455
vt 0.0973 0.4769 0.8455
vt 0.9144 0.4742 0.8455
vt 0.9473 0.4744 0.8455
vt 0.7297 0.4731 0.8455
vt 0.7626 0.4733 0.8455
vt 0.2488 0.4752 0.8455
vt 0.2815 0.4748 0.8455
vt 0.9155 0.0235 0.0000
vt 0.9652 0.0203 0.0000
vt 0.8659 0.0263 0.0000
vt 0.6207 0.0224 0.0000
vt 0.6691 0.0255 0.0000
vt 0.7178 0.0277 0.0000
vt 0.6752 0.4592 0.0000
vt 0.6285 0.4633 -8.4783
vt 0.7139 0.3300 0.0000
vt 0.7193 0.3969 0.0000
vt 0.7216 0.4567 0.0000
vt 0.9532 0.4653 0.0000
vt 0.9065 0.4607 0.0000
vt 0.8601 0.4575 0.0000
vt 0.8631 0.3978 0.0000
vt 0.8689 0.3305 0.0000
vt 0.0396 0.4776 0.8455
vt 0.9723 0.4745 0.8455
vt 0.3066 0.4745 0.8455
vt 0.7047 0.4729 0.8455
vt 0.2954 0.4364 -0.4711
vt 0.1948 0.4376 -0.4711
vt 0.1854 0.4284 -0.4711
vt 0.1844 0.3489 -0.4711
vt 0.1835 0.2695 -0.4711
vt 0.1825 0.1901 -0.4711
vt 0.1815 0.1106 -0.4711
vt 0.1806 0.0312 -0.4711
vt 0.1898 0.0218 -0.4711
vt 0.2903 0.0206 -0.4711
vt 0.2997 0.0298 -0.4711
vt 0.3007 0.1092 -0.4711
vt 0.3017 0.1886 -0.4711
vt 0.3026 0.2681 -0.4711
vt 0.3036 0.3475 -0.4711
vt 0.3046 0.4269 -0.4711
# 284 texture coords

o Box001
g Box001
usemtl 01___Default
s 8
f 1/1/1 2/2/1 3/3/1 4/4/1 
s 32
f 5/5/2 6/6/2 7/7/2 8/8/2 
s 8
f 9/9/1 10/10/1 11/11/1 12/12/1 
f 4/4/1 13/13/1 14/14/1 1/1/1 
s 16
f 15/15/3 16/16/3 17/17/3 18/18/3 
f 19/19/3 20/20/3 21/21/3 22/22/3 
s 32
f 23/23/2 24/24/2 25/25/2 26/26/2 
f 8/8/2 27/27/2 28/28/2 5/5/2 
s 64
f 29/29/4 30/30/5 31/31/5 32/32/4 
f 33/33/6 34/34/6 35/35/5 36/36/5 
s 16
f 37/37/7 38/38/8 39/39/8 40/40/7 
f 41/41/8 42/42/7 43/43/7 44/44/8 
s 64
f 45/45/9 46/46/10 47/47/10 48/48/11 
f 49/49/12 50/50/9 51/51/9 52/52/10 
s 16
f 53/53/8 54/54/8 55/55/7 56/56/7 
f 57/57/7 58/58/7 59/59/8 60/60/8 
f 61/61/8 62/62/7 63/63/7 64/64/8 
f 40/40/7 39/39/8 65/65/8 66/66/7 
s 64
f 67/67/10 68/68/10 69/69/9 70/70/9 
f 71/71/9 72/72/9 73/73/10 74/74/10 
f 75/75/10 76/76/9 77/77/9 78/78/13 
f 48/48/11 47/47/10 79/79/10 80/80/14 
s 16
f 81/81/7 82/82/7 83/83/3 84/84/3 
f 84/84/3 83/83/3 85/85/3 86/86/3 
f 86/86/3 85/85/3 16/16/3 15/15/3 
f 87/87/8 88/88/8 89/89/3 90/90/3 
f 90/90/3 89/89/3 91/91/3 92/92/3 
f 92/92/3 91/91/3 18/18/3 17/17/3 
f 93/93/3 94/94/8 95/95/8 96/96/3 
f 97/97/3 93/93/3 96/96/3 98/98/3 
f 20/20/3 97/97/3 98/98/3 21/21/3 
f 99/99/15 100/100/16 101/101/7 102/102/3 
f 103/103/15 99/99/15 102/102/3 104/104/3 
f 105/105/15 103/103/15 104/104/3 22/22/3 
s 64
f 106/106/9 107/107/9 108/108/13 109/109/12 
f 110/110/17 111/111/18 112/112/5 113/113/4 
f 113/113/4 112/112/5 30/30/5 29/29/4 
f 114/114/10 115/115/10 116/116/11 117/117/14 
f 118/118/19 119/119/20 120/120/4 121/121/5 
f 121/121/5 120/120/4 32/32/4 31/31/5 
f 122/122/6 123/123/10 124/124/18 125/125/5 
f 126/126/6 122/122/6 125/125/5 127/127/5 
f 34/34/6 126/126/6 127/127/5 35/35/5 
f 128/128/21 48/48/11 80/80/14 129/129/22 
f 130/130/23 128/128/21 129/129/22 131/131/24 
f 132/132/25 130/130/23 131/131/24 133/133/26 
s 1
f 134/134/27 100/100/16 135/135/28 136/136/29 
s 2
f 100/100/16 99/99/15 137/137/30 135/135/28 
f 99/99/15 103/103/15 138/138/30 137/137/30 
f 103/103/15 105/105/15 139/139/30 138/138/30 
f 105/105/15 140/140/15 141/141/30 139/139/30 
f 140/140/15 142/142/15 143/143/30 141/141/30 
f 142/142/15 144/144/15 145/145/30 143/143/30 
f 144/144/15 146/146/31 147/147/32 145/145/30 
s 1
f 146/146/31 148/148/33 149/149/34 147/147/32 
s 2
f 148/150/33 150/151/35 151/152/36 149/153/34 
f 150/151/35 152/154/37 153/155/38 151/152/36 
f 152/154/37 154/156/39 155/157/40 153/155/38 
f 154/156/39 156/158/41 157/159/42 155/157/40 
f 156/158/41 158/160/43 159/161/44 157/159/42 
f 158/160/43 160/162/45 161/163/46 159/161/44 
f 160/162/45 134/164/27 136/165/29 161/163/46 
s 8
f 13/13/1 162/166/1 163/167/1 14/14/1 
s 16
f 21/21/3 140/140/15 105/105/15 22/22/3 
s 32
f 27/27/2 164/168/2 165/169/2 28/28/2 
s 64
f 166/170/47 167/171/48 132/132/25 133/133/26 
s 16
f 63/63/7 42/42/7 41/41/8 64/64/8 
f 65/65/8 168/172/8 169/173/7 66/66/7 
s 64
f 77/77/9 50/50/9 49/49/12 78/78/13 
f 79/79/10 170/174/10 171/175/9 80/80/14 
s 16
f 95/95/8 146/146/31 144/144/15 96/96/3 
f 96/96/3 144/144/15 142/142/15 98/98/3 
f 98/98/3 142/142/15 140/140/15 21/21/3 
f 101/101/7 172/176/7 173/177/3 102/102/3 
f 102/102/3 173/177/3 174/178/3 104/104/3 
f 104/104/3 174/178/3 19/19/3 22/22/3 
s 64
f 78/78/13 49/49/12 175/179/49 176/180/50 
f 176/180/50 175/179/49 177/181/51 178/182/52 
f 178/182/52 177/181/51 167/171/48 166/170/47 
f 179/183/19 180/184/9 181/185/6 182/186/5 
f 182/186/5 181/185/6 183/187/6 184/188/5 
f 184/188/5 183/187/6 33/33/6 36/36/5 
s off
f 10/10/1 9/9/1 54/54/8 53/53/8 
f 2/2/1 1/1/1 39/39/8 38/38/8 
f 1/1/1 14/14/1 65/65/8 39/39/8 
f 14/14/1 163/167/1 168/172/8 65/65/8 
f 172/189/7 101/190/7 66/66/7 169/173/7 
f 101/190/7 100/191/16 40/40/7 66/66/7 
f 100/191/16 134/192/27 37/37/7 40/40/7 
f 82/193/7 81/194/7 56/56/7 55/55/7 
f 164/168/2 27/27/2 63/63/7 62/62/7 
f 27/27/2 8/8/2 42/42/7 63/63/7 
f 8/8/2 7/7/2 43/43/7 42/42/7 
f 26/26/2 25/25/2 58/58/7 57/57/7 
f 88/195/8 87/196/8 60/60/8 59/59/8 
f 148/197/33 146/198/31 41/41/8 44/44/8 
f 146/198/31 95/199/8 64/64/8 41/41/8 
f 95/199/8 94/200/8 61/61/8 64/64/8 
f 162/166/1 13/13/1 77/77/9 76/76/9 
f 13/13/1 4/4/1 50/50/9 77/77/9 
f 4/4/1 3/3/1 51/51/9 50/50/9 
f 12/12/1 11/11/1 72/72/9 71/71/9 
f 115/201/10 114/202/10 74/74/10 73/73/10 
f 136/203/29 135/204/28 49/49/12 52/52/10 
f 135/205/28 137/206/30 175/179/49 49/49/12 
f 137/206/30 138/207/30 177/181/51 175/179/49 
f 138/207/30 139/208/30 167/171/48 177/181/51 
f 139/208/30 141/209/30 132/132/25 167/171/48 
f 141/209/30 143/210/30 130/130/23 132/132/25 
f 143/210/30 145/211/30 128/128/21 130/130/23 
f 145/211/30 147/212/32 48/48/11 128/128/21 
f 147/213/32 149/214/34 45/45/9 48/48/11 
f 107/215/9 106/216/9 70/70/9 69/69/9 
f 24/24/2 23/23/2 68/68/10 67/67/10 
f 6/6/2 5/5/2 47/47/10 46/46/10 
f 5/5/2 28/28/2 79/79/10 47/47/10 
f 28/28/2 165/169/2 170/174/10 79/79/10 
f 180/217/9 179/218/19 80/80/14 171/175/9 
f 179/219/19 182/220/5 129/129/22 80/80/14 
f 182/220/5 184/221/5 131/131/24 129/129/22 
f 184/221/5 36/222/5 133/133/26 131/131/24 
f 36/222/5 35/223/5 166/170/47 133/133/26 
f 35/223/5 127/224/5 178/182/52 166/170/47 
f 127/224/5 125/225/5 176/180/50 178/182/52 
f 125/225/5 124/226/18 78/78/13 176/180/50 
f 124/227/18 123/228/10 75/75/10 78/78/13 
s 8
f 10/10/1 185/229/1 186/230/1 11/11/1 
f 12/12/1 3/3/1 2/2/1 9/9/1 
s 16
f 16/16/3 156/158/41 154/156/39 17/17/3 
f 18/18/3 187/231/3 188/232/3 15/15/3 
s 32
f 24/24/2 189/233/2 190/234/2 25/25/2 
f 26/26/2 7/7/2 6/6/2 23/23/2 
s 64
f 191/235/5 155/157/40 157/159/42 192/236/5 
f 193/237/4 194/238/6 195/239/6 196/240/4 
s 16
f 54/54/8 38/38/8 37/37/7 55/55/7 
f 56/56/7 197/241/7 198/242/8 53/53/8 
f 58/58/7 199/243/7 200/244/8 59/59/8 
f 60/60/8 44/44/8 43/43/7 57/57/7 
s 64
f 68/68/10 46/46/10 45/45/9 69/69/9 
f 70/70/9 201/245/9 202/246/10 67/67/10 
f 72/72/9 203/247/9 204/248/10 73/73/10 
f 74/74/10 52/52/10 51/51/9 71/71/9 
s 16
f 82/82/7 134/164/27 160/162/45 83/83/3 
f 84/84/3 205/249/3 206/250/7 81/81/7 
f 83/83/3 160/162/45 158/160/43 85/85/3 
f 86/86/3 207/251/3 205/249/3 84/84/3 
f 85/85/3 158/160/43 156/158/41 16/16/3 
f 15/15/3 188/232/3 207/251/3 86/86/3 
f 88/88/8 208/252/8 209/253/3 89/89/3 
f 90/90/3 150/151/35 148/150/33 87/87/8 
f 89/89/3 209/253/3 210/254/3 91/91/3 
f 92/92/3 152/154/37 150/151/35 90/90/3 
f 91/91/3 210/254/3 187/231/3 18/18/3 
f 17/17/3 154/156/39 152/154/37 92/92/3 
s 64
f 107/107/9 149/153/34 151/152/36 108/108/13 
f 109/109/12 211/255/6 212/256/9 106/106/9 
f 108/108/13 151/152/36 153/155/38 213/257/5 
f 214/258/4 215/259/6 211/255/6 109/109/12 
f 213/257/5 153/155/38 155/157/40 191/235/5 
f 196/240/4 195/239/6 215/259/6 214/258/4 
f 115/115/10 216/260/10 217/261/6 116/116/11 
f 117/117/14 161/163/46 136/165/29 114/114/10 
f 116/116/11 217/261/6 218/262/6 219/263/4 
f 220/264/5 159/161/44 161/163/46 117/117/14 
f 219/263/4 218/262/6 194/238/6 193/237/4 
f 192/236/5 157/159/42 159/161/44 220/264/5 
s off
f 9/9/1 2/2/1 38/38/8 54/54/8 
f 53/53/8 198/242/8 185/229/1 10/10/1 
f 81/194/7 206/265/7 197/241/7 56/56/7 
f 55/55/7 37/37/7 134/192/27 82/193/7 
f 25/25/2 190/234/2 199/243/7 58/58/7 
f 57/57/7 43/43/7 7/7/2 26/26/2 
f 87/196/8 148/197/33 44/44/8 60/60/8 
f 59/59/8 200/244/8 208/266/8 88/195/8 
f 11/11/1 186/230/1 203/247/9 72/72/9 
f 71/71/9 51/51/9 3/3/1 12/12/1 
f 114/202/10 136/203/29 52/52/10 74/74/10 
f 73/73/10 204/248/10 216/267/10 115/201/10 
f 106/216/9 212/268/9 201/245/9 70/70/9 
f 69/69/9 45/45/9 149/214/34 107/215/9 
f 23/23/2 6/6/2 46/46/10 68/68/10 
f 67/67/10 202/246/10 189/233/2 24/24/2 
f 109/269/12 108/270/13 111/111/18 110/110/17 
f 108/271/13 213/272/5 112/112/5 111/111/18 
f 213/272/5 191/273/5 30/30/5 112/112/5 
f 191/273/5 192/274/5 31/31/5 30/30/5 
f 192/274/5 220/275/5 121/121/5 31/31/5 
f 220/275/5 117/276/14 118/118/19 121/121/5 
f 117/277/14 116/278/11 119/119/20 118/118/19 
f 116/279/11 219/280/4 120/120/4 119/119/20 
f 219/280/4 193/281/4 32/32/4 120/120/4 
f 193/281/4 196/282/4 29/29/4 32/32/4 
f 196/282/4 214/283/4 113/113/4 29/29/4 
f 214/283/4 109/284/12 110/110/17 113/113/4 
# 194 polygons

