%YAML 1.1
%TAG !u! tag:unity3d.com,2011:
--- !u!114 &11400000
MonoBehaviour:
  m_ObjectHideFlags: 0
  m_CorrespondingSourceObject: {fileID: 0}
  m_PrefabInstance: {fileID: 0}
  m_PrefabAsset: {fileID: 0}
  m_GameObject: {fileID: 0}
  m_Enabled: 1
  m_EditorHideFlags: 0
  m_Script: {fileID: 11500000, guid: 106a73d5de8aefe4384b3d4891038169, type: 3}
  m_Name: InspectorHistoryData
  m_EditorClassIdentifier: 
  content:
    curObject: 0
    prevObjects: 
    nextObjects: 
    goingBack: 0
    goingForward: 0
    prevInd: 0
    nextInd: 0
    cache: 5
    height: 0
    enableFavourites: 1
    maxFavouritesPerRow: 4
    favouritesWidth: 100
    favourites: []
