%YAML 1.1
%TAG !u! tag:unity3d.com,2011:
--- !u!1 &7123976685288282626
GameObject:
  m_ObjectHideFlags: 0
  m_CorrespondingSourceObject: {fileID: 0}
  m_PrefabInstance: {fileID: 0}
  m_PrefabAsset: {fileID: 0}
  serializedVersion: 6
  m_Component:
  - component: {fileID: 7123976685288282636}
  - component: {fileID: 7123976685288282627}
  m_Layer: 0
  m_Name: BookShelf_2
  m_TagString: Untagged
  m_Icon: {fileID: 0}
  m_NavMeshLayer: 0
  m_StaticEditorFlags: 0
  m_IsActive: 1
--- !u!4 &7123976685288282636
Transform:
  m_ObjectHideFlags: 0
  m_CorrespondingSourceObject: {fileID: 0}
  m_PrefabInstance: {fileID: 0}
  m_PrefabAsset: {fileID: 0}
  m_GameObject: {fileID: 7123976685288282626}
  m_LocalRotation: {x: -0, y: 0.7071068, z: -0, w: 0.7071068}
  m_LocalPosition: {x: 56.102, y: 1.5859, z: -14.697}
  m_LocalScale: {x: 0.00017423183, y: 0.00017423173, z: 0.00017423183}
  m_Children:
  - {fileID: 2857472132710596482}
  m_Father: {fileID: 0}
  m_RootOrder: 0
  m_LocalEulerAnglesHint: {x: 0, y: 0, z: 0}
--- !u!65 &7123976685288282627
BoxCollider:
  m_ObjectHideFlags: 0
  m_CorrespondingSourceObject: {fileID: 0}
  m_PrefabInstance: {fileID: 0}
  m_PrefabAsset: {fileID: 0}
  m_GameObject: {fileID: 7123976685288282626}
  m_Material: {fileID: 0}
  m_IsTrigger: 0
  m_Enabled: 1
  serializedVersion: 2
  m_Size: {x: 6166.0005, y: 23614.064, z: 23329.1}
  m_Center: {x: -192.70857, y: -2798.7388, z: 983.15436}
--- !u!1001 &7123976686857835672
PrefabInstance:
  m_ObjectHideFlags: 0
  serializedVersion: 2
  m_Modification:
    m_TransformParent: {fileID: 7123976685288282636}
    m_Modifications:
    - target: {fileID: -927199367670048503, guid: f971b2d4d7c9dc146940eb922f967747,
        type: 3}
      propertyPath: m_Name
      value: book shelf two
      objectReference: {fileID: 0}
    - target: {fileID: -8105897253722617719, guid: f971b2d4d7c9dc146940eb922f967747,
        type: 3}
      propertyPath: m_Materials.Array.data[0]
      value: 
      objectReference: {fileID: 2100000, guid: d4912d367977dd34b87d19cf76693748, type: 2}
    - target: {fileID: -7988200860483390442, guid: f971b2d4d7c9dc146940eb922f967747,
        type: 3}
      propertyPath: m_Materials.Array.data[0]
      value: 
      objectReference: {fileID: 2100000, guid: 4b750ec09c467a646a6a95bdc3993dd8, type: 2}
    - target: {fileID: -7708664701021942116, guid: f971b2d4d7c9dc146940eb922f967747,
        type: 3}
      propertyPath: m_Materials.Array.data[0]
      value: 
      objectReference: {fileID: 2100000, guid: d1f6e732ea4ddd74cad943c8e19e413c, type: 2}
    - target: {fileID: -7635802333171012719, guid: f971b2d4d7c9dc146940eb922f967747,
        type: 3}
      propertyPath: m_Materials.Array.data[0]
      value: 
      objectReference: {fileID: 2100000, guid: d4912d367977dd34b87d19cf76693748, type: 2}
    - target: {fileID: -4465999788348405436, guid: f971b2d4d7c9dc146940eb922f967747,
        type: 3}
      propertyPath: m_Materials.Array.data[0]
      value: 
      objectReference: {fileID: 2100000, guid: d1f6e732ea4ddd74cad943c8e19e413c, type: 2}
    - target: {fileID: -4216859302048453862, guid: f971b2d4d7c9dc146940eb922f967747,
        type: 3}
      propertyPath: m_LocalPosition.x
      value: -153.29501
      objectReference: {fileID: 0}
    - target: {fileID: -4216859302048453862, guid: f971b2d4d7c9dc146940eb922f967747,
        type: 3}
      propertyPath: m_LocalPosition.y
      value: -13707.6455
      objectReference: {fileID: 0}
    - target: {fileID: -4216859302048453862, guid: f971b2d4d7c9dc146940eb922f967747,
        type: 3}
      propertyPath: m_LocalPosition.z
      value: 981.094
      objectReference: {fileID: 0}
    - target: {fileID: -4216859302048453862, guid: f971b2d4d7c9dc146940eb922f967747,
        type: 3}
      propertyPath: m_LocalRotation.x
      value: 0
      objectReference: {fileID: 0}
    - target: {fileID: -4216859302048453862, guid: f971b2d4d7c9dc146940eb922f967747,
        type: 3}
      propertyPath: m_LocalRotation.y
      value: -0.7071068
      objectReference: {fileID: 0}
    - target: {fileID: -4216859302048453862, guid: f971b2d4d7c9dc146940eb922f967747,
        type: 3}
      propertyPath: m_LocalRotation.z
      value: -0
      objectReference: {fileID: 0}
    - target: {fileID: -4216859302048453862, guid: f971b2d4d7c9dc146940eb922f967747,
        type: 3}
      propertyPath: m_LocalRotation.w
      value: 0.7071068
      objectReference: {fileID: 0}
    - target: {fileID: -4216859302048453862, guid: f971b2d4d7c9dc146940eb922f967747,
        type: 3}
      propertyPath: m_RootOrder
      value: 0
      objectReference: {fileID: 0}
    - target: {fileID: -4216859302048453862, guid: f971b2d4d7c9dc146940eb922f967747,
        type: 3}
      propertyPath: m_LocalEulerAnglesHint.x
      value: 0
      objectReference: {fileID: 0}
    - target: {fileID: -4216859302048453862, guid: f971b2d4d7c9dc146940eb922f967747,
        type: 3}
      propertyPath: m_LocalEulerAnglesHint.y
      value: 0
      objectReference: {fileID: 0}
    - target: {fileID: -4216859302048453862, guid: f971b2d4d7c9dc146940eb922f967747,
        type: 3}
      propertyPath: m_LocalEulerAnglesHint.z
      value: 0
      objectReference: {fileID: 0}
    - target: {fileID: -4216859302048453862, guid: f971b2d4d7c9dc146940eb922f967747,
        type: 3}
      propertyPath: m_LocalScale.x
      value: 75.333
      objectReference: {fileID: 0}
    - target: {fileID: -4216859302048453862, guid: f971b2d4d7c9dc146940eb922f967747,
        type: 3}
      propertyPath: m_LocalScale.y
      value: 75.33303
      objectReference: {fileID: 0}
    - target: {fileID: -4216859302048453862, guid: f971b2d4d7c9dc146940eb922f967747,
        type: 3}
      propertyPath: m_LocalScale.z
      value: 75.333
      objectReference: {fileID: 0}
    - target: {fileID: -4172731856991954935, guid: f971b2d4d7c9dc146940eb922f967747,
        type: 3}
      propertyPath: m_Materials.Array.data[0]
      value: 
      objectReference: {fileID: 2100000, guid: d1f6e732ea4ddd74cad943c8e19e413c, type: 2}
    - target: {fileID: -3590529353302345851, guid: f971b2d4d7c9dc146940eb922f967747,
        type: 3}
      propertyPath: m_Materials.Array.data[0]
      value: 
      objectReference: {fileID: 2100000, guid: d1f6e732ea4ddd74cad943c8e19e413c, type: 2}
    - target: {fileID: -3040881637424758922, guid: f971b2d4d7c9dc146940eb922f967747,
        type: 3}
      propertyPath: m_Materials.Array.data[0]
      value: 
      objectReference: {fileID: 2100000, guid: 4b750ec09c467a646a6a95bdc3993dd8, type: 2}
    - target: {fileID: -976997319853027482, guid: f971b2d4d7c9dc146940eb922f967747,
        type: 3}
      propertyPath: m_Materials.Array.data[0]
      value: 
      objectReference: {fileID: 2100000, guid: d4912d367977dd34b87d19cf76693748, type: 2}
    - target: {fileID: -857622760253741516, guid: f971b2d4d7c9dc146940eb922f967747,
        type: 3}
      propertyPath: m_Materials.Array.data[0]
      value: 
      objectReference: {fileID: 2100000, guid: d4912d367977dd34b87d19cf76693748, type: 2}
    - target: {fileID: -452275364624602516, guid: f971b2d4d7c9dc146940eb922f967747,
        type: 3}
      propertyPath: m_Materials.Array.data[0]
      value: 
      objectReference: {fileID: 2100000, guid: d4912d367977dd34b87d19cf76693748, type: 2}
    - target: {fileID: 43418236828418787, guid: f971b2d4d7c9dc146940eb922f967747,
        type: 3}
      propertyPath: m_Materials.Array.data[0]
      value: 
      objectReference: {fileID: 2100000, guid: 4b750ec09c467a646a6a95bdc3993dd8, type: 2}
    - target: {fileID: 824184668887817069, guid: f971b2d4d7c9dc146940eb922f967747,
        type: 3}
      propertyPath: m_Materials.Array.data[0]
      value: 
      objectReference: {fileID: 2100000, guid: 4b750ec09c467a646a6a95bdc3993dd8, type: 2}
    - target: {fileID: 1631312685452210030, guid: f971b2d4d7c9dc146940eb922f967747,
        type: 3}
      propertyPath: m_Materials.Array.data[0]
      value: 
      objectReference: {fileID: 2100000, guid: d4912d367977dd34b87d19cf76693748, type: 2}
    - target: {fileID: 1820963007536034856, guid: f971b2d4d7c9dc146940eb922f967747,
        type: 3}
      propertyPath: m_Materials.Array.data[0]
      value: 
      objectReference: {fileID: 2100000, guid: d4912d367977dd34b87d19cf76693748, type: 2}
    - target: {fileID: 1854361735027947242, guid: f971b2d4d7c9dc146940eb922f967747,
        type: 3}
      propertyPath: m_Materials.Array.data[0]
      value: 
      objectReference: {fileID: 2100000, guid: 0bc925c3edb1890448af822ce9c01630, type: 2}
    - target: {fileID: 3323327642437968290, guid: f971b2d4d7c9dc146940eb922f967747,
        type: 3}
      propertyPath: m_Materials.Array.data[0]
      value: 
      objectReference: {fileID: 2100000, guid: d1f6e732ea4ddd74cad943c8e19e413c, type: 2}
    - target: {fileID: 3962724901724387070, guid: f971b2d4d7c9dc146940eb922f967747,
        type: 3}
      propertyPath: m_Materials.Array.data[0]
      value: 
      objectReference: {fileID: 2100000, guid: 4b750ec09c467a646a6a95bdc3993dd8, type: 2}
    - target: {fileID: 3987999561572934066, guid: f971b2d4d7c9dc146940eb922f967747,
        type: 3}
      propertyPath: m_Materials.Array.data[0]
      value: 
      objectReference: {fileID: 2100000, guid: d1f6e732ea4ddd74cad943c8e19e413c, type: 2}
    - target: {fileID: 4187164394689146372, guid: f971b2d4d7c9dc146940eb922f967747,
        type: 3}
      propertyPath: m_Materials.Array.data[0]
      value: 
      objectReference: {fileID: 2100000, guid: 4b750ec09c467a646a6a95bdc3993dd8, type: 2}
    - target: {fileID: 4212843864954882746, guid: f971b2d4d7c9dc146940eb922f967747,
        type: 3}
      propertyPath: m_Materials.Array.data[0]
      value: 
      objectReference: {fileID: 2100000, guid: d4912d367977dd34b87d19cf76693748, type: 2}
    - target: {fileID: 4376570637371931361, guid: f971b2d4d7c9dc146940eb922f967747,
        type: 3}
      propertyPath: m_Materials.Array.data[0]
      value: 
      objectReference: {fileID: 2100000, guid: d4912d367977dd34b87d19cf76693748, type: 2}
    - target: {fileID: 4630562520958745606, guid: f971b2d4d7c9dc146940eb922f967747,
        type: 3}
      propertyPath: m_Materials.Array.data[0]
      value: 
      objectReference: {fileID: 2100000, guid: 4b750ec09c467a646a6a95bdc3993dd8, type: 2}
    - target: {fileID: 5516261781715490797, guid: f971b2d4d7c9dc146940eb922f967747,
        type: 3}
      propertyPath: m_Materials.Array.data[0]
      value: 
      objectReference: {fileID: 2100000, guid: d4912d367977dd34b87d19cf76693748, type: 2}
    - target: {fileID: 6000921944867901827, guid: f971b2d4d7c9dc146940eb922f967747,
        type: 3}
      propertyPath: m_Materials.Array.data[0]
      value: 
      objectReference: {fileID: 2100000, guid: d1f6e732ea4ddd74cad943c8e19e413c, type: 2}
    - target: {fileID: 6171859588626280537, guid: f971b2d4d7c9dc146940eb922f967747,
        type: 3}
      propertyPath: m_Materials.Array.data[0]
      value: 
      objectReference: {fileID: 2100000, guid: d1f6e732ea4ddd74cad943c8e19e413c, type: 2}
    - target: {fileID: 6881179754382678481, guid: f971b2d4d7c9dc146940eb922f967747,
        type: 3}
      propertyPath: m_Materials.Array.data[0]
      value: 
      objectReference: {fileID: 2100000, guid: 4b750ec09c467a646a6a95bdc3993dd8, type: 2}
    - target: {fileID: 7410233300680981240, guid: f971b2d4d7c9dc146940eb922f967747,
        type: 3}
      propertyPath: m_Materials.Array.data[0]
      value: 
      objectReference: {fileID: 2100000, guid: d1f6e732ea4ddd74cad943c8e19e413c, type: 2}
    m_RemovedComponents: []
  m_SourcePrefab: {fileID: 100100000, guid: f971b2d4d7c9dc146940eb922f967747, type: 3}
--- !u!4 &2857472132710596482 stripped
Transform:
  m_CorrespondingSourceObject: {fileID: -4216859302048453862, guid: f971b2d4d7c9dc146940eb922f967747,
    type: 3}
  m_PrefabInstance: {fileID: 7123976686857835672}
  m_PrefabAsset: {fileID: 0}
