%YAML 1.1
%TAG !u! tag:unity3d.com,2011:
--- !u!1 &8976596237068005727
GameObject:
  m_ObjectHideFlags: 0
  m_CorrespondingSourceObject: {fileID: 0}
  m_PrefabInstance: {fileID: 0}
  m_PrefabAsset: {fileID: 0}
  serializedVersion: 6
  m_Component:
  - component: {fileID: 2402854530614682119}
  - component: {fileID: 2231996825220792000}
  m_Layer: 0
  m_Name: BookShelf3_Prefab
  m_TagString: Untagged
  m_Icon: {fileID: 0}
  m_NavMeshLayer: 0
  m_StaticEditorFlags: 0
  m_IsActive: 1
--- !u!4 &2402854530614682119
Transform:
  m_ObjectHideFlags: 0
  m_CorrespondingSourceObject: {fileID: 0}
  m_PrefabInstance: {fileID: 0}
  m_PrefabAsset: {fileID: 0}
  m_GameObject: {fileID: 8976596237068005727}
  m_LocalRotation: {x: -0, y: -0, z: -0, w: 1}
  m_LocalPosition: {x: 52.182, y: 1.2844, z: -15.786}
  m_LocalScale: {x: 0.01319033, y: 0.01319033, z: 0.01319033}
  m_Children:
  - {fileID: 5204319173583063737}
  m_Father: {fileID: 0}
  m_RootOrder: 0
  m_LocalEulerAnglesHint: {x: 0, y: 0, z: 0}
--- !u!65 &2231996825220792000
BoxCollider:
  m_ObjectHideFlags: 0
  m_CorrespondingSourceObject: {fileID: 0}
  m_PrefabInstance: {fileID: 0}
  m_PrefabAsset: {fileID: 0}
  m_GameObject: {fileID: 8976596237068005727}
  m_Material: {fileID: 0}
  m_IsTrigger: 0
  m_Enabled: 1
  serializedVersion: 2
  m_Size: {x: 308.74966, y: 313.84866, z: 83.65951}
  m_Center: {x: 0.031845093, y: -14.50676, z: 0.18100357}
--- !u!1001 &955819169552916899
PrefabInstance:
  m_ObjectHideFlags: 0
  serializedVersion: 2
  m_Modification:
    m_TransformParent: {fileID: 2402854530614682119}
    m_Modifications:
    - target: {fileID: -927199367670048503, guid: cf79a7706bbd03b4dabaa273dda74a2b,
        type: 3}
      propertyPath: m_Name
      value: book shelf three
      objectReference: {fileID: 0}
    - target: {fileID: -8022721050729840405, guid: cf79a7706bbd03b4dabaa273dda74a2b,
        type: 3}
      propertyPath: m_Materials.Array.data[0]
      value: 
      objectReference: {fileID: 2100000, guid: d4912d367977dd34b87d19cf76693748, type: 2}
    - target: {fileID: -6556644898625219818, guid: cf79a7706bbd03b4dabaa273dda74a2b,
        type: 3}
      propertyPath: m_Materials.Array.data[0]
      value: 
      objectReference: {fileID: 2100000, guid: d4912d367977dd34b87d19cf76693748, type: 2}
    - target: {fileID: -6293624144298873868, guid: cf79a7706bbd03b4dabaa273dda74a2b,
        type: 3}
      propertyPath: m_Materials.Array.data[0]
      value: 
      objectReference: {fileID: 2100000, guid: d1f6e732ea4ddd74cad943c8e19e413c, type: 2}
    - target: {fileID: -6203314017845586979, guid: cf79a7706bbd03b4dabaa273dda74a2b,
        type: 3}
      propertyPath: m_Materials.Array.data[0]
      value: 
      objectReference: {fileID: 2100000, guid: d1f6e732ea4ddd74cad943c8e19e413c, type: 2}
    - target: {fileID: -5871739665353863924, guid: cf79a7706bbd03b4dabaa273dda74a2b,
        type: 3}
      propertyPath: m_Materials.Array.data[0]
      value: 
      objectReference: {fileID: 2100000, guid: d1f6e732ea4ddd74cad943c8e19e413c, type: 2}
    - target: {fileID: -4809236568086854989, guid: cf79a7706bbd03b4dabaa273dda74a2b,
        type: 3}
      propertyPath: m_Materials.Array.data[0]
      value: 
      objectReference: {fileID: 2100000, guid: d1f6e732ea4ddd74cad943c8e19e413c, type: 2}
    - target: {fileID: -4798118964828208361, guid: cf79a7706bbd03b4dabaa273dda74a2b,
        type: 3}
      propertyPath: m_Materials.Array.data[0]
      value: 
      objectReference: {fileID: 2100000, guid: d4912d367977dd34b87d19cf76693748, type: 2}
    - target: {fileID: -4227972063613320405, guid: cf79a7706bbd03b4dabaa273dda74a2b,
        type: 3}
      propertyPath: m_Materials.Array.data[0]
      value: 
      objectReference: {fileID: 2100000, guid: d1f6e732ea4ddd74cad943c8e19e413c, type: 2}
    - target: {fileID: -4216859302048453862, guid: cf79a7706bbd03b4dabaa273dda74a2b,
        type: 3}
      propertyPath: m_LocalPosition.x
      value: 0
      objectReference: {fileID: 0}
    - target: {fileID: -4216859302048453862, guid: cf79a7706bbd03b4dabaa273dda74a2b,
        type: 3}
      propertyPath: m_LocalPosition.y
      value: -159.4932
      objectReference: {fileID: 0}
    - target: {fileID: -4216859302048453862, guid: cf79a7706bbd03b4dabaa273dda74a2b,
        type: 3}
      propertyPath: m_LocalPosition.z
      value: 0
      objectReference: {fileID: 0}
    - target: {fileID: -4216859302048453862, guid: cf79a7706bbd03b4dabaa273dda74a2b,
        type: 3}
      propertyPath: m_LocalRotation.x
      value: -0
      objectReference: {fileID: 0}
    - target: {fileID: -4216859302048453862, guid: cf79a7706bbd03b4dabaa273dda74a2b,
        type: 3}
      propertyPath: m_LocalRotation.y
      value: -0
      objectReference: {fileID: 0}
    - target: {fileID: -4216859302048453862, guid: cf79a7706bbd03b4dabaa273dda74a2b,
        type: 3}
      propertyPath: m_LocalRotation.z
      value: -0
      objectReference: {fileID: 0}
    - target: {fileID: -4216859302048453862, guid: cf79a7706bbd03b4dabaa273dda74a2b,
        type: 3}
      propertyPath: m_LocalRotation.w
      value: 1
      objectReference: {fileID: 0}
    - target: {fileID: -4216859302048453862, guid: cf79a7706bbd03b4dabaa273dda74a2b,
        type: 3}
      propertyPath: m_RootOrder
      value: 0
      objectReference: {fileID: 0}
    - target: {fileID: -4216859302048453862, guid: cf79a7706bbd03b4dabaa273dda74a2b,
        type: 3}
      propertyPath: m_LocalEulerAnglesHint.x
      value: 0
      objectReference: {fileID: 0}
    - target: {fileID: -4216859302048453862, guid: cf79a7706bbd03b4dabaa273dda74a2b,
        type: 3}
      propertyPath: m_LocalEulerAnglesHint.y
      value: 0
      objectReference: {fileID: 0}
    - target: {fileID: -4216859302048453862, guid: cf79a7706bbd03b4dabaa273dda74a2b,
        type: 3}
      propertyPath: m_LocalEulerAnglesHint.z
      value: 0
      objectReference: {fileID: 0}
    - target: {fileID: -3905491061931772602, guid: cf79a7706bbd03b4dabaa273dda74a2b,
        type: 3}
      propertyPath: m_Materials.Array.data[0]
      value: 
      objectReference: {fileID: 2100000, guid: d1f6e732ea4ddd74cad943c8e19e413c, type: 2}
    - target: {fileID: -3286159402969999393, guid: cf79a7706bbd03b4dabaa273dda74a2b,
        type: 3}
      propertyPath: m_Materials.Array.data[0]
      value: 
      objectReference: {fileID: 2100000, guid: 4b750ec09c467a646a6a95bdc3993dd8, type: 2}
    - target: {fileID: -2837774538932900635, guid: cf79a7706bbd03b4dabaa273dda74a2b,
        type: 3}
      propertyPath: m_Materials.Array.data[0]
      value: 
      objectReference: {fileID: 2100000, guid: d1f6e732ea4ddd74cad943c8e19e413c, type: 2}
    - target: {fileID: -2809467155721832729, guid: cf79a7706bbd03b4dabaa273dda74a2b,
        type: 3}
      propertyPath: m_Materials.Array.data[0]
      value: 
      objectReference: {fileID: 2100000, guid: d4912d367977dd34b87d19cf76693748, type: 2}
    - target: {fileID: -2488017512341031373, guid: cf79a7706bbd03b4dabaa273dda74a2b,
        type: 3}
      propertyPath: m_Materials.Array.data[0]
      value: 
      objectReference: {fileID: 2100000, guid: 4b750ec09c467a646a6a95bdc3993dd8, type: 2}
    - target: {fileID: -2083558373919758836, guid: cf79a7706bbd03b4dabaa273dda74a2b,
        type: 3}
      propertyPath: m_Materials.Array.data[0]
      value: 
      objectReference: {fileID: 2100000, guid: 4b750ec09c467a646a6a95bdc3993dd8, type: 2}
    - target: {fileID: 1123654196316063340, guid: cf79a7706bbd03b4dabaa273dda74a2b,
        type: 3}
      propertyPath: m_Materials.Array.data[0]
      value: 
      objectReference: {fileID: 2100000, guid: d4912d367977dd34b87d19cf76693748, type: 2}
    - target: {fileID: 1124434863724718915, guid: cf79a7706bbd03b4dabaa273dda74a2b,
        type: 3}
      propertyPath: m_Materials.Array.data[0]
      value: 
      objectReference: {fileID: 2100000, guid: 4b750ec09c467a646a6a95bdc3993dd8, type: 2}
    - target: {fileID: 1570149373884678743, guid: cf79a7706bbd03b4dabaa273dda74a2b,
        type: 3}
      propertyPath: m_Materials.Array.data[0]
      value: 
      objectReference: {fileID: 2100000, guid: 4b750ec09c467a646a6a95bdc3993dd8, type: 2}
    - target: {fileID: 1582599983058287658, guid: cf79a7706bbd03b4dabaa273dda74a2b,
        type: 3}
      propertyPath: m_Materials.Array.data[0]
      value: 
      objectReference: {fileID: 2100000, guid: d1f6e732ea4ddd74cad943c8e19e413c, type: 2}
    - target: {fileID: 2702803670416568655, guid: cf79a7706bbd03b4dabaa273dda74a2b,
        type: 3}
      propertyPath: m_Materials.Array.data[0]
      value: 
      objectReference: {fileID: 2100000, guid: d1f6e732ea4ddd74cad943c8e19e413c, type: 2}
    - target: {fileID: 2722484395836605493, guid: cf79a7706bbd03b4dabaa273dda74a2b,
        type: 3}
      propertyPath: m_Materials.Array.data[0]
      value: 
      objectReference: {fileID: 2100000, guid: 4b750ec09c467a646a6a95bdc3993dd8, type: 2}
    - target: {fileID: 2757674755687226912, guid: cf79a7706bbd03b4dabaa273dda74a2b,
        type: 3}
      propertyPath: m_Materials.Array.data[0]
      value: 
      objectReference: {fileID: 2100000, guid: d1f6e732ea4ddd74cad943c8e19e413c, type: 2}
    - target: {fileID: 3040704485865212299, guid: cf79a7706bbd03b4dabaa273dda74a2b,
        type: 3}
      propertyPath: m_Materials.Array.data[0]
      value: 
      objectReference: {fileID: 2100000, guid: d4912d367977dd34b87d19cf76693748, type: 2}
    - target: {fileID: 3375828150136741133, guid: cf79a7706bbd03b4dabaa273dda74a2b,
        type: 3}
      propertyPath: m_Materials.Array.data[0]
      value: 
      objectReference: {fileID: 2100000, guid: 4b750ec09c467a646a6a95bdc3993dd8, type: 2}
    - target: {fileID: 3491702154223081745, guid: cf79a7706bbd03b4dabaa273dda74a2b,
        type: 3}
      propertyPath: m_Materials.Array.data[0]
      value: 
      objectReference: {fileID: 2100000, guid: 0bc925c3edb1890448af822ce9c01630, type: 2}
    - target: {fileID: 7748077221532050691, guid: cf79a7706bbd03b4dabaa273dda74a2b,
        type: 3}
      propertyPath: m_Materials.Array.data[0]
      value: 
      objectReference: {fileID: 2100000, guid: d4912d367977dd34b87d19cf76693748, type: 2}
    m_RemovedComponents: []
  m_SourcePrefab: {fileID: 100100000, guid: cf79a7706bbd03b4dabaa273dda74a2b, type: 3}
--- !u!4 &5204319173583063737 stripped
Transform:
  m_CorrespondingSourceObject: {fileID: -4216859302048453862, guid: cf79a7706bbd03b4dabaa273dda74a2b,
    type: 3}
  m_PrefabInstance: {fileID: 955819169552916899}
  m_PrefabAsset: {fileID: 0}
