%YAML 1.1
%TAG !u! tag:unity3d.com,2011:
--- !u!114 &11400000
MonoBehaviour:
  m_ObjectHideFlags: 0
  m_CorrespondingSourceObject: {fileID: 0}
  m_PrefabInstance: {fileID: 0}
  m_PrefabAsset: {fileID: 0}
  m_GameObject: {fileID: 0}
  m_Enabled: 1
  m_EditorHideFlags: 0
  m_Script: {fileID: 11500000, guid: 370d1084398d9984587408b937ba8a8f, type: 3}
  m_Name: PlayerSkinManager
  m_EditorClassIdentifier: 
  playerSkins:
  - {fileID: 11400000, guid: 5da91f34225b64a47868e3ce68ea6ed2, type: 2}
  - {fileID: 11400000, guid: f67f8914a256aa246916d0bdb2d4c90b, type: 2}
