%YAML 1.1
%TAG !u! tag:unity3d.com,2011:
--- !u!114 &11400000
MonoBehaviour:
  m_ObjectHideFlags: 0
  m_CorrespondingSourceObject: {fileID: 0}
  m_PrefabInstance: {fileID: 0}
  m_PrefabAsset: {fileID: 0}
  m_GameObject: {fileID: 0}
  m_Enabled: 1
  m_EditorHideFlags: 0
  m_Script: {fileID: 11500000, guid: 777fa8f27ca674e42b092c272acf3df3, type: 3}
  m_Name: PlayerLivesNew
  m_EditorClassIdentifier: 
  valueUIType: 0
  value: 3
  minValue: 0
  maxValue: 3
  id: 1000110000
