%YAML 1.1
%TAG !u! tag:unity3d.com,2011:
--- !u!114 &11400000
MonoBehaviour:
  m_ObjectHideFlags: 0
  m_CorrespondingSourceObject: {fileID: 0}
  m_PrefabInstance: {fileID: 0}
  m_PrefabAsset: {fileID: 0}
  m_GameObject: {fileID: 0}
  m_Enabled: 1
  m_EditorHideFlags: 0
  m_Script: {fileID: 11500000, guid: 9dc99a7e881b7f548b4f4d3466499289, type: 3}
  m_Name: SpawnPoolManager
  m_EditorClassIdentifier: 
  pools:
  - prefabToSpawn: {fileID: 7549781219882817588, guid: 726bb8c7b2ba6694690cf304821cb337,
      type: 3}
    amountToSpawn: 1500
    createMoreIfEmpty: 1
    spawnOldest: 1
