%YAML 1.1
%TAG !u! tag:unity3d.com,2011:
--- !u!114 &11400000
MonoBehaviour:
  m_ObjectHideFlags: 0
  m_CorrespondingSourceObject: {fileID: 0}
  m_PrefabInstance: {fileID: 0}
  m_PrefabAsset: {fileID: 0}
  m_GameObject: {fileID: 0}
  m_Enabled: 1
  m_EditorHideFlags: 0
  m_Script: {fileID: 11500000, guid: 458df96907322c646a1ace6a4199ff91, type: 3}
  m_Name: CallMethod
  m_EditorClassIdentifier: 
  delay: 0
  affectedType:
    sceneObjectType: 0
    closestTag: 
    nameToFind: 
  behaviour:
    stringValue: Animator
    indexValue: 4
    stringValues: []
  method:
    go: {fileID: 0}
    goInstanceValue: 0
    behaviourToUse: 
    behaviourInd: 0
    methodToCall: CrossFade
    methodInd: 52
    parameterValues:
    - serializedObjectValue: '{"$content":"","$type":"System.String"}'
      objectValue: {fileID: 0}
      boolValue: 0
      boundsValue:
        m_Center: {x: 0, y: 0, z: 0}
        m_Extent: {x: 0, y: 0, z: 0}
      colorValue: {r: 0, g: 0, b: 0, a: 0}
      animationCurveValue:
        serializedVersion: 2
        m_Curve: []
        m_PreInfinity: 0
        m_PostInfinity: 0
        m_RotationOrder: 0
      floatValue: 0
      intValue: 0
      quaternionValue: {x: 0, y: 0, z: 0}
      rectValue:
        serializedVersion: 2
        x: 0
        y: 0
        width: 0
        height: 0
      stringValue: 
      vector2Value: {x: 0, y: 0}
      vector3Value: {x: 0, y: 0, z: 0}
      vector4Value: {x: 0, y: 0, z: 0}
    - serializedObjectValue: '{"$content":0.0,"$type":"System.Single"}'
      objectValue: {fileID: 0}
      boolValue: 0
      boundsValue:
        m_Center: {x: 0, y: 0, z: 0}
        m_Extent: {x: 0, y: 0, z: 0}
      colorValue: {r: 0, g: 0, b: 0, a: 0}
      animationCurveValue:
        serializedVersion: 2
        m_Curve: []
        m_PreInfinity: 0
        m_PostInfinity: 0
        m_RotationOrder: 0
      floatValue: 0
      intValue: 0
      quaternionValue: {x: 0, y: 0, z: 0}
      rectValue:
        serializedVersion: 2
        x: 0
        y: 0
        width: 0
        height: 0
      stringValue: 
      vector2Value: {x: 0, y: 0}
      vector3Value: {x: 0, y: 0, z: 0}
      vector4Value: {x: 0, y: 0, z: 0}
    - serializedObjectValue: '{"$content":0,"$type":"System.Int32"}'
      objectValue: {fileID: 0}
      boolValue: 0
      boundsValue:
        m_Center: {x: 0, y: 0, z: 0}
        m_Extent: {x: 0, y: 0, z: 0}
      colorValue: {r: 0, g: 0, b: 0, a: 0}
      animationCurveValue:
        serializedVersion: 2
        m_Curve: []
        m_PreInfinity: 0
        m_PostInfinity: 0
        m_RotationOrder: 0
      floatValue: 0
      intValue: 0
      quaternionValue: {x: 0, y: 0, z: 0}
      rectValue:
        serializedVersion: 2
        x: 0
        y: 0
        width: 0
        height: 0
      stringValue: 
      vector2Value: {x: 0, y: 0}
      vector3Value: {x: 0, y: 0, z: 0}
      vector4Value: {x: 0, y: 0, z: 0}
    - serializedObjectValue: '{"$content":0.0,"$type":"System.Single"}'
      objectValue: {fileID: 0}
      boolValue: 0
      boundsValue:
        m_Center: {x: 0, y: 0, z: 0}
        m_Extent: {x: 0, y: 0, z: 0}
      colorValue: {r: 0, g: 0, b: 0, a: 0}
      animationCurveValue:
        serializedVersion: 2
        m_Curve: []
        m_PreInfinity: 0
        m_PostInfinity: 0
        m_RotationOrder: 0
      floatValue: 0
      intValue: 0
      quaternionValue: {x: 0, y: 0, z: 0}
      rectValue:
        serializedVersion: 2
        x: 0
        y: 0
        width: 0
        height: 0
      stringValue: 
      vector2Value: {x: 0, y: 0}
      vector3Value: {x: 0, y: 0, z: 0}
      vector4Value: {x: 0, y: 0, z: 0}
