%YAML 1.1
%TAG !u! tag:unity3d.com,2011:
--- !u!114 &11400000
MonoBehaviour:
  m_ObjectHideFlags: 0
  m_CorrespondingSourceObject: {fileID: 0}
  m_PrefabInstance: {fileID: 0}
  m_PrefabAsset: {fileID: 0}
  m_GameObject: {fileID: 0}
  m_Enabled: 1
  m_EditorHideFlags: 0
  m_Script: {fileID: 11500000, guid: d3ccdae9a945408459f144c9eb9652df, type: 3}
  m_Name: ProjectileTargetSeeking
  m_EditorClassIdentifier: 
  connectedPrefab: {fileID: 1347902284193092, guid: 5b0a0a9cb6f76734db5707bb019269eb,
    type: 3}
  launchFX:
    delay: 0
    fxEvents: []
  steerable: 0
  horSpeed: 1
  verSpeed: 1
  destroySelfType: 0
  hitMaxAmount: 1
  impactType: 0
  time: 0
  triggerType: 0
  velocity: 0
  spawnOnImpact: []
  impactFX:
    delay: 0
    fxEvents: []
  keepYFacingUp: 1
