%YAML 1.1
%TAG !u! tag:unity3d.com,2011:
--- !u!114 &-7114660650479491976
MonoBehaviour:
  m_ObjectHideFlags: 11
  m_CorrespondingSourceObject: {fileID: 0}
  m_PrefabInstance: {fileID: 0}
  m_PrefabAsset: {fileID: 0}
  m_GameObject: {fileID: 0}
  m_Enabled: 1
  m_EditorHideFlags: 0
  m_Script: {fileID: 11500000, guid: d0353a89b1f911e48b9e16bdc9f2e058, type: 3}
  m_Name: 
  m_EditorClassIdentifier: 
  version: 1
--- !u!21 &2100000
Material:
  serializedVersion: 6
  m_ObjectHideFlags: 0
  m_CorrespondingSourceObject: {fileID: 0}
  m_PrefabInstance: {fileID: 0}
  m_PrefabAsset: {fileID: 0}
  m_Name: burning lamp (glass)
  m_Shader: {fileID: 4800000, guid: 32eded57cb5262149a63792841f17953, type: 3}
  m_ShaderKeywords: L_F_SS_ON N_F_EAL_ON N_F_O_ON N_F_R_ON N_F_SS_ON _AFFECTSHADOW_ON
    _ALPHABASECUTOUT_ON _EMISSION _NORMALMAP _RIMLIGHTINLIGHT_ON _SELFLITHIGHCONTRAST_ON
    _SPECULAR_SETUP
  m_LightmapFlags: 2
  m_EnableInstancingVariants: 1
  m_DoubleSidedGI: 0
  m_CustomRenderQueue: -1
  stringTagMap: {}
  disabledShaderPasses:
  - SHADOWCASTER
  m_SavedProperties:
    serializedVersion: 3
    m_TexEnvs:
    - _BaseMap:
        m_Texture: {fileID: 2800000, guid: cad07c33897b09a418481de177049e8f, type: 3}
        m_Scale: {x: 1, y: 1}
        m_Offset: {x: 0, y: 0}
    - _BumpMap:
        m_Texture: {fileID: 2800000, guid: 9851433b67ee96746bfd766bc4232452, type: 3}
        m_Scale: {x: 1, y: 1}
        m_Offset: {x: 0, y: 0}
    - _EmissionMap:
        m_Texture: {fileID: 2800000, guid: cac6083929e0e14459275624a203bc75, type: 3}
        m_Scale: {x: 1, y: 1}
        m_Offset: {x: 0, y: 0}
    - _FReflection:
        m_Texture: {fileID: 0}
        m_Scale: {x: 1, y: 1}
        m_Offset: {x: 0, y: 0}
    - _GlossTexture:
        m_Texture: {fileID: 0}
        m_Scale: {x: 1, y: 1}
        m_Offset: {x: 0, y: 0}
    - _MCap:
        m_Texture: {fileID: 0}
        m_Scale: {x: 1, y: 1}
        m_Offset: {x: 0, y: 0}
    - _MCapMask:
        m_Texture: {fileID: 0}
        m_Scale: {x: 1, y: 1}
        m_Offset: {x: 0, y: 0}
    - _MainTex:
        m_Texture: {fileID: 2800000, guid: cad07c33897b09a418481de177049e8f, type: 3}
        m_Scale: {x: 1, y: 1}
        m_Offset: {x: 0, y: 0}
    - _MaskFReflection:
        m_Texture: {fileID: 0}
        m_Scale: {x: 1, y: 1}
        m_Offset: {x: 0, y: 0}
    - _MaskGloss:
        m_Texture: {fileID: 0}
        m_Scale: {x: 1, y: 1}
        m_Offset: {x: 0, y: 0}
    - _MaskReflection:
        m_Texture: {fileID: 0}
        m_Scale: {x: 1, y: 1}
        m_Offset: {x: 0, y: 0}
    - _MaskSelfLit:
        m_Texture: {fileID: 0}
        m_Scale: {x: 1, y: 1}
        m_Offset: {x: 0, y: 0}
    - _MaskTransparency:
        m_Texture: {fileID: 2800000, guid: cad07c33897b09a418481de177049e8f, type: 3}
        m_Scale: {x: 1, y: 1}
        m_Offset: {x: 0, y: 0}
    - _MetallicGlossMap:
        m_Texture: {fileID: 2800000, guid: 2ecd91e8502a75940995703bc7def7da, type: 3}
        m_Scale: {x: 1, y: 1}
        m_Offset: {x: 0, y: 0}
    - _NormalMap:
        m_Texture: {fileID: 0}
        m_Scale: {x: 1, y: 1}
        m_Offset: {x: 0, y: 0}
    - _OcclusionMap:
        m_Texture: {fileID: 0}
        m_Scale: {x: 1, y: 1}
        m_Offset: {x: 0, y: 0}
    - _OutlineWidthControl:
        m_Texture: {fileID: 0}
        m_Scale: {x: 1, y: 1}
        m_Offset: {x: 0, y: 0}
    - _PTexture:
        m_Texture: {fileID: 0}
        m_Scale: {x: 1, y: 1}
        m_Offset: {x: 0, y: 0}
    - _SecondaryCutout:
        m_Texture: {fileID: 0}
        m_Scale: {x: 1, y: 1}
        m_Offset: {x: 0, y: 0}
    - _ShadowColorTexture:
        m_Texture: {fileID: 0}
        m_Scale: {x: 1, y: 1}
        m_Offset: {x: 0, y: 0}
    - _ShadowT:
        m_Texture: {fileID: 0}
        m_Scale: {x: 1, y: 1}
        m_Offset: {x: 0, y: 0}
    - _SpecGlossMap:
        m_Texture: {fileID: 0}
        m_Scale: {x: 1, y: 1}
        m_Offset: {x: 0, y: 0}
    m_Floats:
    - _AffectShadow: 1
    - _AlphaBaseCutout: 1
    - _AlphaClip: 0
    - _Blend: 0
    - _BumpScale: 1
    - _Compa: 8
    - _Cull: 2
    - _CustomLightDirectionFollowObjectRotation: 0
    - _CustomLightDirectionIntensity: 0
    - _Cutoff: 0.5
    - _Cutout: 0
    - _DirectionalLightIntensity: 0
    - _DoubleSided: 2
    - _DoubleSidedOutline: 1
    - _DstBlend: 10
    - _DynamicNoisyOutline: 0
    - _EnableTextureTransparent: 0
    - _EnvironmentReflections: 1
    - _EnvironmentalLightingIntensity: 1
    - _FReflectionIntensity: 0
    - _FReflectionRoughtness: 0
    - _FarDistanceMaxWidth: 10
    - _GIFlatShade: 0
    - _GIShadeThreshold: 0
    - _GlossColorPower: 10
    - _GlossIntensity: 1
    - _GlossMapScale: 0
    - _GlossSoftness: 0
    - _GlossTextureFollowLight: 0
    - _GlossTextureFollowObjectRotation: 0
    - _GlossTextureRotate: 0
    - _GlossTextureSoftness: 0
    - _Glossiness: 0
    - _GlossyReflections: 0
    - _HighlightColorPower: 1
    - _L_F_CLD: 0
    - _L_F_FR: 0
    - _L_F_GLO: 0
    - _L_F_GLOT: 0
    - _L_F_MC: 0
    - _L_F_NM: 0
    - _L_F_PT: 0
    - _L_F_RL: 0
    - _L_F_SCT: 0
    - _L_F_SL: 0
    - _L_F_SON: 0
    - _L_F_SS: 1
    - _L_F_ST: 0
    - _L_F_UOAL: 0
    - _LightAffectOutlineColor: 0
    - _LightAffectRimLightColor: 0
    - _LightAffectShadow: 0
    - _LightFalloffAffectShadowT: 0
    - _LightFalloffSoftness: 1
    - _LightIntensity: -1
    - _MCIALO: 0
    - _MCapIntensity: 1
    - _MVCOL: 0
    - _Metallic: 0
    - _MixMainTexToOutline: 0
    - _N_F_CA: 0
    - _N_F_CLD: 0
    - _N_F_CO: 0
    - _N_F_DCS: 0
    - _N_F_EAL: 1
    - _N_F_FR: 0
    - _N_F_GLO: 0
    - _N_F_GLOT: 0
    - _N_F_HCS: 0
    - _N_F_HDLS: 0
    - _N_F_HPSS: 0
    - _N_F_MC: 0
    - _N_F_NLASOBF: 0
    - _N_F_NM: 0
    - _N_F_O: 1
    - _N_F_PT: 0
    - _N_F_R: 1
    - _N_F_RL: 0
    - _N_F_SCT: 0
    - _N_F_SL: 0
    - _N_F_SON: 0
    - _N_F_SS: 1
    - _N_F_ST: 0
    - _N_F_STIAL: 0
    - _N_F_STIS: 0
    - _NoisyOutlineIntensity: 0.098
    - _NormalMapIntensity: 1
    - _OcclusionStrength: 1
    - _Opacity: 0
    - _Oper: 8
    - _OutlineExtrudeMethod: 0
    - _OutlineWidth: 0.5
    - _OutlineWidthAffectedByViewDistance: 0
    - _OutlineZPostionInCamera: 0
    - _OverallShadowColorPower: 1
    - _PTexturePower: 1
    - _PointSpotlightIntensity: 0
    - _QueueOffset: 0
    - _ReceiveShadows: 1
    - _ReduceOutlineBackFace: 0
    - _ReduceShadowSpotDirectionalLight: 0.5
    - _RefMetallic: 0
    - _RefVal: 4.22
    - _ReflectionIntensity: 0
    - _ReflectionRoughtness: 0
    - _RimLightColorPower: 10
    - _RimLightInLight: 1
    - _RimLightSoftness: 1
    - _RimLightUnfill: 1.5
    - _STIL: 0
    - _Saturation: 1
    - _SelfLitHighContrast: 1
    - _SelfLitIntensity: 0
    - _SelfLitPower: 2
    - _SelfShadowAffectedByLightShadowStrength: 0
    - _SelfShadowColorPower: 1
    - _SelfShadowHardness: 1
    - _SelfShadowIntensity: 1
    - _SelfShadowRealTimeShadowColorPower: 1
    - _SelfShadowRealtimeShadowIntensity: 1
    - _SelfShadowShadowTAtViewDirection: 0
    - _SelfShadowThreshold: 0.85
    - _ShadowColorTexturePower: 0
    - _ShadowHardness: 0
    - _ShadowTColorPower: 1
    - _ShadowTHardness: 1
    - _ShadowTIntensity: 1
    - _ShadowTLightThreshold: 50
    - _ShadowTShadowThreshold: 0
    - _ShowInAmbientLightShadowIntensity: 1
    - _ShowInAmbientLightShadowThreshold: 0.4
    - _ShowNormal: 0
    - _SmoothObjectNormal: 0
    - _Smoothness: 0
    - _SmoothnessTextureChannel: 1
    - _SpecularHighlights: 1
    - _SrcBlend: 5
    - _Surface: 1
    - _TessellationFar: 1
    - _TessellationNear: 1
    - _TessellationSmoothness: 0.5
    - _TessellationTransition: 0.8
    - _TexturePatternStyle: 0
    - _TransparentThreshold: 58.4
    - _UseFReflection: 0
    - _UseSecondaryCutout: 0
    - _UseTLB: 0
    - _VertexColorBlueControlSmoothObjectNormal: 0
    - _VertexColorGreenControlSelfShadowThreshold: 0
    - _VertexColorRedAffectOutlineWitdh: 0
    - _WorkflowMode: 0
    - _XYZHardness: 14
    - _ZWrite: 0
    m_Colors:
    - _BaseColor: {r: 0.5, g: 0.5, b: 0.5, a: 1}
    - _Color: {r: 0.5, g: 0.5, b: 0.5, a: 1}
    - _CustomLightDirection: {r: 0, g: 0, b: 10, a: 0}
    - _EmissionColor: {r: 1, g: 1, b: 1, a: 1}
    - _GlossColor: {r: 1, g: 1, b: 1, a: 1}
    - _HighlightColor: {r: 1, g: 1, b: 1, a: 1}
    - _MainColor: {r: 0.8584906, g: 0.8584906, b: 0.8584906, a: 1}
    - _OutlineColor: {r: 0, g: 0, b: 0, a: 1}
    - _OutlineOffset: {r: 0, g: 0, b: 0, a: 1}
    - _OverallShadowColor: {r: 0, g: 0, b: 0, a: 1}
    - _RimLightColor: {r: 1, g: 1, b: 1, a: 1}
    - _SelfLitColor: {r: 1, g: 1, b: 1, a: 1}
    - _SelfShadowColor: {r: 1, g: 1, b: 1, a: 1}
    - _SelfShadowRealTimeShadowColor: {r: 1, g: 1, b: 1, a: 1}
    - _ShadowTColor: {r: 1, g: 1, b: 1, a: 1}
    - _SpecColor: {r: 0.19999996, g: 0.19999996, b: 0.19999996, a: 1}
    - _XYZPosition: {r: 0, g: 0, b: 0, a: 0}
