%YAML 1.1
%TAG !u! tag:unity3d.com,2011:
--- !u!114 &-5444769287463394259
MonoBehaviour:
  m_ObjectHideFlags: 11
  m_CorrespondingSourceObject: {fileID: 0}
  m_PrefabInstance: {fileID: 0}
  m_PrefabAsset: {fileID: 0}
  m_GameObject: {fileID: 0}
  m_Enabled: 1
  m_EditorHideFlags: 0
  m_Script: {fileID: 11500000, guid: d0353a89b1f911e48b9e16bdc9f2e058, type: 3}
  m_Name: 
  m_EditorClassIdentifier: 
  version: 1
--- !u!21 &2100000
Material:
  serializedVersion: 6
  m_ObjectHideFlags: 0
  m_CorrespondingSourceObject: {fileID: 0}
  m_PrefabInstance: {fileID: 0}
  m_PrefabAsset: {fileID: 0}
  m_Name: SkyboxLevel4
  m_Shader: {fileID: -6465566751694194690, guid: 181be7cf3c510ff408237b20f0766a42,
    type: 3}
  m_ShaderKeywords: 
  m_LightmapFlags: 4
  m_EnableInstancingVariants: 0
  m_DoubleSidedGI: 0
  m_CustomRenderQueue: -1
  stringTagMap: {}
  disabledShaderPasses: []
  m_SavedProperties:
    serializedVersion: 3
    m_TexEnvs:
    - Texture2D_23D1B00A:
        m_Texture: {fileID: 2800000, guid: 60e6f081d077f054d8ee2e93cee7c34d, type: 3}
        m_Scale: {x: 1, y: 1}
        m_Offset: {x: 0, y: 0}
    - Texture2D_54EF2020:
        m_Texture: {fileID: 2800000, guid: afbb91071ed15f3449b67194e9e73958, type: 3}
        m_Scale: {x: 1, y: 1}
        m_Offset: {x: 0, y: 0}
    - _BaseMap:
        m_Texture: {fileID: 0}
        m_Scale: {x: 1, y: 1}
        m_Offset: {x: 0, y: 0}
    - _BumpMap:
        m_Texture: {fileID: 0}
        m_Scale: {x: 1, y: 1}
        m_Offset: {x: 0, y: 0}
    - _EmissionMap:
        m_Texture: {fileID: 0}
        m_Scale: {x: 1, y: 1}
        m_Offset: {x: 0, y: 0}
    - _FReflection:
        m_Texture: {fileID: 0}
        m_Scale: {x: 1, y: 1}
        m_Offset: {x: 0, y: 0}
    - _GlossTexture:
        m_Texture: {fileID: 0}
        m_Scale: {x: 1, y: 1}
        m_Offset: {x: 0, y: 0}
    - _MCap:
        m_Texture: {fileID: 0}
        m_Scale: {x: 1, y: 1}
        m_Offset: {x: 0, y: 0}
    - _MCapMask:
        m_Texture: {fileID: 0}
        m_Scale: {x: 1, y: 1}
        m_Offset: {x: 0, y: 0}
    - _MainTex:
        m_Texture: {fileID: 0}
        m_Scale: {x: 1, y: 1}
        m_Offset: {x: 0, y: 0}
    - _MaskGloss:
        m_Texture: {fileID: 0}
        m_Scale: {x: 1, y: 1}
        m_Offset: {x: 0, y: 0}
    - _MaskReflection:
        m_Texture: {fileID: 0}
        m_Scale: {x: 1, y: 1}
        m_Offset: {x: 0, y: 0}
    - _MaskSelfLit:
        m_Texture: {fileID: 0}
        m_Scale: {x: 1, y: 1}
        m_Offset: {x: 0, y: 0}
    - _MetallicGlossMap:
        m_Texture: {fileID: 0}
        m_Scale: {x: 1, y: 1}
        m_Offset: {x: 0, y: 0}
    - _NormalMap:
        m_Texture: {fileID: 0}
        m_Scale: {x: 1, y: 1}
        m_Offset: {x: 0, y: 0}
    - _OcclusionMap:
        m_Texture: {fileID: 0}
        m_Scale: {x: 1, y: 1}
        m_Offset: {x: 0, y: 0}
    - _OutlineWidthControl:
        m_Texture: {fileID: 0}
        m_Scale: {x: 1, y: 1}
        m_Offset: {x: 0, y: 0}
    - _PTexture:
        m_Texture: {fileID: 0}
        m_Scale: {x: 1, y: 1}
        m_Offset: {x: 0, y: 0}
    - _SecondaryCutout:
        m_Texture: {fileID: 0}
        m_Scale: {x: 1, y: 1}
        m_Offset: {x: 0, y: 0}
    - _ShadowColorTexture:
        m_Texture: {fileID: 0}
        m_Scale: {x: 1, y: 1}
        m_Offset: {x: 0, y: 0}
    - _ShadowT:
        m_Texture: {fileID: 0}
        m_Scale: {x: 1, y: 1}
        m_Offset: {x: 0, y: 0}
    - _SpecGlossMap:
        m_Texture: {fileID: 0}
        m_Scale: {x: 1, y: 1}
        m_Offset: {x: 0, y: 0}
    m_Floats:
    - Boolean_E2C06A0D: 0
    - Vector1_10887371: 0.35
    - Vector1_34B2F5F: 2.27
    - Vector1_D8DCF219: 0.3
    - Vector1_DC032BED: 0
    - Vector1_DD72AB83: 10.26
    - _AlphaBaseCutout: 1
    - _AlphaClip: 0
    - _Blend: 0
    - _BumpScale: 1
    - _Compa: 8
    - _Cull: 2
    - _CustomLightDirectionFollowObjectRotation: 0
    - _CustomLightDirectionIntensity: 0
    - _Cutoff: 0.5
    - _Cutout: 0
    - _DirectionalLightIntensity: 0
    - _DoubleSided: 2
    - _DoubleSidedOutline: 1
    - _DstBlend: 0
    - _DynamicNoisyOutline: 0
    - _EnableTextureTransparent: 0
    - _EnvironmentReflections: 1
    - _EnvironmentalLightingIntensity: 1
    - _FarDistanceMaxWidth: 10
    - _GIFlatShade: 0
    - _GIShadeThreshold: 0
    - _GlossColorPower: 10
    - _GlossIntensity: 1
    - _GlossMapScale: 0
    - _GlossSoftness: 0
    - _GlossTextureFollowLight: 0
    - _GlossTextureFollowObjectRotation: 0
    - _GlossTextureRotate: 0
    - _GlossTextureSoftness: 0
    - _Glossiness: 0
    - _GlossyReflections: 0
    - _HighlightColorPower: 1
    - _LightAffectOutlineColor: 0
    - _LightAffectRimLightColor: 0
    - _LightAffectShadow: 0
    - _LightFalloffAffectShadowT: 0
    - _LightFalloffSoftness: 1
    - _LightIntensity: -1
    - _MCIALO: 0
    - _MCapIntensity: 1
    - _MVCOL: 0
    - _Metallic: 0
    - _MixMainTexToOutline: 0
    - _N_F_CA: 0
    - _N_F_CLD: 0
    - _N_F_CO: 0
    - _N_F_DCS: 0
    - _N_F_EAL: 1
    - _N_F_FR: 0
    - _N_F_GLO: 0
    - _N_F_GLOT: 0
    - _N_F_HDLS: 0
    - _N_F_HPSS: 0
    - _N_F_MC: 0
    - _N_F_NLASOBF: 0
    - _N_F_NM: 0
    - _N_F_O: 1
    - _N_F_PT: 0
    - _N_F_R: 0
    - _N_F_RL: 0
    - _N_F_SCT: 0
    - _N_F_SL: 0
    - _N_F_SON: 0
    - _N_F_SS: 1
    - _N_F_ST: 0
    - _N_F_STIAL: 0
    - _N_F_STIS: 0
    - _NoisyOutlineIntensity: 0
    - _NormalMapIntensity: 1
    - _OcclusionStrength: 1
    - _Oper: 8
    - _OutlineExtrudeMethod: 0
    - _OutlineWidth: 0.5
    - _OutlineWidthAffectedByViewDistance: 0
    - _OutlineZPostionInCamera: 0
    - _OverallShadowColorPower: 1
    - _PTexturePower: 1
    - _PointLightSVD: 0
    - _PointSpotlightIntensity: 0.45
    - _QueueOffset: 0
    - _ReceiveShadows: 1
    - _ReduceShadowPointLight: 0
    - _ReduceShadowSpotDirectionalLight: 10
    - _RefMetallic: 0
    - _RefVal: 0
    - _ReflectionIntensity: 0
    - _ReflectionRoughtness: 0
    - _RimLightColorPower: 10
    - _RimLightInLight: 1
    - _RimLightSoftness: 1
    - _RimLightUnfill: 1.5
    - _STIL: 0
    - _SampleGI: 0
    - _Saturation: 1
    - _SelfLitHighContrast: 1
    - _SelfLitIntensity: 0
    - _SelfLitPower: 2
    - _SelfShadowAffectedByLightShadowStrength: 0
    - _SelfShadowHardness: 1
    - _SelfShadowRealTimeShadowColorPower: 1
    - _SelfShadowRealtimeShadowIntensity: 1
    - _SelfShadowShadowTAtViewDirection: 0
    - _SelfShadowThreshold: 0.85
    - _ShadowColorTexturePower: 0
    - _ShadowHardness: 0
    - _ShadowTColorPower: 1
    - _ShadowTHardness: 1
    - _ShadowTIntensity: 1
    - _ShadowTLightThreshold: 50
    - _ShadowTShadowThreshold: 0
    - _ShowInAmbientLightShadowIntensity: 1
    - _ShowInAmbientLightShadowThreshold: 0.4
    - _ShowNormal: 0
    - _SmoothObjectNormal: 0
    - _Smoothness: 0.5
    - _SmoothnessTextureChannel: 0
    - _SpecularHighlights: 1
    - _SrcBlend: 1
    - _Surface: 0
    - _TexturePatternStyle: 0
    - _UseSecondaryCutout: 0
    - _UseTLB: 0
    - _VertexColorBlueControlSmoothObjectNormal: 0
    - _VertexColorGreenControlSelfShadowThreshold: 0
    - _VertexColorRedAffectOutlineWitdh: 0
    - _WorkflowMode: 1
    - _XYZHardness: 14
    - _ZWrite: 1
    m_Colors:
    - Color_18FB7A2: {r: 0, g: 0, b: 0, a: 0}
    - Color_1C233B74: {r: 0.64705896, g: 0, b: 1, a: 0}
    - Color_455DA579: {r: 0, g: 0, b: 0, a: 0}
    - Color_75F0694F: {r: 0, g: 0, b: 0, a: 0}
    - Color_8E2997D0: {r: 0, g: 0, b: 0, a: 0}
    - Color_916626BD: {r: 0.77254903, g: 0.43568608, b: 0, a: 0}
    - Color_9CAC4BBC: {r: 0, g: 0.51034975, b: 0.5283019, a: 0}
    - Color_EB107AF6: {r: 0.8784314, g: 0.038628858, b: 0, a: 0}
    - Vector2_33AE2EAD: {r: 6, g: 6, b: 6, a: 0}
    - Vector2_63757B35: {r: 1, g: 0, b: 0, a: 0}
    - Vector2_DB28E8BC: {r: 0.5, g: 0, b: 0, a: 0}
    - _BaseColor: {r: 0, g: 0.032333877, b: 0.3773585, a: 1}
    - _Color: {r: 0.5, g: 0.5, b: 0.5, a: 1}
    - _CustomLightDirection: {r: 0, g: 0, b: 10, a: 0}
    - _EmissionColor: {r: 0, g: 0, b: 0, a: 1}
    - _GlossColor: {r: 1, g: 1, b: 1, a: 1}
    - _HighlightColor: {r: 1, g: 1, b: 1, a: 1}
    - _MainColor: {r: 0.6886792, g: 0.6886792, b: 0.6886792, a: 1}
    - _OutlineColor: {r: 0, g: 0, b: 0, a: 1}
    - _OutlineOffset: {r: 0, g: 0, b: 0, a: 1}
    - _OverallShadowColor: {r: 0, g: 0, b: 0, a: 1}
    - _RimLightColor: {r: 1, g: 1, b: 1, a: 1}
    - _SelfLitColor: {r: 1, g: 1, b: 1, a: 1}
    - _SelfShadowRealTimeShadowColor: {r: 1, g: 1, b: 1, a: 1}
    - _ShadowTColor: {r: 1, g: 1, b: 1, a: 1}
    - _SpecColor: {r: 0.19999996, g: 0.19999996, b: 0.19999996, a: 1}
    - _XYZPosition: {r: 0, g: 0, b: 0, a: 0}
