%YAML 1.1
%TAG !u! tag:unity3d.com,2011:
--- !u!114 &11400000
MonoBehaviour:
  m_ObjectHideFlags: 0
  m_CorrespondingSourceObject: {fileID: 0}
  m_PrefabInstance: {fileID: 0}
  m_PrefabAsset: {fileID: 0}
  m_GameObject: {fileID: 0}
  m_Enabled: 1
  m_EditorHideFlags: 0
  m_Script: {fileID: 11500000, guid: b4cb982b9d5ced1449f430217d7e5152, type: 3}
  m_Name: EnableBehaviour
  m_EditorClassIdentifier: 
  delay: 0
  affectedType:
    sceneObjectType: 0
    closestTag: 
    nameToFind: 
  behaviour:
    stringValue: AudioSource
    indexValue: 11
    stringValues: []
  enable: 0
