# 3ds Max Wavefront OBJ Exporter v0.97b - (c)2007 guruware
# File Created: 13.11.2019 17:06:44

mtllib green book.mtl

#
# object green_book
#

v  6.6276 58.3708 -27.2565
v  -6.6276 58.3708 -27.2565
v  -6.6276 58.3708 -24.6408
v  6.6276 58.3708 -24.6408
v  6.6276 0.2756 -27.4589
v  -6.6276 0.2756 -27.4589
v  -6.6276 58.0952 -27.4589
v  6.6276 58.0952 -27.4589
v  -10.0609 0.2756 -27.2565
v  -10.0609 0.2756 -24.4384
v  -10.0609 58.0952 -24.4384
v  -10.0609 58.0952 -27.2565
v  10.0609 0.2756 27.2565
v  10.0609 0.2756 -24.4384
v  10.0609 58.0952 -24.4384
v  10.0609 58.0952 27.2565
v  -7.0377 0.0000 27.2565
v  -9.6508 0.0000 27.2565
v  -9.6508 0.0000 -24.4384
v  -7.0377 0.0000 -24.4384
v  6.6276 0.0000 -27.2565
v  9.6508 0.0000 -27.2565
v  9.6508 0.0000 -24.4384
v  7.0377 0.0000 -24.4384
v  6.6276 0.0000 -24.6408
v  -9.6508 58.3708 -27.2565
v  -9.6508 58.3708 -24.4384
v  -7.0377 58.3708 -24.4384
v  7.0377 58.3708 27.2565
v  9.6508 58.3708 27.2565
v  9.6508 58.3708 -24.4384
v  7.0377 58.3708 -24.4384
v  -9.6508 0.2756 -27.4589
v  -9.6508 58.0952 -27.4589
v  9.6508 58.0952 -27.4589
v  9.6508 0.2756 -27.4589
v  7.0377 0.2756 27.4589
v  9.6508 0.2756 27.4589
v  9.6508 58.0952 27.4589
v  7.0377 58.0952 27.4589
v  -7.0377 58.0952 27.4589
v  -9.6508 58.0952 27.4589
v  -9.6508 0.2756 27.4589
v  -7.0377 0.2756 27.4589
v  -6.6276 0.0000 -24.6408
v  -6.6276 0.0000 -27.2565
v  -10.0609 0.2756 27.2565
v  -10.0609 58.0952 27.2565
v  10.0609 0.2756 -27.2565
v  10.0609 58.0952 -27.2565
v  -9.6508 0.0000 -27.2565
v  9.6508 0.0000 27.2565
v  7.0377 0.0000 27.2565
v  -9.6508 58.3708 27.2565
v  -7.0377 58.3708 27.2565
v  9.6508 58.3708 -27.2565
v  -6.1757 58.1953 -24.2824
v  -5.8051 56.5634 -22.8314
v  6.2170 56.5626 -22.8307
v  6.5879 58.1962 -24.2831
v  -6.5657 0.2724 -23.8805
v  -6.2392 1.7105 -22.6019
v  -6.2170 1.8083 25.8511
v  -6.5879 0.1747 27.3036
v  6.6276 0.0000 -24.4384
v  6.2170 1.8083 -22.8307
v  6.5879 0.1747 -24.2831
v  -6.5879 58.1962 -24.2831
v  -6.2170 56.5626 -22.8307
v  -6.6276 58.3708 -24.4384
v  6.5657 58.0984 -23.8805
v  6.2392 56.6603 -22.6019
v  6.2170 56.5626 25.8511
v  6.5879 58.1962 27.3036
v  6.2170 1.8083 25.8511
v  6.5879 0.1747 27.3036
v  -6.2170 56.5626 25.8511
v  -6.5879 58.1962 27.3036
v  -6.2170 1.8083 -22.8307
v  -6.5879 0.1747 -24.2831
v  -6.6276 0.0000 -24.4384
v  6.2392 1.7105 -22.6019
v  6.5657 0.2724 -23.8805
v  6.6276 58.3708 -24.4384
v  -5.7672 56.1123 25.6958
v  -5.7672 2.2585 25.6958
v  5.7672 2.2585 25.6958
v  5.7672 56.1123 25.6958
v  5.7672 56.3879 -22.4730
v  -5.7672 56.3879 -22.4730
v  -5.7672 56.3879 25.4935
v  5.7672 56.3879 25.4935
v  -5.7672 1.9830 -22.4730
v  5.7672 1.9830 -22.4730
v  5.7672 1.9830 25.4935
v  -5.7672 1.9830 25.4935
v  10.0153 0.1905 -27.3564
v  10.0153 0.2756 -27.3689
v  -9.8533 0.1905 -27.4364
v  -9.8786 0.2756 -27.4364
v  9.8533 0.1905 27.4364
v  9.8786 0.2756 27.4364
v  -10.0153 0.1905 27.3564
v  -10.0153 0.2756 27.3689
v  9.8533 58.1803 -27.4364
v  9.8786 58.0952 -27.4364
v  -10.0153 58.1803 -27.3564
v  -10.0153 58.0952 -27.3689
v  10.0153 58.1803 27.3564
v  10.0153 58.0952 27.3689
v  -9.8533 58.1803 27.4364
v  -9.8786 58.0952 27.4364
v  5.8172 2.0248 25.5782
v  5.7672 2.0748 25.5609
v  -5.8172 2.1473 25.6681
v  -5.7672 2.1667 25.6284
v  -5.8671 56.2430 25.7079
v  -5.9171 56.2624 25.7476
v  6.0670 56.4431 25.7769
v  6.0670 56.4125 25.7994
v  -6.1318 1.7819 -22.5987
v  -6.0818 1.8013 -22.5590
v  5.9221 1.9030 -22.5414
v  5.9245 1.8921 -22.5160
v  -5.8714 56.4462 -22.5923
v  -5.9171 56.4461 -22.5922
v  6.1318 56.5889 -22.5987
v  6.0818 56.5695 -22.5590
v  6.9877 0.2031 27.3966
v  7.0377 0.1837 27.3914
v  -6.9877 58.1677 27.3966
v  -7.0377 58.1871 27.3914
v  -6.9877 0.0807 27.3067
v  -7.0377 0.0919 27.3239
v  6.9877 58.2902 27.3067
v  7.0377 58.2790 27.3239
v  -6.5272 58.3318 -24.5386
v  -6.4770 58.3123 -24.5213
v  -6.8873 0.0605 -24.3144
v  -6.8804 0.0908 -24.2524
v  6.8941 0.0303 -24.3764
v  6.9010 0.0000 -24.4384
v  6.8873 58.3103 -24.3144
v  6.8804 58.2800 -24.2524
v  9.8786 0.0306 -27.2565
v  9.8786 0.0306 -24.4384
v  9.6508 0.0306 27.3689
v  7.0377 0.0919 27.3239
v  -9.8786 0.0306 27.2565
v  -9.8786 0.0306 -24.4384
v  -9.6508 0.0306 -27.3689
v  -6.6276 0.0306 -27.3689
v  9.6508 58.3402 -27.3689
v  6.6276 58.3402 -27.3689
v  -9.8786 58.3402 -27.2565
v  -9.8786 58.3402 -24.4384
v  -9.6508 58.3402 27.3689
v  -7.0377 58.2790 27.3239
v  9.8786 58.3402 27.2565
v  9.8786 58.3402 -24.4384
v  -9.8786 58.0952 -27.4364
v  9.8786 0.2756 -27.4364
v  -10.0153 58.0952 27.3689
v  9.8786 58.0952 27.4364
v  -9.6508 0.0306 27.3689
v  6.6276 0.0306 -27.3689
v  9.6508 0.0306 -27.3689
v  -6.6276 58.3402 -27.3689
v  -9.6508 58.3402 -27.3689
v  9.6508 58.3402 27.3689
v  -6.0670 1.8665 25.7319
v  6.0670 56.5043 25.7319
v  6.0670 1.9584 25.7994
v  -6.0670 1.9584 25.7994
v  -6.0670 56.4125 25.7994
v  9.8786 0.0306 27.2565
v  -9.8786 0.0306 -27.2565
v  -9.8786 58.3402 27.2565
v  9.8786 58.3402 -27.2565
v  6.0670 1.8665 25.7319
v  6.0818 1.8013 -22.5590
v  -6.0670 56.5043 25.7319
v  -6.0670 56.5043 -22.7114
v  6.0670 1.8665 -22.7114
v  -6.0670 1.8665 -22.7114
v  -5.7925 56.5049 -22.7119
v  6.0670 56.5043 -22.7114
v  -6.3263 58.2538 -24.3344
v  -5.9424 56.5631 -22.8312
v  -6.5864 0.1816 -24.0665
v  -6.2318 1.7431 -22.6782
v  6.6070 0.0908 -24.2524
v  6.2244 1.7757 -22.7544
v  6.5864 58.1892 -24.0665
v  6.2318 56.6277 -22.6782
v  6.6232 58.3514 -24.5111
v  -6.8878 0.0582 27.2722
v  6.6232 0.0194 -24.5111
v  -6.8055 58.3514 -24.4211
v  -6.6276 58.3708 -24.5733
v  6.8878 58.3126 27.2722
v  6.8878 58.1289 27.4071
v  6.8878 0.2420 27.4071
v  -6.8878 0.2420 27.4071
v  -6.8878 58.1289 27.4071
v  -6.6232 0.0194 -24.5111
v  -6.9010 0.0000 -24.4384
v  6.8878 0.0582 27.2722
v  6.8804 0.0908 -24.2524
v  -6.8878 58.3126 27.2722
v  6.9010 58.3708 -24.4384
v  5.7672 2.1667 25.6284
v  5.7672 56.2042 25.6284
v  -5.7672 56.2042 25.6284
v  10.0153 0.1225 -27.2565
v  10.0153 0.1395 -27.3190
v  9.8786 0.0578 -27.3564
v  9.8786 0.1395 -27.4164
v  9.6508 0.1225 -27.4364
v  -9.6508 0.1225 -27.4364
v  -9.7774 0.1395 -27.4364
v  -9.8533 0.0578 -27.3689
v  -9.9748 0.1395 -27.3689
v  -10.0153 0.1225 -27.2565
v  -10.0153 0.2756 -27.3689
v  9.6508 0.1225 27.4364
v  9.7774 0.1395 27.4364
v  9.8533 0.0578 27.3689
v  9.9748 0.1395 27.3689
v  10.0153 0.1225 27.2565
v  10.0153 0.2756 27.3689
v  -10.0153 0.1225 27.2565
v  -10.0153 0.1395 27.3190
v  -9.8786 0.0578 27.3564
v  -9.8786 0.1395 27.4164
v  -9.6508 0.1225 27.4364
v  -9.8786 0.2756 27.4364
v  9.6508 58.2483 -27.4364
v  9.7774 58.2313 -27.4364
v  9.8533 58.3130 -27.3689
v  9.9748 58.2313 -27.3689
v  10.0153 58.2483 -27.2565
v  10.0153 58.0952 -27.3689
v  -10.0153 58.2483 -27.2565
v  -10.0153 58.2313 -27.3190
v  -9.8786 58.3130 -27.3564
v  -9.8786 58.2313 -27.4164
v  -9.6508 58.2483 -27.4364
v  10.0153 58.2483 27.2565
v  10.0153 58.2313 27.3190
v  9.8786 58.3130 27.3564
v  9.8786 58.2313 27.4164
v  9.6508 58.2483 27.4364
v  -9.6508 58.2483 27.4364
v  -9.7774 58.2313 27.4364
v  -9.8533 58.3130 27.3689
v  -9.9748 58.2313 27.3689
v  -10.0153 58.2483 27.2565
v  5.9171 1.9247 25.6127
v  5.8671 1.9748 25.5954
v  5.9671 1.9666 25.6974
v  5.8671 2.0666 25.6629
v  5.9171 2.1085 25.7476
v  -5.9171 2.1085 25.7476
v  -5.8671 2.1279 25.7079
v  -5.9671 1.9972 25.7199
v  -5.8671 2.0360 25.6404
v  -5.9171 1.9247 25.6127
v  -5.7672 2.0748 25.5609
v  -5.8172 56.2236 25.6681
v  -5.7672 56.2960 25.5609
v  -5.8671 56.3348 25.6404
v  -5.9171 56.4461 25.6127
v  -5.9671 56.3737 25.7199
v  6.0670 56.4737 25.7544
v  5.9171 56.4461 25.6127
v  5.9171 56.3849 25.6577
v  5.7672 56.2960 25.5609
v  5.9171 56.3236 25.7026
v  5.9171 56.2624 25.7476
v  -6.1818 1.7625 -22.6384
v  -6.2244 1.7757 -22.7544
v  -6.1244 1.8145 -22.6749
v  -6.0245 1.8533 -22.5955
v  -5.9171 1.9247 -22.5922
v  -5.9245 1.8921 -22.5160
v  5.9171 1.9247 -22.5922
v  5.9196 1.9139 -22.5668
v  6.0720 1.8448 -22.6606
v  6.0769 1.8230 -22.6098
v  6.2318 1.7431 -22.6782
v  -5.7798 56.4464 -22.5924
v  -5.8256 56.4463 -22.5924
v  -5.8840 56.5047 -22.7118
v  -5.9755 56.5045 -22.7116
v  -6.0797 56.5628 -22.8309
v  6.1818 56.6083 -22.6384
v  6.2244 56.5952 -22.7544
v  6.1244 56.5563 -22.6749
v  6.0245 56.5175 -22.5955
v  5.9171 56.4461 -22.5922
v  5.9245 56.4787 -22.5160
v  6.9378 0.2225 27.4019
v  6.7379 0.2083 27.3553
v  6.8378 0.1695 27.3449
v  6.7379 0.1165 27.2879
v  6.9378 0.1307 27.3344
v  -6.9378 58.1483 27.4019
v  -6.7379 58.1625 27.3553
v  -6.8378 58.2013 27.3449
v  -6.7379 58.2544 27.2879
v  -6.9378 58.2402 27.3344
v  -6.9378 0.0694 27.2894
v  -6.7379 0.1165 27.2879
v  -6.8378 0.1389 27.3224
v  -6.7379 0.2083 27.3553
v  -6.9378 0.1613 27.3569
v  -7.0377 0.1837 27.3914
v  6.9378 58.3014 27.2894
v  6.7379 58.2544 27.2879
v  6.8378 58.2320 27.3224
v  6.7379 58.1625 27.3553
v  6.9378 58.2095 27.3569
v  7.0377 58.1871 27.3914
v  -6.5774 58.3513 -24.5560
v  -6.6276 58.3708 -24.5058
v  -6.5272 58.3318 -24.4712
v  -6.4770 58.3123 -24.3864
v  -6.4268 58.2928 -24.4365
v  -6.3263 58.2538 -24.4018
v  -6.8941 0.0303 -24.3764
v  -6.7643 0.0000 -24.4384
v  -6.7506 0.0605 -24.3144
v  -6.6070 0.0908 -24.2524
v  -6.7368 0.1211 -24.1904
v  -6.7231 0.1816 -24.0665
v  6.8873 0.0605 -24.3144
v  6.7231 0.1816 -24.0665
v  6.7368 0.1211 -24.1904
v  6.5864 0.1816 -24.0665
v  6.7506 0.0605 -24.3144
v  6.7643 0.0000 -24.4384
v  6.8941 58.3406 -24.3764
v  6.7643 58.3708 -24.4384
v  6.7506 58.3103 -24.3144
v  6.6070 58.2800 -24.2524
v  6.7368 58.2497 -24.1904
v  6.7231 58.1892 -24.0665
v  10.0153 0.1225 -24.4384
v  -10.0153 0.1225 -24.4384
v  -6.6276 0.1225 -27.4364
v  6.6276 58.2483 -27.4364
v  -10.0153 58.2483 -24.4384
v  10.0153 58.2483 -24.4384
v  6.6276 0.1225 -27.4364
v  -6.6276 58.2483 -27.4364
v  6.6100 58.2932 -24.3919
v  6.6100 0.0776 -24.3919
v  -6.6555 58.2932 -24.3694
v  -6.6100 0.0776 -24.3919
# 360 vertices

vn -0.0000 0.9951 -0.0985
vn 0.0499 0.9972 0.0564
vn -0.0138 0.9991 0.0408
vn -0.0000 -0.0985 -0.9951
vn -0.0000 0.0985 -0.9951
vn -0.9905 -0.0975 -0.0975
vn -0.9951 -0.0985 0.0000
vn -0.9951 0.0985 0.0000
vn -0.9935 0.0802 -0.0802
vn 0.9905 -0.0975 0.0975
vn 0.9951 -0.0985 -0.0000
vn 0.9951 0.0985 -0.0000
vn 0.9935 0.0802 0.0802
vn 0.2125 -0.9152 0.3425
vn -0.0975 -0.9904 0.0975
vn -0.0985 -0.9951 0.0000
vn 0.0525 -0.9965 0.0647
vn -0.0000 -0.9951 -0.0985
vn 0.0975 -0.9905 -0.0975
vn 0.0985 -0.9951 -0.0000
vn -0.0525 -0.9965 0.0647
vn -0.0138 -0.9991 0.0408
vn -0.0975 0.9905 -0.0975
vn -0.0985 0.9951 0.0000
vn 0.0440 0.9989 0.0160
vn -0.2125 0.9152 0.3425
vn 0.0975 0.9905 0.0975
vn 0.0985 0.9951 -0.0000
vn -0.0525 0.9965 0.0647
vn -0.0802 -0.0802 -0.9935
vn -0.0975 0.0975 -0.9905
vn 0.0802 0.0802 -0.9935
vn 0.0975 -0.0975 -0.9905
vn -0.2434 -0.3322 0.9113
vn 0.0802 -0.0802 0.9935
vn 0.0975 0.0975 0.9905
vn -0.2434 0.3321 0.9113
vn 0.2434 0.3321 0.9113
vn -0.0802 0.0802 0.9935
vn -0.0975 -0.0975 0.9905
vn 0.2434 -0.3322 0.9113
vn 0.0138 -0.9991 0.0408
vn -0.9935 -0.0802 0.0802
vn -0.9905 0.0975 0.0975
vn 0.9935 -0.0802 -0.0802
vn 0.9905 0.0975 -0.0975
vn -0.0975 -0.9905 -0.0975
vn 0.0975 -0.9905 0.0975
vn -0.2125 -0.9152 0.3425
vn -0.0975 0.9905 0.0975
vn 0.2125 0.9152 0.3425
vn 0.0975 0.9905 -0.0975
vn 0.0325 0.8577 0.5132
vn -0.0004 0.8688 0.4952
vn -0.6205 0.7290 0.2890
vn 0.6986 0.5349 0.4751
vn 0.8773 -0.4797 0.0181
vn 0.8986 -0.4356 -0.0530
vn 0.9652 -0.1898 0.1797
vn 0.7571 -0.4768 0.4466
vn -0.5022 -0.4288 -0.7509
vn -0.6205 -0.7290 0.2890
vn -0.6771 -0.6279 0.3837
vn 0.9709 0.2387 -0.0172
vn 0.6174 0.7187 0.3199
vn -0.5462 0.8162 0.1886
vn -0.8773 0.4797 0.0181
vn -0.8986 0.4356 -0.0530
vn -0.9652 0.1898 0.1797
vn -0.7571 0.4768 0.4466
vn -0.9652 -0.1898 0.1797
vn -0.7571 -0.4768 0.4466
vn 0.9653 0.1898 0.1796
vn 0.7571 0.4766 0.4469
vn 0.6205 -0.7290 0.2890
vn 0.6925 -0.6175 0.3730
vn 0.5022 -0.4288 -0.7509
vn -0.8986 -0.4356 -0.0530
vn -0.8773 -0.4797 0.0181
vn -0.5022 0.4288 -0.7509
vn 0.4158 0.2683 0.8690
vn 0.4158 -0.2683 0.8690
vn -0.4158 -0.2683 0.8690
vn -0.4158 0.2683 0.8690
vn -0.2936 0.9501 0.1056
vn 0.2133 0.9696 0.1202
vn 0.3777 0.8881 0.2618
vn -0.3777 0.8881 0.2618
vn 0.2936 -0.9501 0.1056
vn -0.2936 -0.9501 0.1056
vn -0.3777 -0.8881 0.2618
vn 0.3777 -0.8881 0.2618
vn 0.8671 -0.2316 -0.4409
vn 0.8732 -0.0493 -0.4848
vn -0.4410 -0.2316 -0.8671
vn -0.4848 -0.0493 -0.8732
vn 0.4410 -0.2316 0.8671
vn 0.4848 -0.0493 0.8732
vn -0.8671 -0.2316 0.4409
vn -0.8732 -0.0493 0.4848
vn 0.4410 0.2316 -0.8671
vn 0.4848 0.0493 -0.8732
vn -0.8671 0.2316 -0.4409
vn -0.8732 0.0493 -0.4848
vn 0.8671 0.2316 0.4409
vn 0.8732 0.0493 0.4848
vn -0.4410 0.2316 0.8671
vn -0.4848 0.0493 0.8732
vn -0.8400 -0.3837 0.3837
vn -0.4782 -0.6210 0.6210
vn 0.8400 -0.3837 0.3837
vn 0.4782 -0.6210 0.6210
vn 0.8400 0.3837 0.3837
vn 0.7457 0.2024 0.6347
vn -0.8400 0.3837 0.3837
vn -0.7457 0.2024 0.6347
vn 0.6971 -0.6929 -0.1841
vn 0.6777 -0.7295 -0.0922
vn -0.6971 -0.6929 -0.1841
vn -0.6777 -0.7295 -0.0924
vn -0.0016 0.9410 0.3385
vn 0.2618 0.9486 0.1777
vn -0.6971 0.6929 -0.1841
vn -0.6777 0.7295 -0.0922
vn -0.2504 -0.6846 0.6846
vn -0.1506 -0.6990 0.6990
vn 0.2504 0.6846 0.6846
vn 0.1506 0.6990 0.6990
vn 0.2504 -0.6846 0.6846
vn 0.1506 -0.6990 0.6990
vn -0.2504 0.6846 0.6846
vn -0.1506 0.6990 0.6990
vn 0.5003 0.8658 0.0000
vn 0.2604 0.9487 0.1791
vn -0.0000 -0.9413 0.3376
vn 0.3522 -0.9180 0.1822
vn 0.0000 -0.9413 0.3376
vn 0.0000 -0.9972 0.0753
vn -0.0000 0.9413 0.3376
vn -0.3522 0.9180 0.1822
vn 0.4631 -0.8821 -0.0865
vn 0.4719 -0.8817 -0.0000
vn 0.0631 -0.8830 0.4650
vn -0.4631 -0.8821 0.0865
vn -0.4719 -0.8817 0.0000
vn -0.0865 -0.8821 -0.4631
vn -0.0000 -0.8817 -0.4719
vn 0.0865 0.8821 -0.4631
vn -0.0000 0.8817 -0.4718
vn -0.4631 0.8821 -0.0865
vn -0.4719 0.8817 0.0000
vn -0.0631 0.8830 0.4650
vn 0.4631 0.8821 0.0865
vn 0.4719 0.8817 -0.0000
vn -0.4631 0.0865 -0.8821
vn 0.4631 -0.0865 -0.8821
vn -0.8821 0.0865 0.4631
vn 0.4631 0.0865 0.8821
vn -0.0776 -0.8778 0.4726
vn 0.1010 -0.8766 -0.4704
vn -0.1010 0.8766 -0.4705
vn 0.0776 0.8778 0.4726
vn 0.7163 -0.6669 0.2053
vn -0.7163 0.6669 0.2053
vn -0.7457 -0.2024 0.6348
vn 0.7457 -0.2024 0.6348
vn 0.4705 -0.8766 0.1011
vn -0.4705 -0.8766 -0.1011
vn -0.4705 0.8766 0.1010
vn 0.4705 0.8766 -0.1010
vn -0.7163 -0.6669 0.2053
vn -0.6777 -0.7295 -0.0922
vn 0.7159 0.6674 0.2049
vn 0.2619 0.9486 0.1777
vn -0.3909 -0.9164 0.0861
vn 0.3909 -0.9164 0.0861
vn -0.0008 0.9410 0.3384
vn -0.3909 0.9164 0.0861
vn 0.2740 0.8963 0.3487
vn -0.0008 0.8689 0.4950
vn 0.6541 -0.7227 0.2234
vn 0.8900 -0.4455 -0.0972
vn -0.6541 -0.7227 0.2234
vn -0.8900 -0.4455 -0.0972
vn -0.6541 0.7227 0.2234
vn -0.8900 0.4455 -0.0972
vn -0.1035 0.9735 0.2037
vn 0.4051 -0.8364 0.3691
vn -0.1012 -0.9738 0.2038
vn 0.2362 0.9642 0.1208
vn 0.1806 0.9836 -0.0000
vn -0.4051 0.8364 0.3692
vn -0.4461 0.3708 0.8145
vn -0.4462 -0.3708 0.8145
vn 0.4462 -0.3708 0.8145
vn 0.4461 0.3708 0.8145
vn 0.1012 -0.9738 0.2038
vn -0.4051 -0.8364 0.3691
vn -0.3522 -0.9180 0.1822
vn 0.4049 0.8363 0.3697
vn 0.0000 0.9972 0.0753
vn -0.4783 0.6210 0.6210
vn 0.4783 0.6210 0.6210
vn 0.8732 -0.4848 -0.0493
vn 0.8671 -0.4409 -0.2316
vn 0.4638 -0.7807 -0.4189
vn 0.4638 -0.4189 -0.7807
vn 0.1010 -0.4705 -0.8766
vn -0.0493 -0.4848 -0.8732
vn -0.2316 -0.4410 -0.8671
vn -0.4189 -0.7807 -0.4638
vn -0.7807 -0.4189 -0.4638
vn -0.8766 -0.4705 -0.1010
vn -0.8821 -0.0865 -0.4631
vn 0.0258 -0.4865 0.8733
vn 0.2316 -0.4410 0.8671
vn 0.4189 -0.7807 0.4638
vn 0.7807 -0.4189 0.4638
vn 0.8766 -0.4705 0.1010
vn 0.8821 -0.0865 0.4631
vn -0.8732 -0.4848 0.0493
vn -0.8671 -0.4409 0.2316
vn -0.4638 -0.7807 0.4189
vn -0.4638 -0.4189 0.7807
vn -0.0776 -0.4726 0.8778
vn -0.4631 -0.0865 0.8821
vn 0.0493 0.4848 -0.8732
vn 0.2316 0.4409 -0.8671
vn 0.4189 0.7807 -0.4638
vn 0.7807 0.4189 -0.4638
vn 0.8766 0.4705 -0.1010
vn 0.8821 0.0865 -0.4631
vn -0.8732 0.4848 -0.0493
vn -0.8671 0.4409 -0.2316
vn -0.4638 0.7807 -0.4189
vn -0.4638 0.4189 -0.7807
vn -0.1010 0.4705 -0.8766
vn 0.8732 0.4848 0.0493
vn 0.8671 0.4409 0.2316
vn 0.4638 0.7807 0.4189
vn 0.4638 0.4189 0.7807
vn 0.0776 0.4726 0.8778
vn -0.0258 0.4865 0.8733
vn -0.2316 0.4409 0.8671
vn -0.4189 0.7807 0.4638
vn -0.7807 0.4189 0.4638
vn -0.8766 0.4705 0.1010
vn -0.7161 -0.6672 0.2051
vn 0.7161 -0.6672 0.2051
vn 0.7160 0.6674 0.2049
vn -0.7161 0.6672 0.2051
vn -0.7457 0.2024 0.6348
vn 0.6777 -0.7295 -0.0924
vn -0.0016 0.9410 0.3384
vn -0.6777 0.7295 -0.0924
vn -0.4052 -0.8365 0.3690
vn 0.4462 0.3708 0.8145
vn 0.4052 -0.8365 0.3690
vn -0.4052 0.8365 0.3690
vn -0.4462 0.3708 0.8145
vn 0.5004 0.8658 -0.0000
vn -0.3938 0.9192 0.0000
vn 0.2603 0.9487 0.1792
vn -0.0000 -0.5772 -0.8166
vn 0.3525 -0.9179 0.1820
vn -0.3525 -0.9179 0.1820
vn 0.0000 0.9413 0.3376
vn -0.0000 0.5772 -0.8166
vn -0.3525 0.9179 0.1820
vn 0.8817 -0.4718 -0.0000
vn -0.8817 -0.4718 0.0000
vn -0.0000 -0.4719 -0.8817
vn -0.0000 0.4718 -0.8817
vn -0.8817 0.4719 0.0000
vn 0.8817 0.4719 -0.0000
vn -0.1829 0.8745 0.4493
vn -0.1806 -0.8748 0.4497
vn 0.5723 0.7911 0.2159
vn 0.1806 -0.8748 0.4497
# 279 vertex normals

vt 0.6246 0.5224 11.1964
vt 0.6252 0.4769 11.1964
vt 0.6434 0.4771 11.1964
vt 0.6429 0.5226 11.1964
vt 0.3265 0.5187 -11.1964
vt 0.3271 0.4732 11.1964
vt 0.6228 0.4768 11.1964
vt 0.6222 0.5224 11.1964
vt 0.3369 0.4562 11.1964
vt 0.3186 0.4315 11.1964
vt 0.6293 0.4356 11.1964
vt 0.6126 0.4597 11.1964
vt 0.3150 0.9382 11.1964
vt 0.3200 0.5599 11.1964
vt 0.6307 0.5640 11.1964
vt 0.6257 0.9423 11.1964
vt 0.2944 0.0527 11.1964
vt 0.3038 0.0528 11.1964
vt 0.2988 0.4311 11.1964
vt 0.2894 0.4310 11.1964
vt 0.3236 0.5210 11.1964
vt 0.3337 0.5339 11.1964
vt 0.3171 0.5580 11.1964
vt 0.3051 0.5487 11.1964
vt 0.3047 0.5453 11.1964
vt 0.6257 0.4746 11.1964
vt 0.6156 0.4617 11.1964
vt 0.6322 0.4376 11.1964
vt 0.6442 0.4469 11.1964
vt 0.6446 0.4502 11.1964
vt 0.6549 0.9429 11.1964
vt 0.6455 0.9428 11.1964
vt 0.6505 0.5645 11.1964
vt 0.6599 0.5646 11.1964
vt 0.3368 0.4604 11.1964
vt 0.6126 0.4639 11.1964
vt 0.6125 0.5352 11.1964
vt 0.3368 0.5317 11.1964
vt 0.3184 0.9685 11.1964
vt 0.3147 0.9545 -11.1964
vt 0.6254 0.9586 11.1964
vt 0.6218 0.9720 11.1964
vt 0.6309 0.0271 11.1964
vt 0.6346 0.0411 11.1964
vt 0.3239 0.0370 11.1964
vt 0.3275 0.0236 11.1964
vt 0.3065 0.4729 11.1964
vt 0.3247 0.4731 11.1964
vt 0.3241 0.5187 11.1964
vt 0.3059 0.5185 11.1964
vt 0.3236 0.0533 11.1964
vt 0.6343 0.0574 11.1964
vt 0.3368 0.5358 11.1964
vt 0.6124 0.5394 11.1964
vt 0.3157 0.4337 11.1964
vt 0.3337 0.4583 11.1964
vt 0.3242 0.4711 11.1964
vt 0.3037 0.4472 11.1964
vt 0.3040 0.4437 11.1964
vt 0.3002 0.5595 11.1964
vt 0.2952 0.9378 11.1964
vt 0.2857 0.9377 11.1964
vt 0.2907 0.5594 11.1964
vt 0.6491 0.4360 11.1964
vt 0.6541 0.0578 11.1964
vt 0.6635 0.0579 11.1964
vt 0.6586 0.4362 11.1964
vt 0.6336 0.5619 11.1964
vt 0.6156 0.5373 11.1964
vt 0.6252 0.5245 11.1964
vt 0.6456 0.5484 11.1964
vt 0.6454 0.5518 11.1964
vt 0.6461 0.4786 11.1964
vt 0.6591 0.4809 11.1964
vt 0.6583 0.5215 11.1964
vt 0.6455 0.5225 11.1964
vt 0.2752 0.4061 11.1964
vt 0.2653 0.3798 11.1964
vt 0.2673 0.0585 11.1964
vt 0.2755 0.0489 11.1964
vt 0.3163 0.5202 11.1964
vt 0.2901 0.5169 11.1964
vt 0.3032 0.5183 11.1964
vt 0.6475 0.4465 11.1964
vt 0.6488 0.4445 11.1964
vt 0.6463 0.4485 11.1964
vt 0.6741 0.5894 11.1964
vt 0.6841 0.6158 11.1964
vt 0.6821 0.9371 11.1964
vt 0.6738 0.9467 11.1964
vt 0.6229 0.9767 11.1964
vt 0.6142 0.9871 11.1964
vt 0.3257 0.9840 11.1964
vt 0.3172 0.9734 11.1964
vt 0.3264 0.0189 11.1964
vt 0.3352 0.0085 11.1964
vt 0.6236 0.0116 11.1964
vt 0.6321 0.0222 11.1964
vt 0.2906 0.4741 11.1964
vt 0.3038 0.4730 11.1964
vt 0.2705 0.4077 11.1964
vt 0.2624 0.3834 11.1964
vt 0.2794 0.4316 11.1964
vt 0.2670 0.9410 11.1964
vt 0.2589 0.9310 11.1964
vt 0.2642 0.6017 11.1964
vt 0.2716 0.5931 11.1964
vt 0.6832 0.0544 11.1964
vt 0.6917 0.0650 11.1964
vt 0.6871 0.4140 11.1964
vt 0.6783 0.4243 11.1964
vt 0.6788 0.5879 11.1964
vt 0.6869 0.6121 11.1964
vt 0.6699 0.5640 11.1964
vt 0.1193 0.3554 -11.2722
vt 0.1209 0.6427 -11.2722
vt 0.0795 0.6428 -11.2722
vt 0.0779 0.3555 -11.2722
vt 0.0778 0.0043 -11.2722
vt 0.1193 0.0042 -11.2722
vt 0.1192 0.3525 -11.2722
vt 0.0779 0.3525 -11.2722
vt 0.1209 0.9938 -11.2722
vt 0.0795 0.9939 -11.2722
vt 0.0796 0.6457 -11.2722
vt 0.1208 0.6457 -11.2722
vt 0.3364 0.5344 11.1964
vt 0.3371 0.5344 11.1964
vt 0.3365 0.4589 11.1964
vt 0.3372 0.4589 11.1964
vt 0.3126 0.9490 11.1964
vt 0.3156 0.9489 11.1964
vt 0.3215 0.0478 11.1964
vt 0.3245 0.0476 11.1964
vt 0.6128 0.5366 11.1964
vt 0.6121 0.5367 11.1964
vt 0.6129 0.4611 11.1964
vt 0.6122 0.4612 11.1964
vt 0.6278 0.9478 11.1964
vt 0.6248 0.9480 11.1964
vt 0.6367 0.0466 11.1964
vt 0.6337 0.0467 11.1964
vt 0.0794 0.6448 -11.2722
vt 0.0796 0.6447 -11.2722
vt 0.1211 0.6436 -11.2722
vt 0.1208 0.6437 -11.2722
vt 0.1197 0.3547 -11.2722
vt 0.1201 0.3548 -11.2722
vt 0.0755 0.3536 -11.2722
vt 0.0763 0.3539 -11.2722
vt 0.0763 0.3541 -11.2722
vt 0.1232 0.9955 -11.2722
vt 0.1226 0.9952 -11.2722
vt 0.1225 0.9950 -11.2722
vt 0.0788 0.9945 -11.2722
vt 0.0787 0.9943 -11.2722
vt 0.1197 0.0032 -11.2722
vt 0.1199 0.0033 -11.2722
vt 0.0756 0.0026 -11.2722
vt 0.0762 0.0029 -11.2722
vt 0.0762 0.0032 -11.2722
vt 0.3175 0.9693 11.1964
vt 0.3171 0.9690 11.1964
vt 0.6318 0.0263 11.1964
vt 0.6322 0.0266 11.1964
vt 0.3240 0.0225 11.1964
vt 0.3250 0.0223 11.1964
vt 0.3252 0.0227 11.1964
vt 0.6254 0.9731 11.1964
vt 0.6243 0.9733 11.1964
vt 0.6242 0.9729 11.1964
vt 0.6441 0.4774 11.1964
vt 0.6443 0.4776 11.1964
vt 0.2849 0.4250 11.1964
vt 0.2843 0.4220 11.1964
vt 0.3041 0.5489 11.1964
vt 0.3045 0.5483 11.1964
vt 0.6644 0.5705 11.1964
vt 0.6650 0.5735 11.1964
vt 0.3346 0.5347 11.1964
vt 0.3181 0.5587 11.1964
vt 0.3111 0.9553 11.1964
vt 0.3123 0.9550 11.1964
vt 0.3159 0.9694 11.1964
vt 0.3147 0.9696 11.1964
vt 0.3104 0.0530 11.1964
vt 0.3054 0.4312 11.1964
vt 0.3347 0.4591 11.1964
vt 0.3252 0.4718 11.1964
vt 0.6147 0.5364 11.1964
vt 0.6241 0.5237 11.1964
vt 0.6147 0.4609 11.1964
vt 0.6312 0.4369 11.1964
vt 0.6382 0.0403 11.1964
vt 0.6370 0.0406 11.1964
vt 0.6334 0.0262 11.1964
vt 0.6346 0.0260 11.1964
vt 0.6389 0.9426 11.1964
vt 0.6439 0.5643 11.1964
vt 0.6122 0.4623 11.1964
vt 0.3371 0.5332 11.1964
vt 0.6336 0.0516 11.1964
vt 0.6247 0.9529 11.1964
vt 0.3217 0.0365 11.1964
vt 0.3205 0.0362 11.1964
vt 0.3255 0.4731 11.1964
vt 0.3249 0.5187 11.1964
vt 0.3246 0.5202 11.1964
vt 0.3346 0.5330 11.1964
vt 0.6238 0.5224 11.1964
vt 0.6244 0.4768 11.1964
vt 0.6247 0.4754 11.1964
vt 0.6147 0.4626 11.1964
vt 0.6276 0.9591 11.1964
vt 0.6289 0.9594 11.1964
vt 0.1224 0.6447 -11.2722
vt 0.1231 0.6445 -11.2722
vt 0.0764 0.3535 -11.2722
vt 0.0779 0.6441 -11.2722
vt 0.0773 0.6445 -11.2722
vt 0.1224 0.6441 -11.2722
vt 0.1208 0.3541 -11.2722
vt 0.1215 0.3537 11.2716
vt 0.3068 0.5597 11.1964
vt 0.3018 0.9380 11.1964
vt 0.3168 0.4329 11.1964
vt 0.3347 0.4574 11.1964
vt 0.6425 0.4359 11.1964
vt 0.6475 0.0576 11.1964
vt 0.6326 0.5627 11.1964
vt 0.6146 0.5382 11.1964
vt 0.0781 0.6446 -11.2722
vt 0.0779 0.9949 -11.2722
vt 0.0772 0.9954 -11.2722
vt 0.1207 0.3535 -11.2722
vt 0.1206 0.0022 -11.2722
vt 0.1212 0.0011 -11.2722
vt 0.0780 0.9968 -11.2722
vt 0.0785 0.9958 -11.2722
vt 0.1219 0.9959 -11.2722
vt 0.1224 0.9968 -11.2722
vt 0.1195 0.0014 11.2722
vt 0.1194 0.0023 -11.2722
vt 0.0769 0.0023 -11.2722
vt 0.0765 0.0013 -11.2722
vt 0.6456 0.4781 11.1964
vt 0.6592 0.4805 11.1964
vt 0.2768 0.4143 11.1964
vt 0.2645 0.3808 11.1964
vt 0.3138 0.5207 11.1964
vt 0.2895 0.5176 11.1964
vt 0.6725 0.5812 11.1964
vt 0.6849 0.6148 11.1964
vt 0.6438 0.5226 11.1964
vt 0.2880 0.0514 11.1964
vt 0.3037 0.5465 11.1964
vt 0.6454 0.4475 11.1964
vt 0.6451 0.4496 11.1964
vt 0.6614 0.9442 11.1964
vt 0.6220 0.9733 11.1964
vt 0.3182 0.9698 11.1964
vt 0.3273 0.0223 11.1964
vt 0.6311 0.0258 11.1964
vt 0.3050 0.5184 11.1964
vt 0.3056 0.4729 11.1964
vt 0.3026 0.4460 11.1964
vt 0.3033 0.4443 11.1964
vt 0.2793 0.9388 11.1964
vt 0.2842 0.5710 11.1964
vt 0.6701 0.0567 11.1964
vt 0.6652 0.4352 11.1964
vt 0.6467 0.5495 11.1964
vt 0.6460 0.5513 11.1964
vt 0.0796 0.6438 -11.2722
vt 0.0780 0.3545 -11.2722
vt 0.1192 0.3544 -11.2722
vt 0.3355 0.5353 11.1964
vt 0.3359 0.5347 11.1964
vt 0.3353 0.5339 11.1964
vt 0.3360 0.5335 11.1964
vt 0.3355 0.5324 11.1964
vt 0.3355 0.4597 11.1964
vt 0.3360 0.4592 11.1964
vt 0.3354 0.4584 11.1964
vt 0.3361 0.4579 11.1964
vt 0.3356 0.4568 11.1964
vt 0.3372 0.4577 11.1964
vt 0.3088 0.9530 11.1964
vt 0.3104 0.9503 11.1964
vt 0.3042 0.9507 11.1964
vt 0.3075 0.9467 11.1964
vt 0.2995 0.9463 11.1964
vt 0.3043 0.9419 11.1964
vt 0.3109 0.9448 11.1964
vt 0.3089 0.9395 11.1964
vt 0.3157 0.9440 11.1964
vt 0.3178 0.0518 11.1964
vt 0.3194 0.0491 11.1964
vt 0.3132 0.0495 11.1964
vt 0.3165 0.0455 11.1964
vt 0.3085 0.0451 11.1964
vt 0.3132 0.0407 11.1964
vt 0.3199 0.0435 11.1964
vt 0.3179 0.0383 11.1964
vt 0.3247 0.0427 11.1964
vt 0.6138 0.5358 11.1964
vt 0.6134 0.5364 11.1964
vt 0.6140 0.5372 11.1964
vt 0.6132 0.5376 11.1964
vt 0.6137 0.5388 11.1964
vt 0.6121 0.5379 11.1964
vt 0.6138 0.4603 11.1964
vt 0.6134 0.4609 11.1964
vt 0.6140 0.4616 11.1964
vt 0.6133 0.4621 11.1964
vt 0.6139 0.4632 11.1964
vt 0.6315 0.9438 11.1964
vt 0.6299 0.9465 11.1964
vt 0.6361 0.9461 11.1964
vt 0.6328 0.9501 11.1964
vt 0.6408 0.9505 11.1964
vt 0.6361 0.9549 11.1964
vt 0.6294 0.9521 11.1964
vt 0.6315 0.9573 11.1964
vt 0.6405 0.0426 11.1964
vt 0.6389 0.0453 11.1964
vt 0.6451 0.0449 11.1964
vt 0.6418 0.0489 11.1964
vt 0.6498 0.0493 11.1964
vt 0.6450 0.0537 11.1964
vt 0.6384 0.0508 11.1964
vt 0.6404 0.0561 11.1964
vt 0.0788 0.6451 -11.2722
vt 0.0791 0.6450 -11.2722
vt 0.0786 0.6444 -11.2722
vt 0.0791 0.6441 -11.2722
vt 0.0787 0.6434 -11.2722
vt 0.1217 0.6434 -11.2722
vt 0.1214 0.6435 -11.2722
vt 0.1218 0.6441 -11.2722
vt 0.1213 0.6444 -11.2722
vt 0.1216 0.6451 -11.2722
vt 0.1208 0.6447 -11.2722
vt 0.1195 0.3546 -11.2722
vt 0.1191 0.3535 -11.2722
vt 0.1196 0.3538 -11.2722
vt 0.1200 0.3530 -11.2722
vt 0.1202 0.3540 -11.2722
vt 0.0763 0.3537 -11.2722
vt 0.0772 0.3530 -11.2722
vt 0.0772 0.3536 -11.2722
vt 0.0780 0.3535 -11.2722
vt 0.0771 0.3543 -11.2722
vt 0.0771 0.3548 -11.2722
vt 0.1228 0.9959 -11.2722
vt 0.1227 0.9956 -11.2722
vt 0.1226 0.9964 -11.2722
vt 0.1223 0.9957 -11.2722
vt 0.1220 0.9950 -11.2722
vt 0.1214 0.9949 -11.2722
vt 0.1218 0.9943 -11.2722
vt 0.0790 0.9949 -11.2722
vt 0.0789 0.9947 -11.2722
vt 0.0783 0.9955 -11.2722
vt 0.0778 0.9963 -11.2722
vt 0.0781 0.9952 -11.2722
vt 0.0775 0.9959 -11.2722
vt 0.1193 0.0033 -11.2722
vt 0.1195 0.0033 -11.2722
vt 0.1198 0.0023 -11.2722
vt 0.1200 0.0014 -11.2722
vt 0.1202 0.0023 -11.2722
vt 0.1205 0.0013 -11.2722
vt 0.0760 0.0022 -11.2722
vt 0.0761 0.0026 -11.2722
vt 0.0763 0.0018 -11.2722
vt 0.0765 0.0024 -11.2722
vt 0.0768 0.0031 -11.2722
vt 0.0774 0.0033 -11.2722
vt 0.0770 0.0038 -11.2722
vt 0.3178 0.9695 11.1964
vt 0.3178 0.9714 11.1964
vt 0.3171 0.9707 11.1964
vt 0.3161 0.9718 11.1964
vt 0.3164 0.9700 11.1964
vt 0.3153 0.9706 11.1964
vt 0.6315 0.0261 11.1964
vt 0.6315 0.0242 11.1964
vt 0.6322 0.0249 11.1964
vt 0.6332 0.0238 11.1964
vt 0.6329 0.0256 11.1964
vt 0.6340 0.0250 11.1964
vt 0.3246 0.0215 11.1964
vt 0.3248 0.0219 11.1964
vt 0.3254 0.0204 11.1964
vt 0.3258 0.0213 11.1964
vt 0.3270 0.0208 11.1964
vt 0.3261 0.0222 11.1964
vt 0.3263 0.0231 11.1964
vt 0.6247 0.9741 11.1964
vt 0.6245 0.9737 11.1964
vt 0.6240 0.9752 11.1964
vt 0.6235 0.9742 11.1964
vt 0.6223 0.9748 11.1964
vt 0.6232 0.9734 11.1964
vt 0.6230 0.9725 11.1964
vt 0.6439 0.4770 11.1964
vt 0.6440 0.4772 11.1964
vt 0.6443 0.4770 11.1964
vt 0.6446 0.4774 11.1964
vt 0.6448 0.4770 11.1964
vt 0.6452 0.4775 11.1964
vt 0.6449 0.4777 11.1964
vt 0.6452 0.4781 11.1964
vt 0.2859 0.4313 11.1964
vt 0.2854 0.4281 11.1964
vt 0.2826 0.4315 11.1964
vt 0.2818 0.4254 11.1964
vt 0.2782 0.4228 11.1964
vt 0.2807 0.4195 11.1964
vt 0.2797 0.4139 11.1964
vt 0.3034 0.5501 11.1964
vt 0.3037 0.5495 11.1964
vt 0.3018 0.5515 11.1964
vt 0.3024 0.5504 11.1964
vt 0.3003 0.5529 11.1964
vt 0.3012 0.5512 11.1964
vt 0.3031 0.5492 11.1964
vt 0.3022 0.5496 11.1964
vt 0.3038 0.5477 11.1964
vt 0.3029 0.5477 11.1964
vt 0.6634 0.5642 11.1964
vt 0.6639 0.5674 11.1964
vt 0.6667 0.5640 11.1964
vt 0.6676 0.5701 11.1964
vt 0.6711 0.5728 11.1964
vt 0.6686 0.5760 11.1964
vt 0.6697 0.5816 11.1964
vt 0.3190 0.5593 11.1964
vt 0.3134 0.9547 11.1964
vt 0.3170 0.0531 11.1964
vt 0.3120 0.4314 11.1964
vt 0.3260 0.4724 11.1964
vt 0.6233 0.5231 11.1964
vt 0.6303 0.4363 11.1964
vt 0.6359 0.0409 11.1964
vt 0.6323 0.9425 11.1964
vt 0.6373 0.5642 11.1964
vt 0.3227 0.0368 11.1964
vt 0.3263 0.4732 11.1964
vt 0.3257 0.5187 11.1964
vt 0.3255 0.5195 11.1964
vt 0.6230 0.5224 11.1964
vt 0.6236 0.4768 11.1964
vt 0.6238 0.4760 11.1964
vt 0.6266 0.9588 11.1964
vt 0.3134 0.5598 11.1964
vt 0.3084 0.9381 11.1964
vt 0.3176 0.4323 11.1964
vt 0.6359 0.4358 11.1964
vt 0.6409 0.0575 11.1964
vt 0.6317 0.5633 11.1964
vt 0.6592 0.4800 11.1964
vt 0.6593 0.4795 11.1964
vt 0.2635 0.3820 11.1964
vt 0.3114 0.5213 11.1964
vt 0.2888 0.5184 11.1964
vt 0.3090 0.5218 11.1964
vt 0.2882 0.5192 11.1964
vt 0.6858 0.6135 11.1964
vt 0.6446 0.5226 11.1964
vt 0.2816 0.0501 11.1964
vt 0.3027 0.5471 11.1964
vt 0.3021 0.5462 11.1964
vt 0.6466 0.4475 11.1964
vt 0.6456 0.4490 11.1964
vt 0.6677 0.9455 11.1964
vt 0.3041 0.5184 11.1964
vt 0.3047 0.4730 11.1964
vt 0.3015 0.4450 11.1964
vt 0.3027 0.4448 11.1964
vt 0.3002 0.4459 11.1964
vt 0.3020 0.4443 11.1964
vt 0.2731 0.9399 11.1964
vt 0.2778 0.5822 11.1964
vt 0.6767 0.0556 11.1964
vt 0.6718 0.4313 11.1964
vt 0.6479 0.5505 11.1964
vt 0.6466 0.5508 11.1964
vt 0.6492 0.5497 11.1964
vt 0.6473 0.5512 11.1964
# 491 texture coords

o green_book
g green_book
usemtl 14___Default
s 1
f 1/1/1 2/2/1 3/3/2 4/4/3 
f 5/5/4 6/6/4 7/7/5 8/8/5 
s 2
f 9/9/6 10/10/7 11/11/8 12/12/9 
f 13/13/10 14/14/11 15/15/12 16/16/13 
s 1
f 17/17/14 18/18/15 19/19/16 20/20/17 
f 21/21/18 22/22/19 23/23/20 24/24/21 25/25/22 
f 2/26/1 26/27/23 27/28/24 28/29/25 3/30/2 
f 29/31/26 30/32/27 31/33/28 32/34/29 
f 6/6/4 33/35/30 34/36/31 7/7/5 
f 8/8/5 35/37/32 36/38/33 5/5/4 
f 37/39/34 38/40/35 39/41/36 40/42/37 
f 41/43/38 42/44/39 43/45/40 44/46/41 
f 45/47/42 46/48/18 21/49/18 25/50/22 
s 2
f 10/10/7 47/51/43 48/52/44 11/11/8 
f 14/14/11 49/53/45 50/54/46 15/15/12 
s 1
f 19/55/16 51/56/47 46/57/18 45/58/42 20/59/17 
f 23/60/20 52/61/48 53/62/49 24/63/21 
f 27/64/24 54/65/50 55/66/51 28/67/25 
f 31/68/28 56/69/52 1/70/1 4/71/3 32/72/29 
f 57/73/53 58/74/54 59/75/55 60/76/56 
s 2
f 61/77/57 62/78/58 63/79/59 64/80/60 
f 65/81/61 66/82/62 67/83/63 
f 68/84/64 69/85/65 70/86/66 
f 71/87/67 72/88/68 73/89/69 74/90/70 
f 74/91/70 73/92/69 75/93/71 76/94/72 
f 64/95/60 63/96/59 77/97/73 78/98/74 
s 1
f 67/83/63 66/82/62 79/99/75 80/100/76 
s 2
f 80/101/76 79/102/75 81/103/77 
f 76/104/72 75/105/71 82/106/78 83/107/79 
f 78/108/74 77/109/73 69/110/65 68/111/64 
s 4
f 60/112/56 59/113/55 84/114/80 
s 1
f 85/115/81 86/116/82 87/117/83 88/118/84 
f 89/119/85 90/120/86 91/121/87 92/122/88 
f 93/123/89 94/124/90 95/125/91 96/126/92 
s 2
f 49/53/45 97/127/93 98/128/94 
s 1
f 33/35/30 99/129/95 100/130/96 
f 38/40/35 101/131/97 102/132/98 
s 2
f 47/51/43 103/133/99 104/134/100 
s 1
f 35/37/32 105/135/101 106/136/102 
s 2
f 12/12/9 107/137/103 108/138/104 
f 16/16/13 109/139/105 110/140/106 
s 1
f 42/44/39 111/141/107 112/142/108 
s 4
f 95/125/91 113/143/109 114/144/110 
f 86/116/82 115/145/111 116/146/112 
f 85/115/81 117/147/113 118/148/114 
f 73/149/69 119/150/115 120/151/116 
s 8
f 62/152/58 121/153/117 122/154/118 
f 94/124/90 123/155/119 124/156/120 
s 1
f 90/120/86 125/157/121 126/158/122 
s 8
f 72/159/68 127/160/123 128/161/124 
s 1
f 37/39/34 129/162/125 130/163/126 
f 41/43/38 131/164/127 132/165/128 
f 17/166/14 133/167/129 134/168/130 
f 29/169/26 135/170/131 136/171/132 
f 3/3/2 137/172/133 138/173/134 
f 20/20/17 139/174/135 140/175/136 
f 24/24/21 141/176/137 142/177/138 
f 32/34/29 143/178/139 144/179/140 
f 22/22/19 145/180/141 146/181/142 23/23/20 
f 52/182/48 147/183/143 148/184/126 53/185/49 
f 18/18/15 149/186/144 150/187/145 19/19/16 
f 51/56/47 151/188/146 152/189/147 46/57/18 
f 56/69/52 153/190/148 154/191/149 1/70/1 
f 26/27/23 155/192/150 156/193/151 27/28/24 
f 54/194/50 157/195/152 158/196/128 55/197/51 
f 30/32/27 159/198/153 160/199/154 31/33/28 
f 33/35/30 100/130/96 161/200/155 34/36/31 
f 35/37/32 106/136/102 162/201/156 36/38/33 
s 2
f 47/51/43 104/134/100 163/202/157 48/52/44 
s 1
f 38/40/35 102/132/98 164/203/158 39/41/36 
f 17/166/14 134/168/130 165/204/159 18/205/15 
f 46/48/18 152/206/147 166/207/147 21/49/18 
f 21/21/18 166/208/147 167/209/160 22/22/19 
f 1/1/1 154/210/149 168/211/149 2/2/1 
f 2/26/1 168/212/149 169/213/161 26/27/23 
f 29/169/26 136/171/132 170/214/162 30/215/27 
s 8
f 62/152/58 122/154/118 171/216/163 63/217/59 
f 72/159/68 128/161/124 172/218/164 73/149/69 
s 16
f 73/149/69 120/151/116 173/219/165 75/220/71 
f 63/217/59 174/221/166 175/222/114 77/223/73 
s 1
f 23/60/20 146/224/142 176/225/167 52/61/48 
f 19/55/16 150/226/145 177/227/168 51/56/47 
f 27/64/24 156/228/151 178/229/169 54/65/50 
f 31/68/28 160/230/154 179/231/170 56/69/52 
s 8
f 75/220/71 180/232/171 181/233/172 82/234/78 
f 77/223/73 182/235/173 183/236/174 69/237/65 
s 1
f 66/238/62 184/239/175 185/240/176 79/241/75 
f 58/242/54 186/243/177 187/244/178 59/245/55 
f 57/73/53 188/246/179 189/247/180 58/74/54 
s 2
f 61/77/57 190/248/181 191/249/182 62/78/58 
f 65/81/61 192/250/183 193/251/184 66/82/62 
f 71/87/67 194/252/185 195/253/186 72/88/68 
s 1
f 3/3/2 138/173/134 196/254/187 4/4/3 
s 4
f 20/20/17 140/175/136 197/255/188 17/17/14 
s 1
f 24/24/21 142/177/138 198/256/189 25/25/22 
f 28/29/25 199/257/190 200/258/191 3/30/2 
s 4
f 32/34/29 144/179/140 201/259/192 29/31/26 
s 8
f 40/42/37 202/260/193 203/261/194 37/39/34 
f 44/46/41 204/262/195 205/263/196 41/43/38 
s 1
f 25/50/22 198/264/189 206/265/197 45/47/42 
f 45/58/42 206/266/197 207/267/138 20/59/17 
s 4
f 53/62/49 208/268/198 209/269/199 24/63/21 
s 1
f 55/66/51 210/270/200 199/271/190 28/67/25 
f 4/71/3 196/272/187 211/273/201 32/72/29 
s 2
f 86/116/82 116/146/112 212/274/110 87/117/83 
f 88/118/84 213/275/202 214/276/203 85/115/81 
f 49/53/45 215/277/204 216/278/205 
s 4
f 215/277/204 145/180/141 217/279/206 216/278/205 
s 1
f 145/180/141 22/22/19 167/209/160 217/279/206 
s 2
f 49/53/45 216/278/205 97/127/93 
s 4
f 216/278/205 217/279/206 218/280/207 97/127/93 
s 8
f 217/279/206 167/209/160 219/281/208 218/280/207 
s 4
f 97/127/93 218/280/207 162/201/156 98/128/94 
s 1
f 218/280/207 219/281/208 36/38/33 162/201/156 
f 33/35/30 220/282/209 221/283/210 
s 8
f 220/282/209 151/188/146 222/284/211 221/283/210 
s 1
f 151/188/146 51/56/47 177/227/168 222/284/211 
f 33/35/30 221/283/210 99/129/95 
s 8
f 221/283/210 222/284/211 223/285/212 99/129/95 
s 1
f 222/284/211 177/227/168 224/286/213 223/285/212 
s 8
f 99/129/95 223/285/212 225/287/214 100/130/96 
s 2
f 223/285/212 224/286/213 9/9/6 225/287/214 
s 1
f 38/40/35 226/288/215 227/289/216 
f 226/288/215 147/290/143 228/291/217 227/289/216 
f 147/290/143 52/292/48 176/293/167 228/291/217 
f 38/40/35 227/289/216 101/131/97 
f 227/289/216 228/291/217 229/294/218 101/131/97 
s 4
f 228/291/217 176/293/167 230/295/219 229/294/218 
s 1
f 101/131/97 229/294/218 231/296/220 102/132/98 
s 2
f 229/294/218 230/295/219 13/13/10 231/296/220 
f 47/51/43 232/297/221 233/298/222 
s 1
f 232/297/221 149/299/144 234/300/223 233/298/222 
f 149/299/144 18/301/15 165/302/159 234/300/223 
s 2
f 47/51/43 233/298/222 103/133/99 
s 1
f 233/298/222 234/300/223 235/303/224 103/133/99 
f 234/300/223 165/302/159 236/304/225 235/303/224 
f 103/133/99 235/303/224 237/305/226 104/134/100 
f 235/303/224 236/304/225 43/45/40 237/305/226 
f 35/37/32 238/306/227 239/307/228 
s 4
f 238/306/227 153/190/148 240/308/229 239/307/228 
s 1
f 153/190/148 56/69/52 179/231/170 240/308/229 
f 35/37/32 239/307/228 105/135/101 
s 4
f 239/307/228 240/308/229 241/309/230 105/135/101 
s 1
f 240/308/229 179/231/170 242/310/231 241/309/230 
s 4
f 105/135/101 241/309/230 243/311/232 106/136/102 
s 2
f 241/309/230 242/310/231 50/54/46 243/311/232 
f 12/12/9 244/312/233 245/313/234 
s 8
f 244/312/233 155/192/150 246/314/235 245/313/234 
s 1
f 155/192/150 26/27/23 169/213/161 246/314/235 
s 2
f 12/12/9 245/313/234 107/137/103 
s 8
f 245/313/234 246/314/235 247/315/236 107/137/103 
s 4
f 246/314/235 169/213/161 248/316/237 247/315/236 
s 8
f 107/137/103 247/315/236 161/200/155 108/138/104 
s 1
f 247/315/236 248/316/237 34/36/31 161/200/155 
s 2
f 16/16/13 249/317/238 250/318/239 
s 1
f 249/317/238 159/319/153 251/320/240 250/318/239 
f 159/319/153 30/321/27 170/322/162 251/320/240 
s 2
f 16/16/13 250/318/239 109/139/105 
s 1
f 250/318/239 251/320/240 252/323/241 109/139/105 
f 251/320/240 170/322/162 253/324/242 252/323/241 
f 109/139/105 252/323/241 164/203/158 110/140/106 
f 252/323/241 253/324/242 39/41/36 164/203/158 
f 42/44/39 254/325/243 255/326/244 
f 254/325/243 157/327/152 256/328/245 255/326/244 
f 157/327/152 54/329/50 178/330/169 256/328/245 
f 42/44/39 255/326/244 111/141/107 
f 255/326/244 256/328/245 257/331/246 111/141/107 
s 8
f 256/328/245 178/330/169 258/332/247 257/331/246 
s 1
f 111/141/107 257/331/246 163/202/157 112/142/108 
s 2
f 257/331/246 258/332/247 48/52/44 163/202/157 
s 4
f 95/125/91 259/333/248 260/334/109 
f 259/333/248 180/232/171 261/335/109 260/334/109 
f 180/232/171 75/220/71 173/219/165 261/335/109 
f 95/125/91 260/334/109 113/143/109 
f 260/334/109 261/335/109 262/336/109 113/143/109 
f 261/335/109 173/219/165 263/337/165 262/336/109 
f 113/143/109 262/336/109 212/274/110 114/144/110 
f 262/336/109 263/337/165 87/117/83 212/274/110 
f 86/116/82 264/338/166 265/339/111 
f 264/338/166 174/221/166 266/340/111 265/339/111 
f 174/221/166 63/217/59 171/216/163 266/340/111 
f 86/116/82 265/339/111 115/145/111 
f 265/339/111 266/340/111 267/341/111 115/145/111 
f 266/340/111 171/216/163 268/342/249 267/341/111 
f 115/145/111 267/341/111 269/343/112 116/146/112 
f 267/341/111 268/342/249 96/126/92 269/343/112 
f 85/115/81 214/276/203 270/344/113 
f 214/276/203 271/345/203 272/346/113 270/344/113 
f 271/345/203 91/121/87 273/347/250 272/346/113 
f 85/115/81 270/344/113 117/147/113 
f 270/344/113 272/346/113 274/348/113 117/147/113 
f 272/346/113 273/347/250 182/235/173 274/348/113 
f 117/147/113 274/348/113 175/222/114 118/148/114 
f 274/348/113 182/235/173 77/223/73 175/222/114 
f 73/149/69 172/218/164 275/349/115 
f 172/218/164 276/350/251 277/351/115 275/349/115 
f 276/350/251 92/122/88 278/352/202 277/351/115 
f 73/149/69 275/349/115 119/150/115 
f 275/349/115 277/351/115 279/353/115 119/150/115 
f 277/351/115 278/352/202 213/275/202 279/353/115 
f 119/150/115 279/353/115 280/354/252 120/151/116 
f 279/353/115 213/275/202 88/118/84 280/354/252 
s 8
f 62/152/58 191/355/182 281/356/117 
f 191/355/182 282/357/182 283/358/117 281/356/117 
f 282/357/182 79/241/75 185/240/176 283/358/117 
f 62/152/58 281/356/117 121/153/117 
f 281/356/117 283/358/117 284/359/117 121/153/117 
f 283/358/117 185/240/176 285/360/176 284/359/117 
f 121/153/117 284/359/117 286/361/253 122/154/118 
f 284/359/117 285/360/176 93/123/89 286/361/253 
f 94/124/90 287/362/175 288/363/119 
f 287/362/175 184/239/175 289/364/119 288/363/119 
f 184/239/175 66/238/62 193/365/184 289/364/119 
f 94/124/90 288/363/119 123/155/119 
f 288/363/119 289/364/119 290/366/119 123/155/119 
f 289/364/119 193/365/184 291/367/184 290/366/119 
f 123/155/119 290/366/119 181/233/172 124/156/120 
f 290/366/119 291/367/184 82/234/78 181/233/172 
s 1
f 90/120/86 292/368/177 293/369/254 
f 292/368/177 186/243/177 294/370/254 293/369/254 
f 186/243/177 58/242/54 189/371/180 294/370/254 
f 90/120/86 293/369/254 125/157/121 
f 293/369/254 294/370/254 295/372/254 125/157/121 
f 294/370/254 189/371/180 296/373/180 295/372/254 
f 125/157/121 295/372/254 183/236/174 126/158/122 
f 295/372/254 296/373/180 69/237/65 183/236/174 
s 8
f 72/159/68 195/374/186 297/375/123 
f 195/374/186 298/376/186 299/377/123 297/375/123 
f 298/376/186 59/245/55 187/244/178 299/377/123 
f 72/159/68 297/375/123 127/160/123 
f 297/375/123 299/377/123 300/378/123 127/160/123 
f 299/377/123 187/244/178 301/379/178 300/378/123 
f 127/160/123 300/378/123 302/380/255 128/161/124 
f 300/378/123 301/379/178 89/119/85 302/380/255 
s 1
f 37/39/34 203/261/194 303/381/125 
f 203/261/194 304/382/194 305/383/125 303/381/125 
f 304/382/194 76/94/72 306/384/256 305/383/125 
f 37/39/34 303/381/125 129/162/125 
f 303/381/125 305/383/125 307/385/125 129/162/125 
f 305/383/125 306/384/256 208/386/198 307/385/125 
f 129/162/125 307/385/125 148/184/126 130/163/126 
f 307/385/125 208/386/198 53/185/49 148/184/126 
f 41/43/38 205/263/196 308/387/127 
f 205/263/196 309/388/257 310/389/127 308/387/127 
f 309/388/257 78/98/74 311/390/200 310/389/127 
f 41/43/38 308/387/127 131/164/127 
f 308/387/127 310/389/127 312/391/127 131/164/127 
f 310/389/127 311/390/200 210/392/200 312/391/127 
f 131/164/127 312/391/127 158/196/128 132/165/128 
f 312/391/127 210/392/200 55/197/51 158/196/128 
f 17/166/14 197/393/188 313/394/129 
f 197/393/188 314/395/258 315/396/129 313/394/129 
f 314/395/258 64/95/60 316/397/195 315/396/129 
f 17/166/14 313/394/129 133/167/129 
f 313/394/129 315/396/129 317/398/129 133/167/129 
f 315/396/129 316/397/195 204/262/195 317/398/129 
f 133/167/129 317/398/129 318/399/130 134/168/130 
f 317/398/129 204/262/195 44/46/41 318/399/130 
f 29/169/26 201/400/192 319/401/131 
f 201/400/192 320/402/259 321/403/131 319/401/131 
f 320/402/259 74/91/70 322/404/260 321/403/131 
f 29/169/26 319/401/131 135/170/131 
f 319/401/131 321/403/131 323/405/131 135/170/131 
f 321/403/131 322/404/260 202/260/193 323/405/131 
f 135/170/131 323/405/131 324/406/132 136/171/132 
f 323/405/131 202/260/193 40/42/37 324/406/132 
f 3/3/2 200/407/191 325/408/261 
f 200/407/191 326/409/262 327/410/261 325/408/261 
f 326/409/262 70/411/66 328/412/179 327/410/261 
f 3/3/2 325/408/261 137/172/133 
f 325/408/261 327/410/261 329/413/261 137/172/133 
f 327/410/261 328/412/179 188/246/179 329/413/261 
f 137/172/133 329/413/261 330/414/263 138/173/134 
f 329/413/261 188/246/179 57/73/53 330/414/263 
f 20/20/17 207/415/138 331/416/135 
f 207/415/138 332/417/264 333/418/137 331/416/135 
f 332/417/264 81/103/77 334/419/181 333/418/137 
f 20/20/17 331/416/135 139/174/135 
f 331/416/135 333/418/137 335/420/137 139/174/135 
f 333/418/137 334/419/181 190/248/181 335/420/137 
f 139/174/135 335/420/137 336/421/265 140/175/136 
f 335/420/137 190/248/181 61/77/57 336/421/265 
f 24/24/21 209/422/199 337/423/137 
f 209/422/199 338/424/266 339/425/137 337/423/137 
f 338/424/266 83/426/79 340/427/183 339/425/137 
f 24/24/21 337/423/137 141/176/137 
f 337/423/137 339/425/137 341/428/135 141/176/137 
f 339/425/137 340/427/183 192/429/183 341/428/135 
f 141/176/137 341/428/135 342/430/264 142/177/138 
f 341/428/135 192/429/183 65/431/61 342/430/264 
f 32/34/29 211/432/201 343/433/267 
f 211/432/201 344/434/268 345/435/267 343/433/267 
f 344/434/268 84/114/80 346/436/185 345/435/267 
f 32/34/29 343/433/267 143/178/139 
f 343/433/267 345/435/267 347/437/267 143/178/139 
f 345/435/267 346/436/185 194/252/185 347/437/267 
f 143/178/139 347/437/267 348/438/269 144/179/140 
f 347/437/267 194/252/185 71/87/67 348/438/269 
s 4
f 145/180/141 215/277/204 349/439/270 146/181/142 
s 2
f 215/277/204 49/53/45 14/14/11 349/439/270 
s 1
f 147/183/143 226/440/215 130/163/126 148/184/126 
f 226/440/215 38/40/35 37/39/34 130/163/126 
f 149/186/144 232/441/221 350/442/271 150/187/145 
s 2
f 232/441/221 47/51/43 10/10/7 350/442/271 
s 8
f 151/188/146 220/282/209 351/443/272 152/189/147 
s 1
f 220/282/209 33/35/30 6/6/4 351/443/272 
s 4
f 153/190/148 238/306/227 352/444/273 154/191/149 
s 1
f 238/306/227 35/37/32 8/8/5 352/444/273 
s 8
f 155/192/150 244/312/233 353/445/274 156/193/151 
s 2
f 244/312/233 12/12/9 11/11/8 353/445/274 
s 1
f 157/195/152 254/446/243 132/165/128 158/196/128 
f 254/446/243 42/44/39 41/43/38 132/165/128 
f 159/198/153 249/447/238 354/448/275 160/199/154 
s 2
f 249/447/238 16/16/13 15/15/12 354/448/275 
s 8
f 100/130/96 225/287/214 108/138/104 161/200/155 
s 2
f 225/287/214 9/9/6 12/12/9 108/138/104 
s 4
f 106/136/102 243/311/232 98/128/94 162/201/156 
s 2
f 243/311/232 50/54/46 49/53/45 98/128/94 
s 1
f 104/134/100 237/305/226 112/142/108 163/202/157 
f 237/305/226 43/45/40 42/44/39 112/142/108 
f 102/132/98 231/296/220 110/140/106 164/203/158 
s 2
f 231/296/220 13/13/10 16/16/13 110/140/106 
s 1
f 134/168/130 318/399/130 236/449/225 165/204/159 
f 318/399/130 44/46/41 43/45/40 236/449/225 
s 8
f 152/206/147 351/450/272 355/451/272 166/207/147 
s 1
f 351/450/272 6/6/4 5/5/4 355/451/272 
s 8
f 166/208/147 355/452/272 219/281/208 167/209/160 
s 1
f 355/452/272 5/5/4 36/38/33 219/281/208 
s 4
f 154/210/149 352/453/273 356/454/273 168/211/149 
s 1
f 352/453/273 8/8/5 7/7/5 356/454/273 
s 4
f 168/212/149 356/455/273 248/316/237 169/213/161 
s 1
f 356/455/273 7/7/5 34/36/31 248/316/237 
f 136/171/132 324/406/132 253/456/242 170/214/162 
f 324/406/132 40/42/37 39/41/36 253/456/242 
s 8
f 122/154/118 286/361/253 268/342/249 171/216/163 
f 286/361/253 93/123/89 96/126/92 268/342/249 
f 128/161/124 302/380/255 276/350/251 172/218/164 
f 302/380/255 89/119/85 92/122/88 276/350/251 
s 16
f 120/151/116 280/354/252 263/337/165 173/219/165 
f 280/354/252 88/118/84 87/117/83 263/337/165 
f 174/221/166 264/338/166 118/148/114 175/222/114 
f 264/338/166 86/116/82 85/115/81 118/148/114 
s 4
f 146/224/142 349/457/270 230/458/219 176/225/167 
s 2
f 349/457/270 14/14/11 13/13/10 230/458/219 
s 1
f 150/226/145 350/459/271 224/286/213 177/227/168 
s 2
f 350/459/271 10/10/7 9/9/6 224/286/213 
s 8
f 156/228/151 353/460/274 258/461/247 178/229/169 
s 2
f 353/460/274 11/11/8 48/52/44 258/461/247 
s 1
f 160/230/154 354/462/275 242/310/231 179/231/170 
s 2
f 354/462/275 15/15/12 50/54/46 242/310/231 
s 8
f 180/232/171 259/333/248 124/156/120 181/233/172 
f 259/333/248 95/125/91 94/124/90 124/156/120 
f 182/235/173 273/347/250 126/158/122 183/236/174 
f 273/347/250 91/121/87 90/120/86 126/158/122 
s 1
f 184/239/175 287/362/175 285/360/176 185/240/176 
f 287/362/175 94/124/90 93/123/89 285/360/176 
f 186/243/177 292/368/177 301/379/178 187/244/178 
f 292/368/177 90/120/86 89/119/85 301/379/178 
f 188/246/179 328/412/179 296/463/180 189/247/180 
f 328/412/179 70/411/66 69/464/65 296/463/180 
s 2
f 190/248/181 334/419/181 282/465/182 191/249/182 
f 334/419/181 81/103/77 79/102/75 282/465/182 
f 192/250/183 340/466/183 291/467/184 193/251/184 
f 340/466/183 83/468/79 82/469/78 291/467/184 
f 194/252/185 346/436/185 298/470/186 195/253/186 
f 346/436/185 84/114/80 59/113/55 298/470/186 
s 1
f 138/173/134 330/414/263 357/471/276 196/254/187 
f 330/414/263 57/73/53 60/76/56 357/471/276 
s 4
f 140/175/136 336/421/265 314/472/258 197/255/188 
f 336/421/265 61/77/57 64/80/60 314/472/258 
s 1
f 142/177/138 342/430/264 358/473/277 198/256/189 
s 4
f 342/430/264 65/431/61 67/474/63 358/473/277 
s 1
f 199/257/190 359/475/278 326/476/262 200/258/191 
s 4
f 359/475/278 68/84/64 70/86/66 326/476/262 
f 144/179/140 348/438/269 320/477/259 201/259/192 
f 348/438/269 71/87/67 74/90/70 320/477/259 
s 8
f 202/260/193 322/404/260 304/382/194 203/261/194 
f 322/404/260 74/91/70 76/94/72 304/382/194 
f 204/262/195 316/397/195 309/388/257 205/263/196 
f 316/397/195 64/95/60 78/98/74 309/388/257 
s 1
f 198/264/189 358/478/277 360/479/279 206/265/197 
f 358/478/277 67/83/63 80/100/76 360/479/279 
f 206/266/197 360/480/279 332/481/264 207/267/138 
s 4
f 360/480/279 80/482/76 81/483/77 332/481/264 
f 208/268/198 306/484/256 338/485/266 209/269/199 
f 306/484/256 76/104/72 83/107/79 338/485/266 
s 1
f 210/270/200 311/486/200 359/487/278 199/271/190 
f 311/486/200 78/108/74 68/111/64 359/487/278 
f 196/272/187 357/488/276 344/489/268 211/273/201 
s 8
f 357/488/276 60/490/56 84/491/80 344/489/268 
s 2
f 116/146/112 269/343/112 114/144/110 212/274/110 
f 269/343/112 96/126/92 95/125/91 114/144/110 
f 213/275/202 278/352/202 271/345/203 214/276/203 
f 278/352/202 92/122/88 91/121/87 271/345/203 
# 318 polygons - 76 triangles

