%YAML 1.1
%TAG !u! tag:unity3d.com,2011:
--- !u!114 &11400000
MonoBehaviour:
  m_ObjectHideFlags: 0
  m_CorrespondingSourceObject: {fileID: 0}
  m_PrefabInstance: {fileID: 0}
  m_PrefabAsset: {fileID: 0}
  m_GameObject: {fileID: 0}
  m_Enabled: 1
  m_EditorHideFlags: 0
  m_Script: {fileID: 11500000, guid: 73dd8b13b97ad2c468505d70d4c97e25, type: 3}
  m_Name: BuffAdd_ItemAddMaxAmount_5
  m_EditorClassIdentifier: 
  delay: 0
  buffToAdd: {fileID: 11400000, guid: 403f2ad65b364b948bcedb909d7d4377, type: 2}
