# 3ds Max Wavefront OBJ Exporter v0.97b - (c)2007 guruware
# File Created: 19.11.2019 14:47:39

mtllib fence.mtl

#
# object fence_1
#

v  2.1450 65.1756 49.8140
v  2.1450 65.1756 -49.5702
v  2.1450 68.9276 -49.5702
v  2.1450 68.9276 49.8140
v  0.6196 65.1756 49.8140
v  0.6196 68.9276 49.8140
v  0.6196 68.9276 -49.5702
v  0.6196 65.1756 -49.5702
v  -0.9843 78.7402 43.0288
v  -0.9843 78.7402 43.4691
v  -0.6988 78.7402 43.4691
v  -0.6988 78.7402 43.0288
v  -0.9843 78.7402 38.3277
v  -0.6988 78.7402 38.3277
v  -0.6988 74.6622 38.3277
v  -0.9843 74.6622 38.3277
v  0.9843 78.7402 43.0288
v  0.9843 78.7402 43.4691
v  0.9843 74.6622 43.3590
v  0.9843 74.6622 43.1389
v  -0.9843 74.6622 43.1389
v  -0.9843 74.6622 43.3590
v  0.9843 9.7511 38.3277
v  0.9843 6.1200 38.3277
v  -0.6988 6.1200 38.3277
v  -0.6988 9.7511 38.3277
v  -0.9843 9.7511 48.1702
v  -0.9843 6.1200 48.1702
v  -0.6988 6.1200 48.1702
v  -0.6988 9.7511 48.1702
v  -0.6988 78.7402 44.5755
v  -0.6988 78.7402 44.3542
v  -0.9843 78.7402 44.3512
v  -0.9843 78.7402 44.5718
v  0.9843 78.7402 38.3277
v  -0.9843 6.1200 43.0288
v  -0.9843 6.1200 38.3277
v  -0.6988 6.1200 43.0288
v  0.9843 74.6622 44.7585
v  0.9843 74.6622 44.4786
v  0.9843 78.7402 44.3718
v  0.9843 78.7402 44.5975
v  0.9843 9.7511 43.2489
v  0.9843 38.3120 38.3277
v  0.9843 38.3120 43.2005
v  0.9843 6.1200 43.0288
v  0.9843 6.1200 44.8365
v  0.9843 6.1200 44.5630
v  0.9843 9.7511 44.3941
v  0.9843 9.7511 44.6804
v  -0.9843 9.7511 43.2489
v  -0.9843 9.7511 38.3277
v  -0.6988 9.7511 43.2489
v  0.9843 6.1200 43.4691
v  -0.6988 6.1200 43.4691
v  -0.9843 77.5417 48.1702
v  -0.9843 74.6622 48.1702
v  -0.6988 74.6622 48.1702
v  -0.6988 77.5617 48.1702
v  0.9843 77.6799 48.1702
v  0.9843 78.7402 47.3485
v  -0.6988 78.7402 47.2729
v  0.9843 56.6238 38.3277
v  0.9843 56.3504 38.3277
v  -0.6988 56.3504 38.3277
v  -0.6988 56.6238 38.3277
v  0.9843 56.6238 43.3284
v  0.9843 56.3504 43.3280
v  0.9843 56.3504 43.1699
v  0.9843 56.6238 43.1695
v  -0.9843 56.6238 43.1695
v  -0.9843 56.3504 43.1699
v  -0.9843 56.3504 43.3280
v  -0.9843 56.6238 43.3284
v  0.9843 38.3120 44.4313
v  0.9843 38.3120 44.7148
v  0.9843 74.6622 38.3277
v  -0.9843 56.6238 38.3277
v  -0.9843 56.3504 38.3277
v  -0.9843 74.6622 44.4786
v  -0.9843 74.6622 44.7585
v  -0.9843 56.6238 48.1702
v  -0.9843 56.3504 48.1702
v  -0.6988 56.3504 48.1702
v  -0.6988 56.6238 48.1702
v  -0.9843 78.7402 45.4540
v  -0.9843 78.7402 47.2601
v  -0.6988 78.7402 45.4607
v  0.9843 6.1200 45.9305
v  0.9843 6.1200 48.1702
v  -0.6988 6.1200 45.9305
v  -0.6988 6.1200 45.1604
v  0.9843 6.1200 45.1100
v  0.9843 78.7402 45.5003
v  0.9843 74.6622 48.1702
v  0.9843 74.6622 45.8780
v  0.9843 9.7511 45.8256
v  0.9843 9.7511 48.1702
v  0.9843 56.6238 48.1702
v  0.9843 56.3504 48.1702
v  0.9843 56.3504 45.8632
v  0.9843 56.6238 45.8634
v  -0.9843 74.6622 45.8780
v  -0.6988 38.3120 38.3277
v  0.9843 38.3120 43.2974
v  -0.9843 38.3120 43.2005
v  -0.9843 38.3120 43.2974
v  -0.9843 38.3120 38.3277
v  -0.9843 38.3120 48.1702
v  -0.6988 38.3120 48.1702
v  -0.9843 56.6238 45.8064
v  -0.9843 56.3504 45.8054
v  0.9843 38.3120 48.1702
v  0.9843 38.3120 45.8487
v  -0.9843 6.1200 43.4691
v  -0.9843 6.1200 45.9305
v  -0.9843 9.7511 45.9333
v  -0.9843 6.1200 44.5630
v  -0.9843 6.1200 44.8365
v  -0.9843 9.7511 44.7402
v  -0.9843 9.7511 44.4420
v  -0.9843 38.3120 45.7338
v  -0.9843 38.3120 44.6509
v  -0.9843 38.3120 44.3802
v  0.9843 55.2570 38.3277
v  -0.6988 55.2570 38.3277
v  -0.6988 57.7173 38.3277
v  0.9843 57.7173 38.3277
v  0.9843 55.2570 43.3261
v  0.9843 55.2569 43.1718
v  0.9843 57.7173 43.1676
v  0.9843 57.7173 43.3303
v  -0.9843 55.2570 43.1718
v  -0.9843 55.2569 43.3261
v  -0.9843 57.7173 43.3303
v  -0.9843 57.7173 43.1676
v  -0.9843 55.2570 38.3277
v  -0.9843 57.7173 38.3277
v  -0.9843 55.2570 48.1702
v  -0.6988 55.2570 48.1702
v  -0.6988 57.7173 48.1702
v  -0.9843 57.7173 48.1702
v  0.9843 55.2570 48.1702
v  0.9843 55.2570 45.8624
v  0.9843 57.7173 45.8643
v  0.9843 57.7173 48.1702
v  -0.9843 57.7173 44.4327
v  -0.9843 57.7173 44.7083
v  -0.9843 55.2570 44.7011
v  -0.9843 55.2569 44.4261
v  0.9843 57.7173 44.7381
v  0.9843 57.7173 44.4565
v  0.9843 55.2570 44.4533
v  0.9843 55.2570 44.7351
v  -0.9843 57.7173 45.8108
v  -0.9843 55.2570 45.8010
v  0.9843 56.0770 38.3277
v  -0.6988 56.0770 38.3277
v  -0.6988 56.8972 38.3277
v  0.9843 56.8972 38.3277
v  0.9843 56.0771 43.3275
v  0.9843 56.0770 43.1704
v  0.9843 56.8971 43.1690
v  0.9843 56.8972 43.3289
v  -0.9843 56.0771 43.1704
v  -0.9843 56.0770 43.3275
v  -0.9843 56.8971 43.3289
v  -0.9843 56.8972 43.1690
v  -0.9843 56.0770 38.3277
v  -0.9843 56.8972 38.3277
v  -0.9843 56.0770 48.1702
v  -0.6988 56.0770 48.1702
v  -0.6988 56.8972 48.1702
v  -0.9843 56.8972 48.1702
v  0.9843 56.0770 48.1702
v  0.9843 56.0770 45.8630
v  0.9843 56.8972 45.8637
v  0.9843 56.8972 48.1702
v  -0.9843 57.1162 44.3576
v  -0.9843 57.1162 44.7801
v  -0.9843 55.8580 44.7764
v  -0.9843 55.8580 44.3542
v  0.9843 57.1162 44.8126
v  0.9843 57.1162 44.3805
v  0.9843 55.8580 44.3789
v  0.9843 55.8580 44.8111
v  -0.9843 56.8972 45.8075
v  -0.9843 56.0771 45.8043
v  -0.6988 78.7402 44.1329
v  -0.9843 78.7402 44.1307
v  -0.9843 78.7402 44.7923
v  -0.6988 78.7402 44.7968
v  0.9843 74.6622 44.1987
v  0.9843 78.7402 44.1461
v  0.9843 78.7402 44.8232
v  0.9843 74.6622 45.0383
v  0.9843 6.1200 44.2896
v  0.9843 9.7511 44.1078
v  0.9843 9.7511 44.9667
v  0.9843 38.3120 44.1478
v  0.9843 38.3120 44.9982
v  -0.9843 74.6622 44.1987
v  -0.9843 74.6622 45.0383
v  -0.9843 56.2774 43.9330
v  -0.9843 56.6968 43.9340
v  -0.9843 56.6968 45.2012
v  -0.9843 56.2774 45.1999
v  0.9843 56.2774 45.2437
v  0.9843 56.6968 45.2442
v  0.9843 56.6968 43.9478
v  0.9843 56.2774 43.9473
v  -0.9843 6.1200 45.1100
v  -0.9843 9.7511 45.0385
v  -0.9843 9.7511 44.1437
v  -0.9843 6.1200 44.2896
v  -0.9843 38.3120 44.9216
v  -0.9843 38.3120 44.1095
v  -0.9843 57.7173 44.1571
v  -0.9843 57.7173 44.9839
v  -0.9843 55.2570 44.9761
v  -0.9843 55.2569 44.1511
v  0.9843 57.7173 45.0196
v  0.9843 57.7173 44.1750
v  0.9843 55.2570 44.1715
v  0.9843 55.2570 45.0169
v  -0.9843 56.9526 44.1031
v  -0.9843 56.9526 45.0411
v  -0.9843 56.0216 45.0381
v  -0.9843 56.0216 44.1008
v  0.9843 56.9526 45.0722
v  0.9843 56.9526 44.1130
v  0.9843 56.0216 44.1117
v  0.9843 56.0216 45.0712
v  -0.9843 0.0000 29.8727
v  -0.9843 0.0000 29.3102
v  0.9843 0.0000 29.3102
v  0.9843 0.0000 29.8727
v  0.9842 68.6614 37.0239
v  0.9842 69.3123 36.8126
v  -0.9843 69.3123 36.8126
v  -0.9843 68.6614 37.0239
v  0.9842 69.3123 29.0057
v  0.9842 69.3123 29.5313
v  0.9842 68.6614 29.6429
v  0.9842 68.6614 29.1053
v  -0.9843 68.6614 27.6161
v  -0.9843 69.3123 27.6161
v  0.9842 69.3123 27.6161
v  0.9842 68.6614 27.6161
v  -0.9843 69.3123 29.5313
v  -0.9843 69.3123 29.0057
v  -0.9843 68.6614 29.1053
v  -0.9843 68.6614 29.6429
v  0.9842 70.6142 37.4586
v  0.9842 78.7402 37.4586
v  -0.9843 78.7402 37.4586
v  -0.9843 70.6142 37.4586
v  0.9842 69.9633 37.0239
v  -0.9843 69.9633 37.0239
v  -0.9843 68.0105 37.4586
v  -0.9843 0.0000 37.4586
v  0.9843 0.0000 37.4586
v  0.9842 68.0105 37.4586
v  0.9842 70.6142 29.5915
v  0.9842 69.9633 29.6429
v  0.9842 69.9633 29.1053
v  0.9842 68.0105 29.3102
v  0.9842 68.0105 29.8727
v  -0.9843 70.6142 27.6161
v  -0.9843 78.7402 27.6161
v  0.9842 78.7402 27.6161
v  0.9842 70.6142 27.6161
v  -0.9843 69.9633 27.6161
v  0.9842 69.9633 27.6161
v  0.9842 68.0105 27.6161
v  0.9843 0.0000 27.6161
v  -0.9843 0.0000 27.6161
v  -0.9843 68.0105 27.6161
v  -0.9843 70.6142 29.5915
v  -0.9843 69.9633 29.1053
v  -0.9843 69.9633 29.6429
v  -0.9843 68.0105 29.8727
v  -0.9843 68.0105 29.3102
v  0.9842 78.7402 29.3102
v  -0.9843 78.7402 29.3102
v  -0.9843 78.7402 29.8727
v  0.9842 78.7402 29.8727
v  -0.9843 0.0000 26.5021
v  -0.9843 0.0000 16.6596
v  0.9843 0.0000 16.6596
v  0.9843 0.0000 26.5021
v  -0.9843 78.0040 26.5021
v  0.9842 78.0040 26.5021
v  0.9842 78.0040 16.6596
v  -0.9843 78.0040 16.6596
v  0.9842 78.7402 12.6481
v  0.9842 78.7402 11.6394
v  -0.9843 78.7402 11.6394
v  -0.9843 78.7402 12.6481
v  -0.9843 0.0000 15.5419
v  0.9843 0.0000 15.5419
v  0.9842 18.1102 15.5419
v  -0.9843 18.1102 15.5419
v  0.9843 0.0000 5.6994
v  -0.9843 0.0000 5.6994
v  -0.9843 18.1102 5.6994
v  0.9842 18.1102 5.6994
v  -0.9843 0.0000 11.6394
v  0.9843 0.0000 11.6394
v  0.9843 0.0000 12.6481
v  -0.9843 0.0000 12.6481
v  0.9842 78.7402 5.6994
v  -0.9843 78.7402 5.6994
v  0.9842 18.1102 12.1437
v  0.9842 74.7497 15.5419
v  -0.9843 18.1102 12.1437
v  -0.9843 74.7867 15.5419
v  -0.9843 0.0000 -2.3277
v  -0.9843 0.0000 -2.9419
v  0.9843 0.0000 -2.9419
v  0.9843 0.0000 -2.3277
v  0.9842 78.1134 -2.3277
v  0.9842 77.8702 -2.9419
v  -0.9843 77.8702 -2.9419
v  -0.9843 78.1134 -2.3277
v  0.9842 38.3755 4.9213
v  0.9842 40.3647 4.9213
v  -0.9843 40.3647 4.9213
v  -0.9843 38.3755 4.9213
v  0.9842 37.9515 -2.9419
v  0.9842 39.9187 -2.9419
v  0.9842 40.0434 -2.3277
v  0.9842 38.0700 -2.3277
v  -0.9843 38.3755 -4.9213
v  -0.9843 40.3647 -4.9213
v  0.9842 40.3647 -4.9213
v  0.9842 38.3755 -4.9213
v  -0.9843 37.9515 -2.9419
v  -0.9843 39.9187 -2.9419
v  -0.9843 40.0434 -3.5561
v  -0.9843 38.0700 -3.5561
v  -0.9843 0.0000 -4.1702
v  -0.9843 0.0000 -4.9213
v  0.9843 0.0000 -4.9213
v  0.9843 0.0000 -4.1702
v  -0.9843 0.0000 -3.5561
v  0.9843 0.0000 -3.5561
v  0.9843 0.0000 0.9404
v  0.9843 0.0000 2.2673
v  -0.9843 0.0000 2.2673
v  -0.9843 0.0000 0.9404
v  0.9843 0.0000 -1.7135
v  -0.9843 0.0000 -1.7135
v  0.9842 78.7402 -4.1702
v  0.9842 78.7402 -4.9213
v  -0.9843 78.7402 -4.9213
v  -0.9843 78.7402 -4.1702
v  0.9842 78.1134 -3.5561
v  -0.9843 78.1134 -3.5561
v  -0.9843 78.7402 0.9404
v  -0.9843 78.7402 2.2673
v  0.9842 78.7402 2.2673
v  0.9842 78.7402 0.9404
v  -0.9843 78.7402 -1.7135
v  0.9842 78.7402 -1.7135
v  0.9842 40.3647 -4.1702
v  0.9842 38.3755 -4.1702
v  0.9842 40.0434 -3.5561
v  0.9842 38.0700 -3.5561
v  0.9842 40.3647 -1.7135
v  0.9842 38.3755 -1.7135
v  -0.9843 38.3755 -1.7135
v  -0.9843 40.3647 -1.7135
v  -0.9843 40.0434 -2.3277
v  -0.9843 38.0700 -2.3277
v  -0.9843 38.3755 -4.1702
v  -0.9843 40.3647 -4.1702
v  0.9843 0.0000 3.5943
v  0.9843 0.0000 4.9213
v  -0.9843 0.0000 4.9213
v  -0.9843 0.0000 3.5943
v  -0.9843 0.0000 -0.3866
v  0.9843 0.0000 -0.3866
v  -0.9843 78.7402 3.5943
v  -0.9843 78.7402 4.9213
v  0.9842 78.7402 4.9213
v  0.9842 78.7402 3.5943
v  0.9842 78.7402 -0.3866
v  -0.9843 78.7402 -0.3866
v  0.9842 38.3755 3.5943
v  0.9842 40.3647 3.5943
v  0.9842 40.3647 -0.3866
v  0.9842 38.3755 -0.3866
v  -0.9843 40.3647 3.5943
v  -0.9843 38.3755 3.5943
v  -0.9843 38.3755 -0.3866
v  -0.9843 40.3647 -0.3866
v  0.9842 42.3539 4.9213
v  -0.9843 42.3539 4.9213
v  -0.9843 36.3862 4.9213
v  0.9842 36.3862 4.9213
v  0.9842 41.8860 -2.9419
v  0.9842 42.0168 -2.3277
v  0.9842 36.0966 -2.3277
v  0.9842 35.9842 -2.9419
v  -0.9843 42.3539 -4.9213
v  0.9842 42.3539 -4.9213
v  0.9842 36.3862 -4.9213
v  -0.9843 36.3862 -4.9213
v  -0.9843 41.8860 -2.9419
v  -0.9843 42.0168 -3.5561
v  -0.9843 36.0966 -3.5561
v  -0.9843 35.9842 -2.9419
v  0.9842 42.3539 -4.1702
v  0.9842 36.3862 -4.1702
v  0.9842 42.0168 -3.5561
v  0.9842 36.0966 -3.5561
v  0.9842 36.3862 2.2673
v  0.9842 36.3862 0.9404
v  0.9842 42.3539 0.9404
v  0.9842 42.3539 2.2673
v  0.9842 36.3862 -1.7135
v  0.9842 42.3539 -1.7135
v  -0.9843 42.3539 2.2673
v  -0.9843 42.3539 0.9404
v  -0.9843 36.3862 0.9404
v  -0.9843 36.3862 2.2673
v  -0.9843 42.3539 -1.7135
v  -0.9843 42.0168 -2.3277
v  -0.9843 36.0966 -2.3277
v  -0.9843 36.3862 -1.7135
v  -0.9843 36.3862 -4.1702
v  -0.9843 42.3539 -4.1702
v  0.9842 37.1787 3.0657
v  0.9842 41.5615 3.0657
v  0.9842 41.5615 0.1421
v  0.9842 37.1787 0.1421
v  -0.9843 41.5615 3.0657
v  -0.9843 37.1787 3.0657
v  -0.9843 37.1787 0.1421
v  -0.9843 41.5615 0.1421
v  -0.9843 0.0000 -10.7363
v  -0.9843 0.0000 -11.1766
v  -0.6988 0.0000 -11.1766
v  -0.6988 0.0000 -10.7363
v  -0.9843 0.0000 -6.0352
v  -0.6988 0.0000 -6.0352
v  -0.6988 4.5667 -6.0352
v  -0.9843 4.5667 -6.0352
v  0.9843 0.0000 -10.7363
v  0.9843 0.0000 -11.1766
v  0.9843 4.5667 -11.0666
v  0.9843 4.5667 -10.8464
v  -0.9843 4.5667 -10.8464
v  -0.9843 4.5667 -11.0666
v  0.9842 77.2573 -6.0352
v  0.9842 81.3235 -6.0352
v  -0.6988 81.3235 -6.0352
v  -0.6988 77.2573 -6.0352
v  -0.9843 77.2573 -15.8777
v  -0.9843 81.3235 -15.8777
v  -0.6988 81.3235 -15.8777
v  -0.6988 77.2573 -15.8777
v  -0.6988 0.0000 -12.2831
v  -0.6988 0.0000 -12.0618
v  -0.9843 0.0000 -12.0588
v  -0.9843 0.0000 -12.2793
v  0.9843 0.0000 -6.0352
v  -0.9843 81.3235 -10.7363
v  -0.9843 81.3235 -6.0352
v  -0.6988 81.3235 -10.7363
v  0.9843 4.5667 -12.4660
v  0.9843 4.5667 -12.1861
v  0.9843 0.0000 -12.0794
v  0.9843 0.0000 -12.3051
v  0.9842 77.2573 -10.9565
v  0.9842 45.2734 -6.0352
v  0.9842 45.2734 -10.9081
v  0.9842 81.3235 -10.7363
v  0.9842 81.3235 -12.5441
v  0.9842 81.3235 -12.2706
v  0.9842 77.2573 -12.1017
v  0.9842 77.2573 -12.3880
v  -0.9843 77.2573 -10.9565
v  -0.9843 77.2573 -6.0352
v  -0.6988 77.2573 -10.9565
v  0.9842 81.3235 -11.1766
v  -0.6988 81.3235 -11.1766
v  -0.9843 1.3421 -15.8777
v  -0.9843 4.5667 -15.8777
v  -0.6988 4.5667 -15.8777
v  -0.6988 1.3197 -15.8777
v  0.9843 1.1873 -15.8777
v  0.9843 0.0000 -15.0561
v  -0.6988 0.0000 -14.9805
v  0.9842 24.7670 -6.0352
v  0.9842 25.0731 -6.0352
v  -0.6988 25.0731 -6.0352
v  -0.6988 24.7670 -6.0352
v  0.9842 24.7670 -11.0360
v  0.9842 25.0731 -11.0355
v  0.9842 25.0731 -10.8775
v  0.9842 24.7670 -10.8770
v  -0.9843 24.7670 -10.8770
v  -0.9843 25.0731 -10.8775
v  -0.9843 25.0731 -11.0355
v  -0.9843 24.7670 -11.0360
v  0.9842 45.2734 -12.1388
v  0.9842 45.2734 -12.4223
v  0.9843 4.5667 -6.0352
v  -0.9843 24.7670 -6.0352
v  -0.9843 25.0731 -6.0352
v  -0.9843 4.5667 -12.1861
v  -0.9843 4.5667 -12.4660
v  -0.9843 24.7670 -15.8777
v  -0.9843 25.0731 -15.8777
v  -0.6988 25.0731 -15.8777
v  -0.6988 24.7670 -15.8777
v  -0.9843 0.0000 -13.1615
v  -0.9843 0.0000 -14.9677
v  -0.6988 0.0000 -13.1682
v  0.9842 81.3235 -13.6380
v  0.9842 81.3235 -15.8777
v  -0.6988 81.3235 -13.6380
v  -0.6988 81.3235 -12.8690
v  0.9842 81.3235 -12.8176
v  0.9843 0.0000 -13.2078
v  0.9843 4.5667 -15.8777
v  0.9843 4.5667 -13.5856
v  0.9842 77.2573 -13.5331
v  0.9842 77.2573 -15.8777
v  0.9842 24.7670 -15.8777
v  0.9842 25.0731 -15.8777
v  0.9842 25.0731 -13.5708
v  0.9842 24.7670 -13.5710
v  -0.9843 4.5667 -13.5856
v  -0.6988 45.2734 -6.0352
v  0.9842 45.2734 -11.0049
v  -0.9843 45.2734 -10.9081
v  -0.9843 45.2734 -11.0049
v  -0.9843 45.2734 -6.0352
v  -0.9843 45.2734 -15.8777
v  -0.6988 45.2734 -15.8777
v  -0.9843 24.7670 -13.5140
v  -0.9843 25.0731 -13.5129
v  0.9842 45.2734 -15.8777
v  0.9842 45.2734 -13.5562
v  -0.9843 81.3235 -11.1766
v  -0.9843 81.3235 -13.6380
v  -0.9843 77.2573 -13.6408
v  -0.9843 81.3235 -12.2706
v  -0.9843 81.3235 -12.5441
v  -0.9843 77.2573 -12.4478
v  -0.9843 77.2573 -12.1495
v  -0.9843 45.2734 -13.4413
v  -0.9843 45.2734 -12.3585
v  -0.9843 45.2734 -12.0878
v  0.9842 26.2976 -6.0352
v  -0.6988 26.2976 -6.0352
v  -0.6988 23.5424 -6.0352
v  0.9842 23.5424 -6.0352
v  0.9842 26.2976 -11.0337
v  0.9842 26.2976 -10.8793
v  0.9842 23.5424 -10.8751
v  0.9842 23.5424 -11.0378
v  -0.9843 26.2976 -10.8793
v  -0.9843 26.2976 -11.0337
v  -0.9843 23.5424 -11.0378
v  -0.9843 23.5424 -10.8751
v  -0.9843 26.2976 -6.0352
v  -0.9843 23.5424 -6.0352
v  -0.9843 26.2976 -15.8777
v  -0.6988 26.2976 -15.8777
v  -0.6988 23.5424 -15.8777
v  -0.9843 23.5424 -15.8777
v  0.9842 26.2976 -15.8777
v  0.9842 26.2976 -13.5699
v  0.9842 23.5424 -13.5719
v  0.9842 23.5424 -15.8777
v  -0.9843 23.5424 -12.1403
v  -0.9843 23.5424 -12.4159
v  -0.9843 26.2976 -12.4086
v  -0.9843 26.2976 -12.1336
v  0.9842 23.5424 -12.4456
v  0.9842 23.5424 -12.1641
v  0.9842 26.2976 -12.1609
v  0.9842 26.2976 -12.4427
v  -0.9843 23.5424 -13.5183
v  -0.9843 26.2976 -13.5086
v  0.9842 25.3792 -6.0352
v  -0.6988 25.3792 -6.0352
v  -0.6988 24.4608 -6.0352
v  0.9842 24.4608 -6.0352
v  0.9842 25.3792 -11.0350
v  0.9842 25.3792 -10.8779
v  0.9842 24.4608 -10.8765
v  0.9842 24.4608 -11.0364
v  -0.9843 25.3792 -10.8779
v  -0.9843 25.3792 -11.0350
v  -0.9843 24.4608 -11.0364
v  -0.9843 24.4608 -10.8765
v  -0.9843 25.3792 -6.0352
v  -0.9843 24.4608 -6.0352
v  -0.9843 25.3792 -15.8777
v  -0.6988 25.3792 -15.8777
v  -0.6988 24.4608 -15.8777
v  -0.9843 24.4608 -15.8777
v  0.9842 25.3792 -15.8777
v  0.9842 25.3792 -13.5706
v  0.9842 24.4608 -13.5712
v  0.9842 24.4608 -15.8777
v  -0.9843 24.2156 -12.0651
v  -0.9843 24.2156 -12.4876
v  -0.9843 25.6245 -12.4839
v  -0.9843 25.6245 -12.0617
v  0.9842 24.2156 -12.5201
v  0.9842 24.2156 -12.0881
v  0.9842 25.6245 -12.0864
v  0.9842 25.6245 -12.5186
v  -0.9843 24.4608 -13.5151
v  -0.9843 25.3792 -13.5118
v  -0.6988 0.0000 -11.8405
v  -0.9843 0.0000 -11.8383
v  -0.9843 0.0000 -12.4999
v  -0.6988 0.0000 -12.5044
v  0.9843 4.5667 -11.9062
v  0.9843 0.0000 -11.8537
v  0.9843 0.0000 -12.5308
v  0.9843 4.5667 -12.7459
v  0.9842 81.3235 -11.9971
v  0.9842 77.2573 -11.8154
v  0.9842 77.2573 -12.6743
v  0.9842 45.2734 -11.8553
v  0.9842 45.2734 -12.7058
v  -0.9843 4.5667 -11.9062
v  -0.9843 4.5667 -12.7459
v  -0.9843 25.1549 -11.6406
v  -0.9843 24.6852 -11.6416
v  -0.9843 24.6852 -12.9088
v  -0.9843 25.1549 -12.9075
v  0.9842 25.1549 -12.9513
v  0.9842 24.6852 -12.9518
v  0.9842 24.6852 -11.6554
v  0.9842 25.1549 -11.6548
v  -0.9843 81.3235 -12.8176
v  -0.9843 77.2573 -12.7460
v  -0.9843 77.2573 -11.8513
v  -0.9843 81.3235 -11.9971
v  -0.9843 45.2734 -12.6292
v  -0.9843 45.2734 -11.8171
v  -0.9843 23.5424 -11.8647
v  -0.9843 23.5424 -12.6915
v  -0.9843 26.2976 -12.6836
v  -0.9843 26.2976 -11.8586
v  0.9842 23.5424 -12.7272
v  0.9842 23.5424 -11.8825
v  0.9842 26.2976 -11.8791
v  0.9842 26.2976 -12.7245
v  -0.9843 24.3987 -11.8106
v  -0.9843 24.3987 -12.7486
v  -0.9843 25.4414 -12.7457
v  -0.9843 25.4414 -11.8084
v  0.9842 24.3987 -12.7798
v  0.9842 24.3987 -11.8205
v  0.9842 25.4414 -11.8192
v  0.9842 25.4414 -12.7788
v  -0.9843 0.0000 -20.2763
v  -0.9843 0.0000 -23.5571
v  0.9843 0.0000 -23.5571
v  0.9843 0.0000 -20.2763
v  -0.9843 0.0000 -16.9954
v  0.9843 0.0000 -16.9954
v  0.9842 24.9267 -16.9954
v  -0.9843 24.9267 -16.9954
v  0.9842 26.7387 -26.1343
v  0.9842 24.9267 -20.2763
v  0.9843 0.0000 -26.8379
v  -0.9843 0.0000 -26.8379
v  -0.9843 24.9267 -26.8379
v  0.9842 24.9267 -26.8379
v  -0.9843 24.9267 -20.2763
v  -0.9843 26.7387 -26.1343
v  0.9842 75.8720 -23.5571
v  0.9842 75.8720 -26.8379
v  -0.9843 75.8720 -26.8379
v  -0.9843 75.8720 -23.5571
v  -0.9843 75.8720 -20.2763
v  -0.9843 75.8720 -16.9954
v  0.9842 75.8720 -16.9954
v  0.9842 75.8720 -20.2763
v  0.9842 59.1801 -16.9954
v  0.9842 59.1801 -20.2763
v  -0.9843 59.1801 -26.8379
v  -0.9843 59.1801 -23.5571
v  -0.9843 59.1801 -16.9954
v  0.9842 59.1801 -23.5571
v  0.9842 59.1801 -26.8379
v  -0.9843 59.1801 -20.2763
v  0.9842 30.7737 -16.9954
v  0.9842 30.7737 -20.2763
v  -0.9843 30.7737 -26.8379
v  -0.9843 30.7737 -23.5571
v  -0.9843 30.7737 -16.9954
v  0.9842 30.7737 -23.5571
v  0.9842 30.7737 -26.8379
v  -0.9843 30.7737 -20.2763
v  0.9843 3.3270 -34.7020
v  0.9843 3.3270 -33.6933
v  -0.9843 3.3270 -33.6933
v  -0.9843 3.3270 -34.7020
v  -0.9843 78.7402 -37.5957
v  0.9843 78.7402 -37.5957
v  0.9843 61.3951 -37.5957
v  -0.9843 61.3951 -37.5957
v  0.9843 78.7402 -27.7532
v  -0.9843 78.7402 -27.7532
v  -0.9843 61.3951 -27.7532
v  0.9843 61.3951 -27.7532
v  -0.9843 78.7402 -33.6932
v  0.9843 78.7402 -33.6932
v  0.9843 78.7402 -34.7019
v  -0.9843 78.7402 -34.7019
v  0.9843 3.3270 -27.7532
v  -0.9843 3.3270 -27.7532
v  0.9843 61.3951 -34.1976
v  0.9843 7.1489 -37.5957
v  -0.9843 61.3951 -34.1976
v  -0.9843 7.1134 -37.5957
v  -0.9843 0.0000 -38.3971
v  -0.9843 0.0000 -48.2396
v  0.9843 0.0000 -48.2396
v  0.9843 0.0000 -38.3971
v  -0.9843 78.7402 -38.3971
v  0.9842 78.7402 -38.3971
v  0.9842 78.7402 -48.2396
v  -0.9843 78.7402 -48.2396
v  2.1450 16.3850 49.8140
v  2.1450 16.3850 -49.5702
v  2.1450 20.1370 -49.5702
v  2.1450 20.1370 49.8140
v  0.6196 16.3850 49.8140
v  0.6196 20.1370 49.8140
v  0.6196 20.1370 -49.5702
v  0.6196 16.3850 -49.5702
v  -0.6988 81.3235 -12.6101
v  -0.6988 81.3235 -12.3605
v  -0.6988 81.3235 -12.0322
v  -0.6988 6.1200 44.8055
v  -0.6988 6.1200 44.5435
v  -0.6988 6.1200 44.2790
# 750 vertices

vn 0.5774 -0.5774 0.5774
vn 0.5774 -0.5774 -0.5774
vn 0.5774 0.5774 -0.5774
vn 0.5774 0.5774 0.5774
vn -0.5774 -0.5774 0.5774
vn -0.5774 0.5774 0.5774
vn -0.5774 0.5774 -0.5774
vn -0.5774 -0.5774 -0.5774
vn -0.7071 0.7071 -0.0000
vn -0.0000 1.0000 -0.0000
vn -0.0000 0.7071 -0.7071
vn -0.0000 -0.0000 -1.0000
vn -0.7071 -0.0000 -0.7071
vn 0.7071 0.7071 -0.0000
vn 1.0000 -0.0000 -0.0000
vn 1.0000 -0.0000 0.0000
vn -1.0000 0.0000 -0.0000
vn 0.7071 -0.0000 -0.7071
vn 0.0000 -0.7071 -0.7071
vn 0.0000 -0.0000 -1.0000
vn -0.7071 0.0000 0.7071
vn 0.0000 -0.7071 0.7071
vn -0.0000 0.0000 1.0000
vn -0.5804 -0.5921 0.5590
vn 0.0000 -0.7271 0.6865
vn 0.9996 -0.0292 -0.0000
vn 0.5804 -0.5921 0.5590
vn 0.7071 -0.7071 -0.0000
vn 1.0000 0.0000 -0.0000
vn -0.9996 -0.0292 0.0000
vn 0.0000 -1.0000 -0.0000
vn 0.5804 -0.5921 -0.5590
vn 0.0000 -0.7271 -0.6865
vn -0.6518 0.2235 0.7248
vn 0.0000 0.0000 1.0000
vn -0.0216 0.3076 0.9513
vn 0.6346 0.2506 0.7311
vn 0.6108 0.7026 0.3650
vn -0.0194 0.8903 0.4549
vn 0.7071 0.0000 -0.7071
vn 0.0000 0.0000 -1.0000
vn -1.0000 -0.0000 -0.0000
vn -0.7071 -0.0000 0.7071
vn -0.6246 0.6990 0.3481
vn 0.7071 0.0000 0.7071
vn -1.0000 0.0000 0.0000
vn -0.5804 -0.5921 -0.5590
vn -0.7071 -0.7071 -0.0000
vn 1.0000 0.0000 0.0000
vn -1.0000 -0.0000 0.0000
vn -0.7804 -0.5974 0.1845
vn -0.7766 -0.6039 -0.1796
vn -0.7763 0.6043 -0.1792
vn -0.7808 0.5968 0.1851
vn 0.7796 -0.5991 -0.1825
vn 0.7755 -0.6060 0.1770
vn 0.7755 0.6060 0.1771
vn 0.7796 0.5991 -0.1824
vn -0.7768 0.1722 0.6057
vn -0.7766 -0.1747 0.6053
vn -0.7660 -0.1699 -0.6200
vn -0.7657 0.1733 -0.6194
vn 0.7821 0.1747 -0.5981
vn 0.7821 -0.1736 -0.5985
vn 0.7714 -0.1733 0.6123
vn 0.7715 0.1719 0.6126
vn -0.7577 -0.4531 0.4697
vn -0.7576 -0.4511 -0.4717
vn -0.7570 0.4530 -0.4708
vn -0.7580 0.4516 0.4707
vn 0.7602 -0.4546 -0.4641
vn 0.7597 -0.4548 0.4647
vn 0.7598 0.4542 0.4652
vn 0.7604 0.4550 -0.4635
vn 0.7382 0.2824 0.6126
vn 0.7798 0.0000 0.6260
vn -0.7798 -0.0000 0.6261
vn -0.7382 0.2824 0.6126
vn 0.6494 -0.2119 0.7303
vn -0.6494 -0.2119 0.7303
vn 0.7383 -0.2824 0.6126
vn -0.7382 -0.2824 0.6126
vn -0.6494 0.2119 0.7303
vn 0.6494 0.2119 0.7303
vn 0.9999 0.0166 -0.0000
vn -0.9999 0.0166 -0.0000
vn 0.5791 0.5859 0.5669
vn -0.5791 0.5859 0.5669
vn -0.5791 0.5859 -0.5669
vn 0.5791 0.5859 -0.5669
vn 0.6158 0.6974 0.3666
vn -0.6162 0.6979 0.3650
vn -0.5788 -0.5842 0.5690
vn 0.5788 -0.5842 0.5690
vn 0.5788 -0.5842 -0.5690
vn -0.5788 -0.5842 -0.5690
vn 0.9999 -0.0133 -0.0000
vn 0.6481 0.2236 0.7280
vn -0.9999 -0.0133 -0.0000
vn -0.6435 0.2313 0.7297
vn 0.7579 0.5353 -0.3729
vn 0.8049 0.5934 0.0000
vn -0.8049 0.5934 -0.0000
vn -0.7579 0.5352 -0.3729
vn 0.6273 0.7140 0.3110
vn -0.6273 0.7140 0.3110
vn 0.7580 0.5352 0.3729
vn -0.7579 0.5353 0.3729
vn -0.6273 0.7140 -0.3110
vn 0.6273 0.7140 -0.3110
vn 0.7543 0.1295 -0.6436
vn 0.7543 -0.1295 -0.6436
vn 0.7543 -0.1295 0.6436
vn 0.7543 0.1295 0.6436
vn -0.7543 -0.1295 -0.6436
vn -0.7543 0.1295 -0.6436
vn -0.7543 0.1295 0.6436
vn -0.7543 -0.1295 0.6436
vn 0.8071 0.5429 -0.2320
vn 0.8071 0.5429 0.2320
vn 0.8071 -0.5429 0.2320
vn 0.8071 -0.5429 -0.2320
vn -0.8071 -0.5429 -0.2320
vn -0.8071 -0.5429 0.2320
vn -0.8071 0.5429 0.2320
vn -0.8071 0.5429 -0.2320
vn 0.7505 0.3622 -0.5529
vn 0.7505 -0.3622 -0.5529
vn 0.7505 -0.3622 0.5529
vn 0.7505 0.3622 0.5529
vn -0.7505 -0.3622 -0.5529
vn -0.7505 0.3622 -0.5529
vn -0.7505 0.3622 0.5529
vn -0.7505 -0.3622 0.5529
vn -0.0000 0.7071 0.7071
vn -0.5801 0.5906 -0.5610
vn -0.0000 0.7250 -0.6887
vn 0.9997 0.0261 -0.0000
vn 0.5801 0.5906 -0.5610
vn -0.9997 0.0261 -0.0000
vn 0.5801 0.5906 0.5610
vn -0.0000 0.7250 0.6887
vn -0.6566 -0.2029 -0.7264
vn -0.0222 -0.2824 -0.9590
vn 0.6391 -0.2304 -0.7338
vn 0.6064 -0.6955 -0.3854
vn -0.0204 -0.8780 -0.4782
vn -0.6210 -0.6923 -0.3675
vn -0.5801 0.5906 0.5610
vn -0.7874 0.5839 -0.1977
vn -0.7833 0.5909 0.1928
vn -0.7831 -0.5914 0.1924
vn -0.7878 -0.5832 -0.1983
vn 0.7866 0.5856 0.1957
vn 0.7823 0.5932 -0.1903
vn 0.7823 -0.5932 -0.1903
vn 0.7866 -0.5857 0.1956
vn -0.7705 -0.1592 -0.6172
vn -0.7703 0.1615 -0.6168
vn -0.7597 0.1567 0.6311
vn -0.7594 -0.1598 0.6307
vn 0.7759 -0.1617 0.6098
vn 0.7758 0.1607 0.6101
vn 0.7652 0.1600 -0.6236
vn 0.7652 -0.1587 -0.6240
vn -0.7573 0.4286 -0.4928
vn -0.7568 0.4272 0.4947
vn -0.7563 -0.4291 0.4939
vn -0.7575 -0.4271 -0.4937
vn 0.7600 0.4302 0.4871
vn 0.7592 0.4310 -0.4877
vn 0.7592 -0.4304 -0.4882
vn 0.7602 -0.4306 0.4865
vn 0.7694 0.0603 -0.6359
vn -0.6696 0.1304 -0.7312
vn 0.6696 0.1304 -0.7312
vn -0.7694 0.0603 -0.6359
vn -0.5877 0.6224 -0.5170
vn 0.5877 0.6224 -0.5170
vn -0.9989 0.0472 0.0044
vn 0.9989 0.0472 0.0044
vn -0.6891 -0.0594 -0.7222
vn 0.6891 -0.0594 -0.7222
vn 0.6174 -0.7000 -0.3590
vn -0.6177 -0.7005 -0.3573
vn -0.7071 0.0000 -0.7071
vn 0.7071 -0.0000 0.7071
vn -0.5788 0.5845 -0.5686
vn 0.5788 0.5845 -0.5686
vn 0.5789 0.5846 0.5685
vn -0.5788 0.5845 0.5687
vn 0.9999 0.0139 0.0001
vn 0.6462 -0.2315 -0.7272
vn -0.9999 0.0139 -0.0001
vn -0.6417 -0.2392 -0.7287
vn 0.0000 1.0000 0.0000
vn 0.0000 -1.0000 0.0000
vn -0.0000 -1.0000 0.0000
# 198 vertex normals

vt 0.1143 0.5896 -0.3894
vt 0.1143 0.9741 -0.3894
vt 0.0990 0.9741 0.3894
vt 0.0990 0.5896 0.3894
vt 0.0775 0.5896 0.3894
vt 0.0928 0.5896 0.3894
vt 0.0928 0.9741 0.3894
vt 0.0775 0.9741 0.3894
vt 0.0990 0.5833 0.3894
vt 0.1143 0.5833 0.3894
vt 0.1143 0.9803 0.3894
vt 0.0990 0.9803 0.3894
vt 0.1205 0.5896 0.3894
vt 0.1205 0.9741 0.3894
vt 0.1773 0.9586 -0.3802
vt 0.1796 0.9586 -0.3802
vt 0.1796 0.9602 -0.3802
vt 0.1773 0.9602 -0.3802
vt 0.2031 0.9067 -0.3802
vt 0.2033 0.9050 -0.3802
vt 0.2254 0.9051 -0.3802
vt 0.2252 0.9067 -0.3802
vt 0.2037 0.8716 -0.3802
vt 0.2039 0.8693 -0.3802
vt 0.2260 0.8699 -0.3802
vt 0.2258 0.8711 -0.3802
vt 0.2027 0.9333 -0.3802
vt 0.2029 0.9310 -0.3802
vt 0.2250 0.9316 -0.3802
vt 0.2248 0.9327 -0.3802
vt 0.5777 0.8972 -0.3802
vt 0.5974 0.8973 -0.3802
vt 0.5972 0.9066 -0.3802
vt 0.5775 0.9063 -0.3802
vt 0.5757 0.9588 -0.3802
vt 0.5953 0.9596 0.3802
vt 0.5952 0.9613 -0.3802
vt 0.5755 0.9603 -0.3802
vt 0.1855 0.9600 -0.3802
vt 0.1843 0.9601 -0.3802
vt 0.1842 0.9586 -0.3802
vt 0.1854 0.9585 -0.3802
vt 0.1773 0.9693 -0.3802
vt 0.1531 0.9693 -0.3802
vt 0.1531 0.9602 -0.3802
vt 0.6578 0.9649 -0.3802
vt 0.6820 0.9662 -0.3802
vt 0.6819 0.9678 -0.3802
vt 0.6577 0.9664 -0.3802
vt 0.2264 0.8625 -0.3802
vt 0.2263 0.8640 -0.3802
vt 0.2042 0.8645 -0.3802
vt 0.2043 0.8633 -0.3802
vt 0.5779 0.8718 -0.3802
vt 0.4228 0.8971 -0.3802
vt 0.4229 0.8720 -0.3802
vt 0.5975 0.8730 -0.3802
vt 0.5982 0.8654 -0.3802
vt 0.5981 0.8669 -0.3802
vt 0.5784 0.8659 -0.3802
vt 0.5785 0.8644 -0.3802
vt 0.5770 0.9333 -0.3802
vt 0.5774 0.9079 -0.3802
vt 0.5971 0.9082 -0.3802
vt 0.5967 0.9324 -0.3802
vt 0.6382 0.9637 -0.3802
vt 0.6381 0.9653 -0.3802
vt 0.6375 0.9744 -0.3802
vt 0.6178 0.9731 -0.3802
vt 0.6184 0.9640 -0.3802
vt 0.2079 0.9581 0.3802
vt 0.2236 0.9580 -0.3802
vt 0.2235 0.9595 -0.3802
vt 0.2077 0.9597 -0.3802
vt 0.2072 0.9689 -0.3802
vt 0.2000 0.9690 -0.3802
vt 0.1997 0.9599 -0.3802
vt 0.3236 0.8964 -0.3802
vt 0.3251 0.8966 -0.3802
vt 0.3246 0.9057 -0.3802
vt 0.3231 0.9056 -0.3802
vt 0.3237 0.8706 -0.3802
vt 0.3252 0.8708 -0.3802
vt 0.3251 0.8716 -0.3802
vt 0.3236 0.8714 -0.3802
vt 0.3229 0.9321 -0.3802
vt 0.3244 0.9323 -0.3802
vt 0.3243 0.9331 -0.3802
vt 0.3228 0.9330 -0.3802
vt 0.4234 0.8657 -0.3802
vt 0.4236 0.8642 -0.3802
vt 0.2256 0.8959 -0.3802
vt 0.2035 0.8958 -0.3802
vt 0.3230 0.9071 -0.3802
vt 0.3244 0.9073 -0.3802
vt 0.2021 0.9392 -0.3802
vt 0.2023 0.9380 -0.3802
vt 0.2244 0.9386 -0.3802
vt 0.2242 0.9402 -0.3802
vt 0.3215 0.9583 -0.3802
vt 0.3230 0.9584 -0.3802
vt 0.3229 0.9599 -0.3802
vt 0.3214 0.9598 -0.3802
vt 0.1902 0.9584 -0.3802
vt 0.1996 0.9583 -0.3802
vt 0.1902 0.9599 -0.3802
vt 0.6055 0.9717 -0.3802
vt 0.5944 0.9704 -0.3802
vt 0.6065 0.9627 -0.3802
vt 0.6103 0.9632 -0.3802
vt 0.6096 0.9723 -0.3802
vt 0.2045 0.8586 -0.3802
vt 0.2103 0.8449 -0.3802
vt 0.2267 0.8449 -0.3802
vt 0.2266 0.8567 -0.3802
vt 0.5788 0.8586 -0.3802
vt 0.5791 0.8465 -0.3802
vt 0.5990 0.8477 -0.3802
vt 0.5984 0.8593 -0.3802
vt 0.3247 0.8454 -0.3802
vt 0.3262 0.8457 -0.3802
vt 0.3262 0.8576 -0.3802
vt 0.3247 0.8573 -0.3802
vt 0.2238 0.9461 -0.3802
vt 0.2017 0.9439 -0.3802
vt 0.4226 0.9063 -0.3802
vt 0.4231 0.8715 -0.3802
vt 0.4222 0.9330 -0.3802
vt 0.4220 0.9335 -0.3802
vt 0.4224 0.9079 -0.3802
vt 0.4208 0.9587 -0.3802
vt 0.4207 0.9603 -0.3802
vt 0.3215 0.9461 -0.3802
vt 0.3230 0.9462 -0.3802
vt 0.4239 0.8464 -0.3802
vt 0.4239 0.8583 -0.3802
vt 0.1796 0.9693 -0.3802
vt 0.5753 0.9694 -0.3802
vt 0.1856 0.9692 -0.3802
vt 0.1844 0.9692 -0.3802
vt 0.1531 0.9586 -0.3802
vt 0.6814 0.9769 -0.3802
vt 0.6572 0.9755 -0.3802
vt 0.6186 0.9625 -0.3802
vt 0.2235 0.9687 -0.3802
vt 0.3227 0.9691 -0.3802
vt 0.3212 0.9690 -0.3802
vt 0.1904 0.9691 -0.3802
vt 0.6067 0.9611 -0.3802
vt 0.4206 0.9694 -0.3802
vt 0.5760 0.9473 -0.3802
vt 0.5958 0.9478 -0.3802
vt 0.5962 0.9402 -0.3802
vt 0.5961 0.9417 -0.3802
vt 0.5764 0.9411 -0.3802
vt 0.5765 0.9396 -0.3802
vt 0.4210 0.9462 -0.3802
vt 0.4214 0.9406 -0.3802
vt 0.4216 0.9392 -0.3802
vt 0.3309 0.8970 -0.3802
vt 0.3306 0.9061 -0.3802
vt 0.3173 0.9052 -0.3802
vt 0.3176 0.8960 -0.3802
vt 0.3311 0.8714 -0.3802
vt 0.3310 0.8721 -0.3802
vt 0.3177 0.8710 -0.3802
vt 0.3179 0.8700 -0.3802
vt 0.3303 0.9327 -0.3802
vt 0.3301 0.9337 -0.3802
vt 0.3168 0.9326 -0.3802
vt 0.3170 0.9318 -0.3802
vt 0.3304 0.9077 -0.3802
vt 0.3171 0.9068 -0.3802
vt 0.3289 0.9586 -0.3802
vt 0.3288 0.9602 -0.3802
vt 0.3155 0.9596 -0.3802
vt 0.3156 0.9580 -0.3802
vt 0.3320 0.8462 -0.3802
vt 0.3320 0.8582 -0.3802
vt 0.3186 0.8569 -0.3802
vt 0.3186 0.8450 -0.3802
vt 0.3164 0.9384 -0.3802
vt 0.3161 0.9399 -0.3802
vt 0.3294 0.9409 -0.3802
vt 0.3296 0.9394 -0.3802
vt 0.3184 0.8626 -0.3802
vt 0.3183 0.8641 -0.3802
vt 0.3315 0.8656 -0.3802
vt 0.3316 0.8641 -0.3802
vt 0.3157 0.9458 -0.3802
vt 0.3290 0.9465 -0.3802
vt 0.3154 0.9688 -0.3802
vt 0.3287 0.9693 -0.3802
vt 0.3265 0.8968 -0.3802
vt 0.3261 0.9059 -0.3802
vt 0.3217 0.9054 -0.3802
vt 0.3221 0.8962 -0.3802
vt 0.3267 0.8710 -0.3802
vt 0.3266 0.8718 -0.3802
vt 0.3222 0.8712 -0.3802
vt 0.3223 0.8704 -0.3802
vt 0.3259 0.9325 -0.3802
vt 0.3258 0.9333 -0.3802
vt 0.3213 0.9329 -0.3802
vt 0.3215 0.9320 -0.3802
vt 0.3259 0.9075 -0.3802
vt 0.3215 0.9070 -0.3802
vt 0.3245 0.9585 -0.3802
vt 0.3244 0.9600 -0.3802
vt 0.3200 0.9597 -0.3802
vt 0.3201 0.9582 -0.3802
vt 0.3276 0.8459 -0.3802
vt 0.3276 0.8578 -0.3802
vt 0.3232 0.8571 -0.3802
vt 0.3232 0.8452 -0.3802
vt 0.3196 0.9383 -0.3802
vt 0.3194 0.9406 -0.3802
vt 0.3262 0.9410 -0.3802
vt 0.3264 0.9387 -0.3802
vt 0.3216 0.8624 -0.3802
vt 0.3215 0.8647 -0.3802
vt 0.3282 0.8657 -0.3802
vt 0.3284 0.8634 -0.3802
vt 0.3201 0.9460 -0.3802
vt 0.3245 0.9463 -0.3802
vt 0.3198 0.9689 -0.3802
vt 0.3242 0.9692 -0.3802
vt 0.1831 0.9601 -0.3802
vt 0.1830 0.9586 -0.3802
vt 0.1867 0.9584 -0.3802
vt 0.1867 0.9600 -0.3802
vt 0.2262 0.8655 -0.3802
vt 0.2040 0.8657 -0.3802
vt 0.2044 0.8621 -0.3802
vt 0.2265 0.8610 -0.3802
vt 0.5980 0.8684 -0.3802
vt 0.5976 0.8726 -0.3802
vt 0.5782 0.8674 -0.3802
vt 0.5786 0.8630 -0.3802
vt 0.5983 0.8638 -0.3802
vt 0.4233 0.8672 -0.3802
vt 0.4237 0.8628 -0.3802
vt 0.2025 0.9368 -0.3802
vt 0.2246 0.9371 -0.3802
vt 0.2240 0.9417 -0.3802
vt 0.2019 0.9404 -0.3802
vt 0.3244 0.9363 -0.3802
vt 0.3222 0.9361 -0.3802
vt 0.3214 0.9430 -0.3802
vt 0.3236 0.9431 -0.3802
vt 0.3262 0.8608 -0.3802
vt 0.3240 0.8604 -0.3802
vt 0.3237 0.8673 -0.3802
vt 0.3259 0.8677 -0.3802
vt 0.1831 0.9693 -0.3802
vt 0.1868 0.9691 -0.3802
vt 0.5959 0.9433 -0.3802
vt 0.5762 0.9427 -0.3802
vt 0.5767 0.9380 -0.3802
vt 0.5965 0.9345 -0.3802
vt 0.5964 0.9387 -0.3802
vt 0.4212 0.9420 -0.3802
vt 0.4218 0.9378 -0.3802
vt 0.3166 0.9369 -0.3802
vt 0.3159 0.9414 -0.3802
vt 0.3293 0.9423 -0.3802
vt 0.3298 0.9380 -0.3802
vt 0.3185 0.8612 -0.3802
vt 0.3181 0.8656 -0.3802
vt 0.3314 0.8670 -0.3802
vt 0.3318 0.8626 -0.3802
vt 0.3207 0.9369 -0.3802
vt 0.3201 0.9420 -0.3802
vt 0.3251 0.9423 -0.3802
vt 0.3257 0.9373 -0.3802
vt 0.3226 0.8611 -0.3802
vt 0.3223 0.8663 -0.3802
vt 0.3273 0.8670 -0.3802
vt 0.3276 0.8619 -0.3802
vt 0.0578 0.1784 49.0977
vt 0.0557 0.1784 0.0000
vt 0.0558 0.1677 0.0000
vt 0.0580 0.1677 -49.0977
vt 0.0776 0.1786 0.0000
vt 0.0760 0.1786 0.0000
vt 0.0760 0.1679 0.0000
vt 0.0777 0.1679 0.0000
vt 0.0743 0.1786 0.0000
vt 0.0744 0.1679 0.0000
vt 0.0720 0.1786 0.0000
vt 0.0722 0.1679 0.0000
vt 0.0704 0.1786 0.0000
vt 0.0706 0.1679 0.0000
vt 0.0688 0.1785 0.0000
vt 0.0689 0.1678 0.0000
vt 0.0666 0.1785 0.0000
vt 0.0667 0.1678 0.0000
vt 0.0650 0.1784 0.0000
vt 0.0651 0.1677 0.0000
vt 0.0634 0.1784 0.0000
vt 0.0635 0.1677 0.0000
vt 0.0611 0.1784 0.0000
vt 0.0612 0.1677 0.0000
vt 0.0595 0.1784 0.0000
vt 0.0596 0.1677 0.0000
vt 0.2045 0.8491 -0.3802
vt 0.2015 0.9532 -0.3802
vt 0.0262 0.2052 -0.4115
vt 0.0234 0.2051 -0.4115
vt 0.0236 0.1944 -0.4115
vt 0.0266 0.1946 -0.4115
vt 0.4385 0.1980 -0.4115
vt 0.4416 0.1984 -0.4115
vt 0.4417 0.2095 -0.4115
vt 0.4380 0.2088 -0.4115
vt 0.4417 0.2755 -0.4115
vt 0.4417 0.2782 -0.4115
vt 0.4381 0.2787 -0.4115
vt 0.4381 0.2760 -0.4115
vt 0.4381 0.2576 -0.4115
vt 0.4417 0.2576 -0.4115
vt 0.4417 0.2683 -0.4115
vt 0.4381 0.2683 -0.4115
vt 0.4417 0.2474 -0.4115
vt 0.4417 0.2503 -0.4115
vt 0.4381 0.2499 -0.4115
vt 0.4380 0.2470 -0.4115
vt 0.4488 0.1972 -0.4115
vt 0.4927 0.1964 -0.4115
vt 0.4932 0.2071 0.4115
vt 0.4491 0.2075 -0.4115
vt 0.4448 0.1980 -0.4115
vt 0.4453 0.2088 -0.4115
vt 0.4342 0.2075 -0.4115
vt 0.0653 0.2072 0.4115
vt 0.0655 0.1965 -0.4115
vt 0.4345 0.1972 -0.4115
vt 0.4488 0.2785 -0.4115
vt 0.4452 0.2787 -0.4115
vt 0.4452 0.2760 -0.4115
vt 0.0656 0.2799 -0.4115
vt 0.0656 0.2770 -0.4115
vt 0.4346 0.2770 -0.4115
vt 0.4346 0.2799 -0.4115
vt 0.4488 0.2576 -0.4115
vt 0.4929 0.2577 -0.4115
vt 0.4929 0.2683 -0.4115
vt 0.4488 0.2683 -0.4115
vt 0.4453 0.2576 -0.4115
vt 0.4452 0.2683 -0.4115
vt 0.4346 0.2683 -0.4115
vt 0.0656 0.2683 -0.4115
vt 0.0656 0.2577 -0.4115
vt 0.4346 0.2576 -0.4115
vt 0.4489 0.2475 -0.4115
vt 0.4452 0.2499 -0.4115
vt 0.4453 0.2470 -0.4115
vt 0.0655 0.2490 -0.4115
vt 0.0654 0.2462 -0.4115
vt 0.4344 0.2461 -0.4115
vt 0.4345 0.2490 -0.4115
vt 0.0148 0.2051 -0.4115
vt 0.0148 0.1944 -0.4115
vt 0.6184 0.1810 -0.4115
vt 0.6271 0.1797 -0.4115
vt 0.6286 0.1902 -0.4115
vt 0.6200 0.1915 -0.4115
vt 0.5324 0.2038 -0.4115
vt 0.5313 0.1932 -0.4115
vt 0.4417 0.3157 -0.4115
vt 0.4381 0.3167 -0.4115
vt 0.4928 0.2799 -0.4115
vt 0.4928 0.3190 -0.4115
vt 0.4487 0.3190 -0.4115
vt 0.4929 0.2770 -0.4115
vt 0.4452 0.3167 -0.4115
vt 0.4346 0.3190 -0.4115
vt 0.0656 0.3190 -0.4115
vt 0.4929 0.2489 -0.4115
vt 0.4931 0.2463 -0.4115
vt 0.5763 0.1981 -0.4115
vt 0.5749 0.1875 -0.4115
vt 0.0684 0.3928 0.4159
vt 0.0177 0.3928 -0.4159
vt 0.0177 0.3821 -0.4159
vt 0.0684 0.3821 -0.4159
vt 0.4916 0.3928 0.4159
vt 0.4916 0.3821 -0.4159
vt 0.5423 0.3821 -0.4159
vt 0.5423 0.3928 -0.4159
vt 0.0684 0.5048 -0.4159
vt 0.0684 0.4541 -0.4159
vt 0.4916 0.4541 -0.4159
vt 0.4916 0.5048 -0.4159
vt 0.0684 0.4434 -0.4159
vt 0.4916 0.4434 -0.4159
vt 0.9462 0.1692 -0.4198
vt 0.9514 0.1692 -0.4198
vt 0.9514 0.1585 -0.4198
vt 0.9463 0.1585 -0.4198
vt 0.5144 0.1584 0.4198
vt 0.5144 0.1691 -0.4198
vt 0.6127 0.1691 -0.4198
vt 0.6127 0.1584 -0.4198
vt 0.5144 0.0970 -0.4198
vt 0.5144 0.1077 -0.4198
vt 0.6126 0.1077 -0.4198
vt 0.6126 0.0970 -0.4198
vt 0.3029 0.1584 -0.4198
vt 0.2723 0.1584 -0.4198
vt 0.2723 0.1691 -0.4198
vt 0.3029 0.1691 -0.4198
vt 0.4995 0.1691 -0.4198
vt 0.4995 0.1584 -0.4198
vt 0.9820 0.1692 -0.4198
vt 0.9820 0.1585 -0.4198
vt 0.5144 0.0665 -0.4198
vt 0.6126 0.0639 -0.4198
vt 0.9416 0.0613 -0.4198
vt 0.9199 0.0464 -0.4198
vt 0.5144 0.1435 -0.4198
vt 0.6127 0.1409 -0.4198
vt 0.9416 0.1383 -0.4198
vt 0.9416 0.1077 -0.4198
vt 0.9200 0.1691 -0.4198
vt 0.9201 0.1584 0.4198
vt 0.9416 0.0665 -0.4198
vt 0.9416 0.0970 -0.4198
vt 0.9416 0.1435 -0.4198
vt 0.6126 0.0464 -0.4198
vt 0.5144 0.0464 -0.4198
vt 0.5144 0.0613 -0.4198
vt 0.5144 0.1383 -0.4198
vt 0.4012 0.1584 -0.4198
vt 0.4012 0.1691 -0.4198
vt 0.6553 0.6719 -0.4195
vt 0.6585 0.6719 -0.4195
vt 0.6585 0.6826 -0.4195
vt 0.6553 0.6826 -0.4195
vt 0.1522 0.6826 -0.4195
vt 0.1488 0.6826 -0.4195
vt 0.1488 0.6719 -0.4195
vt 0.1522 0.6719 -0.4195
vt 0.4099 0.6824 -0.4195
vt 0.3991 0.6824 -0.4195
vt 0.3991 0.6717 -0.4195
vt 0.4099 0.6717 -0.4195
vt 0.4123 0.5999 -0.4195
vt 0.4016 0.5999 -0.4195
vt 0.4009 0.5967 -0.4195
vt 0.4116 0.5967 -0.4195
vt 0.4100 0.6208 -0.4195
vt 0.3992 0.6208 -0.4195
vt 0.3992 0.6101 -0.4195
vt 0.4100 0.6101 -0.4195
vt 0.4122 0.6311 -0.4195
vt 0.4016 0.6311 -0.4195
vt 0.4009 0.6279 -0.4195
vt 0.4116 0.6279 -0.4195
vt 0.6648 0.6720 -0.4195
vt 0.6687 0.6720 -0.4195
vt 0.6687 0.6826 -0.4195
vt 0.6648 0.6826 -0.4195
vt 0.6617 0.6719 -0.4195
vt 0.6617 0.6826 -0.4195
vt 0.6385 0.6825 -0.4195
vt 0.6317 0.6825 -0.4195
vt 0.6317 0.6718 -0.4195
vt 0.6385 0.6719 -0.4195
vt 0.6522 0.6826 -0.4195
vt 0.6522 0.6719 -0.4195
vt 0.1407 0.6826 -0.4195
vt 0.1368 0.6826 -0.4195
vt 0.1368 0.6720 -0.4195
vt 0.1407 0.6720 -0.4195
vt 0.1453 0.6826 -0.4195
vt 0.1453 0.6720 -0.4195
vt 0.1705 0.6719 -0.4195
vt 0.1773 0.6718 -0.4195
vt 0.1773 0.6825 -0.4195
vt 0.1705 0.6825 -0.4195
vt 0.1568 0.6719 -0.4195
vt 0.1568 0.6826 -0.4195
vt 0.3992 0.6063 -0.4195
vt 0.4100 0.6063 -0.4195
vt 0.4009 0.6031 -0.4195
vt 0.4116 0.6031 -0.4195
vt 0.3992 0.5936 -0.4195
vt 0.4099 0.5936 -0.4195
vt 0.4099 0.6374 -0.4195
vt 0.3991 0.6374 -0.4195
vt 0.4009 0.6342 -0.4195
vt 0.4116 0.6342 -0.4195
vt 0.4100 0.6247 -0.4195
vt 0.3992 0.6247 -0.4195
vt 0.6249 0.6825 -0.4195
vt 0.6181 0.6825 -0.4195
vt 0.6181 0.6718 0.4195
vt 0.6249 0.6718 -0.4195
vt 0.6454 0.6719 -0.4195
vt 0.6454 0.6826 -0.4195
vt 0.1841 0.6718 -0.4195
vt 0.1909 0.6718 0.4195
vt 0.1909 0.6825 -0.4195
vt 0.1841 0.6825 -0.4195
vt 0.1636 0.6826 -0.4195
vt 0.1636 0.6719 -0.4195
vt 0.3991 0.5594 -0.4195
vt 0.4099 0.5594 -0.4195
vt 0.4099 0.5662 -0.4195
vt 0.3991 0.5662 -0.4195
vt 0.3992 0.5867 -0.4195
vt 0.4099 0.5867 -0.4195
vt 0.3991 0.6649 -0.4195
vt 0.4099 0.6649 -0.4195
vt 0.4099 0.6443 -0.4195
vt 0.3991 0.6443 -0.4195
vt 0.3883 0.6824 -0.4195
vt 0.3883 0.6717 -0.4195
vt 0.4207 0.6717 -0.4195
vt 0.4207 0.6824 -0.4195
vt 0.3909 0.5999 -0.4195
vt 0.1957 0.5999 -0.4195
vt 0.1943 0.5967 -0.4195
vt 0.3902 0.5967 -0.4195
vt 0.4223 0.5967 -0.4195
vt 0.6182 0.5967 -0.4195
vt 0.6182 0.5999 -0.4195
vt 0.4229 0.5999 -0.4195
vt 0.3884 0.6208 -0.4195
vt 0.1910 0.6208 -0.4195
vt 0.1910 0.6101 -0.4195
vt 0.3884 0.6101 -0.4195
vt 0.4207 0.6101 -0.4195
vt 0.6182 0.6101 -0.4195
vt 0.6182 0.6208 -0.4195
vt 0.4207 0.6208 -0.4195
vt 0.3909 0.6311 -0.4195
vt 0.1957 0.6311 -0.4195
vt 0.1943 0.6279 -0.4195
vt 0.3902 0.6279 -0.4195
vt 0.4223 0.6279 -0.4195
vt 0.6182 0.6279 -0.4195
vt 0.6182 0.6311 -0.4195
vt 0.4229 0.6311 -0.4195
vt 0.1910 0.6063 -0.4195
vt 0.3884 0.6063 -0.4195
vt 0.4207 0.6063 -0.4195
vt 0.6182 0.6063 -0.4195
vt 0.1944 0.6031 -0.4195
vt 0.3902 0.6031 -0.4195
vt 0.4223 0.6031 -0.4195
vt 0.6182 0.6031 -0.4195
vt 0.4207 0.5730 -0.4195
vt 0.6181 0.5730 -0.4195
vt 0.6181 0.5799 -0.4195
vt 0.4207 0.5799 -0.4195
vt 0.3883 0.5799 -0.4195
vt 0.1909 0.5799 -0.4195
vt 0.1909 0.5730 -0.4195
vt 0.3883 0.5730 -0.4195
vt 0.4207 0.5936 -0.4195
vt 0.6182 0.5936 -0.4195
vt 0.1909 0.5936 -0.4195
vt 0.3884 0.5936 -0.4195
vt 0.3883 0.6580 -0.4195
vt 0.1909 0.6580 -0.4195
vt 0.1909 0.6512 -0.4195
vt 0.3883 0.6512 -0.4195
vt 0.4207 0.6512 -0.4195
vt 0.6181 0.6512 -0.4195
vt 0.6181 0.6580 -0.4195
vt 0.4207 0.6580 -0.4195
vt 0.3884 0.6374 -0.4195
vt 0.1909 0.6374 -0.4195
vt 0.1943 0.6342 -0.4195
vt 0.3902 0.6342 -0.4195
vt 0.4223 0.6342 -0.4195
vt 0.6181 0.6342 -0.4195
vt 0.6181 0.6374 -0.4195
vt 0.4207 0.6374 -0.4195
vt 0.6182 0.6247 -0.4195
vt 0.4207 0.6247 -0.4195
vt 0.3884 0.6247 -0.4195
vt 0.1909 0.6247 -0.4195
vt 0.4207 0.5594 -0.4195
vt 0.6181 0.5594 -0.4195
vt 0.6181 0.5662 -0.4195
vt 0.4164 0.5689 -0.4195
vt 0.3926 0.5689 -0.4195
vt 0.1909 0.5662 -0.4195
vt 0.1909 0.5594 -0.4195
vt 0.3883 0.5594 -0.4195
vt 0.1909 0.5867 -0.4195
vt 0.3927 0.5840 -0.4195
vt 0.4164 0.5840 -0.4195
vt 0.6182 0.5867 -0.4195
vt 0.1909 0.6649 -0.4195
vt 0.3926 0.6622 -0.4195
vt 0.4164 0.6622 -0.4195
vt 0.6181 0.6649 -0.4195
vt 0.6181 0.6443 -0.4195
vt 0.4164 0.6470 -0.4195
vt 0.3926 0.6470 -0.4195
vt 0.1909 0.6443 -0.4195
vt 0.6878 0.8999 -0.0000
vt 0.6944 0.8980 -0.9930
vt 0.6973 0.9083 -0.0000
vt 0.6908 0.9102 -0.0000
vt 0.7001 0.8964 -0.0000
vt 0.7031 0.9066 -0.0000
vt 0.7068 0.8944 -0.0000
vt 0.7098 0.9047 -0.0000
vt 0.7172 0.8914 -0.0000
vt 0.7202 0.9017 -0.0000
vt 0.7240 0.8894 -0.0000
vt 0.7269 0.8997 -0.0000
vt 0.7297 0.8878 -0.0000
vt 0.7326 0.8980 0.9930
vt 0.7362 0.8859 -0.0000
vt 0.7392 0.8961 -0.0000
vt 0.6525 0.9102 -0.0000
vt 0.6582 0.9085 -0.0000
vt 0.6612 0.9188 -0.0000
vt 0.6555 0.9204 -0.0000
vt 0.6650 0.9066 -0.0000
vt 0.6680 0.9168 -0.0000
vt 0.6753 0.9036 -0.0000
vt 0.6783 0.9138 -0.0000
vt 0.6821 0.9016 -0.0000
vt 0.6851 0.9118 -0.0000
vt 0.0351 0.0324 -0.4250
vt 0.0328 0.0323 -0.4250
vt 0.0329 0.0307 -0.4250
vt 0.0352 0.0309 -0.4250
vt 0.0595 0.0342 0.4250
vt 0.0595 0.0325 -0.4250
vt 0.0844 0.0323 -0.4250
vt 0.0845 0.0337 -0.4250
vt 0.0642 0.1218 -0.4250
vt 0.0641 0.1195 -0.4250
vt 0.0889 0.1201 -0.4250
vt 0.0889 0.1212 -0.4250
vt 0.0603 0.0616 -0.4250
vt 0.0602 0.0588 -0.4250
vt 0.0849 0.0585 -0.4250
vt 0.0850 0.0596 -0.4250
vt 0.4784 0.0216 -0.4250
vt 0.5002 0.0209 -0.4250
vt 0.5004 0.0300 -0.4250
vt 0.4786 0.0307 -0.4250
vt 0.4815 0.0833 -0.4250
vt 0.5036 0.0819 -0.4250
vt 0.5037 0.0836 -0.4250
vt 0.4817 0.0848 -0.4250
vt 0.0270 0.0304 -0.4250
vt 0.0282 0.0305 -0.4250
vt 0.0281 0.0320 -0.4250
vt 0.0270 0.0319 -0.4250
vt 0.0356 0.0218 -0.4250
vt 0.0597 0.0233 -0.4250
vt 0.5244 0.0315 -0.4250
vt 0.5005 0.0316 0.4250
vt 0.5243 0.0300 -0.4250
vt 0.0886 0.1128 -0.4250
vt 0.0887 0.1143 -0.4250
vt 0.0639 0.1148 -0.4250
vt 0.0638 0.1136 -0.4250
vt 0.4833 0.1198 -0.4250
vt 0.4833 0.1451 -0.4250
vt 0.3098 0.1452 -0.4250
vt 0.3098 0.1201 -0.4250
vt 0.5054 0.1209 -0.4250
vt 0.5054 0.1451 -0.4250
vt 0.5048 0.1100 -0.4250
vt 0.5049 0.1114 -0.4250
vt 0.4830 0.1138 -0.4250
vt 0.4829 0.1122 -0.4250
vt 0.4793 0.0578 -0.4250
vt 0.4787 0.0324 -0.4250
vt 0.5014 0.0558 -0.4250
vt 0.5462 0.0307 -0.4250
vt 0.5462 0.0292 -0.4250
vt 0.5460 0.0201 -0.4250
vt 0.5679 0.0195 -0.4250
vt 0.5680 0.0287 -0.4250
vt 0.0706 0.0863 -0.4250
vt 0.0876 0.0845 -0.4250
vt 0.0879 0.0860 -0.4250
vt 0.0704 0.0873 -0.4250
vt 0.0705 0.0957 -0.4250
vt 0.0635 0.0979 -0.4250
vt 0.0620 0.0872 -0.4250
vt 0.1938 0.0225 -0.4250
vt 0.1954 0.0223 -0.4250
vt 0.1958 0.0314 -0.4250
vt 0.1941 0.0316 -0.4250
vt 0.1986 0.1199 -0.4250
vt 0.2003 0.1198 -0.4250
vt 0.2003 0.1206 -0.4250
vt 0.1986 0.1208 -0.4250
vt 0.1943 0.0581 -0.4250
vt 0.1960 0.0579 -0.4250
vt 0.1961 0.0588 -0.4250
vt 0.1944 0.0589 -0.4250
vt 0.3095 0.1136 -0.4250
vt 0.3093 0.1121 -0.4250
vt 0.0890 0.1460 -0.4250
vt 0.0642 0.1460 -0.4250
vt 0.1943 0.0331 -0.4250
vt 0.1959 0.0330 -0.4250
vt 0.0610 0.0685 -0.4250
vt 0.0608 0.0670 -0.4250
vt 0.0856 0.0655 -0.4250
vt 0.0858 0.0670 -0.4250
vt 0.1970 0.0840 -0.4250
vt 0.1986 0.0839 -0.4250
vt 0.1988 0.0855 -0.4250
vt 0.1972 0.0856 -0.4250
vt 0.0224 0.0319 -0.4250
vt 0.0131 0.0319 -0.4250
vt 0.0130 0.0303 -0.4250
vt 0.0224 0.0304 -0.4250
vt 0.5801 0.0196 -0.4250
vt 0.5916 0.0196 -0.4250
vt 0.5916 0.0288 -0.4250
vt 0.5801 0.0288 -0.4250
vt 0.5762 0.0288 -0.4250
vt 0.5759 0.0196 -0.4250
vt 0.0632 0.1087 -0.4250
vt 0.0883 0.0952 -0.4250
vt 0.0883 0.1070 -0.4250
vt 0.4825 0.1062 -0.4250
vt 0.4821 0.0940 -0.4250
vt 0.5041 0.0929 -0.4250
vt 0.5046 0.1044 -0.4250
vt 0.1978 0.0947 -0.4250
vt 0.1994 0.0946 -0.4250
vt 0.1994 0.1065 -0.4250
vt 0.1978 0.1066 -0.4250
vt 0.0866 0.0728 -0.4250
vt 0.0613 0.0739 -0.4250
vt 0.2003 0.1456 -0.4250
vt 0.1986 0.1457 -0.4250
vt 0.3051 0.0218 -0.4250
vt 0.3052 0.0309 -0.4250
vt 0.3097 0.1195 -0.4250
vt 0.3056 0.0576 -0.4250
vt 0.3059 0.0580 -0.4250
vt 0.3054 0.0325 -0.4250
vt 0.3079 0.0833 -0.4250
vt 0.3083 0.0849 -0.4250
vt 0.1962 0.0718 -0.4250
vt 0.1978 0.0717 -0.4250
vt 0.3086 0.0941 -0.4250
vt 0.3089 0.1061 -0.4250
vt 0.0332 0.0216 -0.4250
vt 0.0844 0.0232 -0.4250
vt 0.0269 0.0213 -0.4250
vt 0.0281 0.0213 -0.4250
vt 0.5242 0.0208 -0.4250
vt 0.5680 0.0302 -0.4250
vt 0.0625 0.0842 -0.4250
vt 0.0126 0.0212 -0.4250
vt 0.0222 0.0212 -0.4250
vt 0.5916 0.0303 -0.4250
vt 0.5801 0.0303 -0.4250
vt 0.4809 0.0717 -0.4250
vt 0.5029 0.0702 -0.4250
vt 0.5020 0.0628 -0.4250
vt 0.5023 0.0643 -0.4250
vt 0.4803 0.0655 -0.4250
vt 0.4800 0.0639 -0.4250
vt 0.3075 0.0707 -0.4250
vt 0.3067 0.0650 -0.4250
vt 0.3064 0.0636 -0.4250
vt 0.2022 0.0220 -0.4250
vt 0.2023 0.0311 -0.4250
vt 0.1875 0.0319 -0.4250
vt 0.1873 0.0228 -0.4250
vt 0.2068 0.1194 -0.4250
vt 0.2069 0.1203 -0.4250
vt 0.1919 0.1210 -0.4250
vt 0.1919 0.1202 -0.4250
vt 0.2026 0.0575 -0.4250
vt 0.2028 0.0582 -0.4250
vt 0.1879 0.0595 -0.4250
vt 0.1877 0.0585 -0.4250
vt 0.2025 0.0326 -0.4250
vt 0.1876 0.0335 -0.4250
vt 0.2051 0.0834 -0.4250
vt 0.2053 0.0850 -0.4250
vt 0.1907 0.0860 -0.4250
vt 0.1904 0.0845 -0.4250
vt 0.2057 0.0942 -0.4250
vt 0.2060 0.1061 -0.4250
vt 0.1912 0.1070 -0.4250
vt 0.1911 0.0951 -0.4250
vt 0.1919 0.1459 -0.4250
vt 0.2069 0.1453 -0.4250
vt 0.1885 0.0653 -0.4250
vt 0.1888 0.0668 -0.4250
vt 0.2038 0.0653 -0.4250
vt 0.2035 0.0638 -0.4250
vt 0.1915 0.1129 -0.4250
vt 0.1916 0.1144 -0.4250
vt 0.2065 0.1135 -0.4250
vt 0.2064 0.1120 -0.4250
vt 0.1896 0.0724 -0.4250
vt 0.2045 0.0711 -0.4250
vt 0.1971 0.0222 -0.4250
vt 0.1974 0.0313 -0.4250
vt 0.1925 0.0317 -0.4250
vt 0.1922 0.0226 -0.4250
vt 0.2019 0.1197 -0.4250
vt 0.2019 0.1205 -0.4250
vt 0.1970 0.1209 -0.4250
vt 0.1969 0.1200 -0.4250
vt 0.1976 0.0578 -0.4250
vt 0.1978 0.0586 -0.4250
vt 0.1928 0.0591 -0.4250
vt 0.1927 0.0583 -0.4250
vt 0.1976 0.0328 -0.4250
vt 0.1926 0.0333 -0.4250
vt 0.2002 0.0837 -0.4250
vt 0.2004 0.0853 -0.4250
vt 0.1956 0.0857 -0.4250
vt 0.1954 0.0841 -0.4250
vt 0.2009 0.0945 -0.4250
vt 0.2010 0.1064 -0.4250
vt 0.1961 0.1068 -0.4250
vt 0.1961 0.0949 -0.4250
vt 0.1970 0.1458 -0.4250
vt 0.2019 0.1454 -0.4250
vt 0.1921 0.0645 -0.4250
vt 0.1925 0.0667 -0.4250
vt 0.2002 0.0661 -0.4250
vt 0.1998 0.0639 -0.4250
vt 0.1952 0.1123 -0.4250
vt 0.1953 0.1146 -0.4250
vt 0.2029 0.1141 -0.4250
vt 0.2027 0.1118 -0.4250
vt 0.1945 0.0720 -0.4250
vt 0.1995 0.0715 -0.4250
vt 0.0294 0.0305 -0.4250
vt 0.0293 0.0321 -0.4250
vt 0.0258 0.0319 -0.4250
vt 0.0258 0.0304 -0.4250
vt 0.0888 0.1157 -0.4250
vt 0.0640 0.1160 -0.4250
vt 0.0636 0.1124 -0.4250
vt 0.0884 0.1113 -0.4250
vt 0.5050 0.1128 -0.4250
vt 0.5053 0.1170 -0.4250
vt 0.4831 0.1153 -0.4250
vt 0.4827 0.1107 -0.4250
vt 0.5047 0.1086 -0.4250
vt 0.3096 0.1151 -0.4250
vt 0.3092 0.1105 -0.4250
vt 0.0606 0.0654 -0.4250
vt 0.0853 0.0640 -0.4250
vt 0.0861 0.0685 -0.4250
vt 0.0612 0.0701 -0.4250
vt 0.1969 0.0618 -0.4250
vt 0.1943 0.0620 -0.4250
vt 0.1955 0.0687 -0.4250
vt 0.1980 0.0685 -0.4250
vt 0.2001 0.1097 -0.4250
vt 0.1975 0.1099 -0.4250
vt 0.1980 0.1168 -0.4250
vt 0.2005 0.1166 -0.4250
vt 0.0295 0.0214 -0.4250
vt 0.0257 0.0212 -0.4250
vt 0.5025 0.0658 -0.4250
vt 0.4805 0.0671 -0.4250
vt 0.4797 0.0624 -0.4250
vt 0.5014 0.0571 -0.4250
vt 0.5018 0.0613 -0.4250
vt 0.3071 0.0665 -0.4250
vt 0.3061 0.0622 -0.4250
vt 0.1883 0.0638 -0.4250
vt 0.1891 0.0682 -0.4250
vt 0.2041 0.0668 -0.4250
vt 0.2032 0.0624 -0.4250
vt 0.1914 0.1114 -0.4250
vt 0.1917 0.1159 -0.4250
vt 0.2066 0.1150 -0.4250
vt 0.2062 0.1105 -0.4250
vt 0.1929 0.0631 -0.4250
vt 0.1938 0.0680 -0.4250
vt 0.1995 0.0676 -0.4250
vt 0.1985 0.0626 -0.4250
vt 0.1961 0.1109 -0.4250
vt 0.1964 0.1160 -0.4250
vt 0.2020 0.1156 -0.4250
vt 0.2016 0.1105 -0.4250
vt 0.0323 0.1225 0.0000
vt 0.0344 0.1221 4.0463
vt 0.0366 0.1325 0.0000
vt 0.0344 0.1330 -4.0463
vt 0.0360 0.1217 0.0000
vt 0.0383 0.1322 0.0000
vt 0.0378 0.1214 0.0000
vt 0.0400 0.1318 0.0000
vt 0.0403 0.1208 0.0000
vt 0.0425 0.1313 0.0000
vt 0.0420 0.1205 0.0000
vt 0.0442 0.1309 0.0000
vt 0.0436 0.1201 0.0000
vt 0.0459 0.1306 0.0000
vt 0.0209 0.1248 0.0000
vt 0.0231 0.1244 0.0000
vt 0.0252 0.1349 0.0000
vt 0.0230 0.1353 0.0000
vt 0.0247 0.1241 0.0000
vt 0.0268 0.1346 0.0000
vt 0.0265 0.1238 0.0000
vt 0.0286 0.1342 0.0000
vt 0.0290 0.1233 0.0000
vt 0.0311 0.1337 0.0000
vt 0.0307 0.1229 0.0000
vt 0.0328 0.1334 0.0000
vt 0.9473 0.5263 -0.4031
vt 0.9642 0.5263 -0.4031
vt 0.9642 0.5370 -0.4031
vt 0.9473 0.5370 -0.4031
vt 0.9304 0.5263 0.4031
vt 0.9304 0.5370 -0.4031
vt 0.7952 0.5370 -0.4031
vt 0.7952 0.5264 -0.4031
vt 0.9307 0.4347 -0.4031
vt 0.9306 0.4513 -0.4031
vt 0.7852 0.4653 -0.4031
vt 0.7956 0.4347 -0.4031
vt 0.9305 0.4672 -0.4031
vt 0.9305 0.4767 -0.4031
vt 0.7954 0.4769 -0.4031
vt 0.7954 0.4670 -0.4031
vt 0.9304 0.4926 -0.4031
vt 0.9304 0.5093 -0.4031
vt 0.7952 0.5094 -0.4031
vt 0.7853 0.4785 -0.4031
vt 0.9811 0.5263 -0.4031
vt 0.9811 0.5370 -0.4031
vt 0.3192 0.5390 -0.4031
vt 0.3023 0.5390 -0.4031
vt 0.3023 0.5283 -0.4031
vt 0.3192 0.5283 -0.4031
vt 0.5019 0.5267 -0.4031
vt 0.5188 0.5267 0.4031
vt 0.5188 0.5374 -0.4031
vt 0.5019 0.5374 -0.4031
vt 0.5191 0.4332 -0.4031
vt 0.5192 0.4164 -0.4031
vt 0.6098 0.4164 -0.4031
vt 0.6097 0.4333 -0.4031
vt 0.5188 0.4935 -0.4031
vt 0.5188 0.4767 -0.4031
vt 0.6093 0.4767 -0.4031
vt 0.6093 0.4932 -0.4031
vt 0.6094 0.5374 -0.4031
vt 0.6094 0.5267 -0.4031
vt 0.6096 0.4499 -0.4031
vt 0.5188 0.4664 -0.4031
vt 0.6094 0.4664 -0.4031
vt 0.6094 0.5098 -0.4031
vt 0.5188 0.5099 -0.4031
vt 0.5189 0.4496 -0.4031
vt 0.7641 0.4166 -0.4031
vt 0.7639 0.4334 -0.4031
vt 0.7632 0.4767 -0.4031
vt 0.7636 0.4930 -0.4031
vt 0.4097 0.5276 -0.4031
vt 0.4098 0.5383 -0.4031
vt 0.7635 0.5372 -0.4031
vt 0.7635 0.5265 -0.4031
vt 0.7638 0.4501 -0.4031
vt 0.7633 0.4666 -0.4031
vt 0.7635 0.5096 -0.4031
vt 0.7958 0.4178 -0.4031
vt 0.9309 0.4178 -0.4031
vt 0.9500 0.8142 -0.4020
vt 0.9448 0.8142 -0.4020
vt 0.9448 0.8035 -0.4020
vt 0.9500 0.8035 -0.4020
vt 0.5050 0.7528 -0.4020
vt 0.5050 0.7421 -0.4020
vt 0.5991 0.7421 -0.4020
vt 0.5991 0.7528 -0.4020
vt 0.5050 0.8142 -0.4020
vt 0.5050 0.8035 0.4020
vt 0.5991 0.8035 -0.4020
vt 0.5991 0.8142 -0.4020
vt 0.4744 0.8035 -0.4020
vt 0.4744 0.8142 -0.4020
vt 0.2862 0.8140 -0.4020
vt 0.2713 0.8140 -0.4020
vt 0.2713 0.8033 -0.4020
vt 0.2862 0.8033 -0.4020
vt 0.9142 0.8142 -0.4020
vt 0.9142 0.8035 0.4020
vt 0.5050 0.7220 -0.4020
vt 0.5050 0.6914 -0.4020
vt 0.5991 0.6914 -0.4020
vt 0.5991 0.7246 -0.4020
vt 0.9142 0.7272 -0.4020
vt 0.8934 0.7421 -0.4020
vt 0.5050 0.7677 -0.4020
vt 0.5991 0.7703 -0.4020
vt 0.9142 0.7729 -0.4020
vt 0.8936 0.7528 -0.4020
vt 0.9142 0.7220 -0.4020
vt 0.9142 0.7677 -0.4020
vt 0.9142 0.6914 -0.4020
vt 0.5050 0.7272 -0.4020
vt 0.5050 0.7729 -0.4020
vt 0.3803 0.8034 -0.4020
vt 0.3803 0.8141 -0.4020
vt 0.9753 0.8035 -0.4020
vt 0.9755 0.8142 -0.4020
vt 0.9363 0.3502 0.4198
vt 0.9870 0.3502 -0.4198
vt 0.9870 0.3608 -0.4198
vt 0.9363 0.3608 -0.4198
vt 0.5091 0.3502 0.4198
vt 0.5091 0.3608 -0.4198
vt 0.4584 0.3608 -0.4198
vt 0.4584 0.3502 -0.4198
vt 0.9363 0.2381 -0.4198
vt 0.9363 0.2888 -0.4198
vt 0.5091 0.2888 -0.4198
vt 0.5091 0.2381 -0.4198
vt 0.9363 0.2995 -0.4198
vt 0.5091 0.2995 -0.4198
vt 0.0572 0.5896 -0.3894
vt 0.0572 0.9741 -0.3894
vt 0.0419 0.9741 0.3894
vt 0.0419 0.5896 0.3894
vt 0.0204 0.5896 0.3894
vt 0.0357 0.5896 0.3894
vt 0.0357 0.9741 0.3894
vt 0.0204 0.9741 0.3894
vt 0.0419 0.5833 0.3894
vt 0.0572 0.5833 0.3894
vt 0.0572 0.9803 0.3894
vt 0.0419 0.9803 0.3894
vt 0.0634 0.5896 0.3894
vt 0.0634 0.9741 0.3894
vt 0.5759 0.0303 -0.4250
vt 0.5749 0.0287 -0.4250
vt 0.5746 0.0196 -0.4250
vt 0.5745 0.0303 -0.4250
vt 0.5738 0.0287 -0.4250
vt 0.5733 0.0196 -0.4250
vt 0.5732 0.0302 -0.4250
vt 0.5722 0.0287 -0.4250
vt 0.5720 0.0195 -0.4250
vt 0.5720 0.0302 -0.4250
vt 0.6107 0.9617 -0.3802
vt 0.6119 0.9634 -0.3802
vt 0.6109 0.9725 -0.3802
vt 0.6120 0.9619 -0.3802
vt 0.6131 0.9636 -0.3802
vt 0.6122 0.9726 -0.3802
vt 0.6132 0.9620 -0.3802
vt 0.6144 0.9637 -0.3802
vt 0.6136 0.9728 -0.3802
vt 0.6145 0.9621 -0.3802
# 1068 texture coords

o fence_1
g fence_1
usemtl 01___Default
s 2
f 1/1/1 2/2/2 3/3/3 4/4/4 
s 4
f 5/5/5 6/6/6 7/7/7 8/8/8 
s 8
f 1/1/1 4/4/4 6/9/6 5/10/5 
s 16
f 4/4/4 3/3/3 7/7/7 6/6/6 
s 32
f 3/3/3 2/2/2 8/11/8 7/12/7 
s 64
f 2/2/2 1/1/1 5/13/5 8/14/8 
s 2
f 9/15/9 10/16/9 11/17/10 12/18/10 
s 8
f 13/19/7 14/20/11 15/21/12 16/22/13 
s 16
f 17/23/14 18/24/14 19/25/15 20/26/16 
s 64
f 10/27/9 9/28/9 21/29/17 22/30/17 
s 8
f 23/31/18 24/32/2 25/33/19 26/34/20 
s 32
f 27/35/21 28/36/5 29/37/22 30/38/23 
s 2
f 31/39/10 32/40/10 33/41/9 34/42/9 
f 17/43/14 35/44/3 14/45/11 12/18/10 
s 4
f 36/46/24 37/47/8 25/48/19 38/49/25 
s 16
f 39/50/15 40/51/15 41/52/14 42/53/14 
f 43/54/26 23/31/18 44/55/18 45/56/16 
s 64
f 9/28/9 13/19/7 16/22/13 21/29/17 
s 16
f 46/57/27 24/32/2 23/31/18 43/54/26 
f 47/58/28 48/59/28 49/60/29 50/61/29 
s 64
f 51/62/30 52/63/13 37/64/8 36/65/24 
s off
f 51/66/30 36/46/24 38/49/25 53/67/31 
f 43/68/26 54/69/32 55/70/33 53/67/31 
s 32
f 56/71/34 57/72/21 58/73/35 59/74/36 
s off
f 60/75/37 61/76/38 62/77/39 59/74/36 
s 8
f 63/78/40 64/79/40 65/80/41 66/81/41 
s 16
f 67/82/29 68/83/29 69/84/29 70/85/29 
s 64
f 71/86/42 72/87/42 73/88/42 74/89/42 
s 16
f 50/61/29 49/60/29 75/90/15 76/91/15 
f 77/92/18 35/93/3 17/23/14 20/26/16 
s 64
f 78/94/13 79/95/13 72/87/42 71/86/42 
f 34/96/9 33/97/9 80/98/17 81/99/17 
s 32
f 82/100/43 83/101/43 84/102/35 85/103/35 
s 2
f 86/104/9 87/105/44 62/77/39 88/106/10 
s 4
f 89/107/28 90/108/1 29/37/22 91/109/31 
f 91/109/31 92/110/31 93/111/28 89/107/28 
s 16
f 94/112/14 60/113/37 95/114/45 96/115/16 
f 97/116/29 98/117/45 90/118/1 89/119/28 
f 99/120/45 100/121/45 101/122/29 102/123/29 
s 64
f 103/124/17 57/72/21 56/71/34 86/125/9 
s 16
f 64/79/40 63/78/40 70/85/29 69/84/29 
s 8
f 44/55/18 23/31/18 26/34/20 104/126/20 
s 16
f 105/127/16 43/54/26 45/56/16 
s 64
f 106/128/46 51/62/30 107/129/46 
f 108/130/13 52/63/13 51/62/30 106/128/46 
s 32
f 109/131/21 27/35/21 30/38/23 110/132/23 
s 64
f 83/101/43 82/100/43 111/133/42 112/134/42 
s 16
f 113/135/45 98/117/45 97/116/29 114/136/15 
s 2
f 11/17/10 18/137/14 17/43/14 12/18/10 
s 8
f 14/20/11 35/93/3 77/92/18 15/21/12 
f 25/33/19 37/64/8 52/63/13 26/34/20 
s 32
f 29/37/22 90/108/1 98/138/45 30/38/23 
s 2
f 42/139/14 41/140/14 32/40/10 31/39/10 
f 14/45/11 13/141/7 9/15/9 12/18/10 
s 4
f 25/48/19 24/142/2 46/143/27 38/49/25 
s off
f 38/49/25 46/143/27 43/68/26 53/67/31 
f 55/70/33 115/144/47 51/66/30 53/67/31 
s 32
f 58/73/35 95/145/45 60/75/37 59/74/36 
s off
f 62/77/39 87/105/44 56/71/34 59/74/36 
s 8
f 79/95/13 78/94/13 66/81/41 65/80/41 
s 32
f 100/146/45 99/147/45 85/103/35 84/102/35 
s 2
f 62/77/39 61/76/38 94/148/14 88/106/10 
s 4
f 29/37/22 28/36/5 116/149/48 91/109/31 
s 8
f 26/34/20 52/63/13 108/130/13 104/126/20 
s 32
f 30/38/23 98/138/45 113/150/45 110/132/23 
s 64
f 28/36/5 27/35/21 117/151/42 116/152/48 
f 118/153/48 119/154/48 120/155/42 121/156/42 
s off
f 117/151/42 27/35/21 109/131/21 122/157/17 
f 121/156/42 120/155/42 123/158/17 124/159/17 
s 8
f 125/160/18 44/55/18 104/126/20 126/161/20 
f 127/162/20 15/21/12 77/92/18 128/163/18 
s 16
f 129/164/49 105/127/16 45/56/16 130/165/49 
f 131/166/49 20/26/16 19/25/15 132/167/49 
s 64
f 133/168/50 106/128/46 107/129/46 134/169/50 
f 135/170/50 22/30/17 21/29/17 136/171/50 
f 137/172/13 108/130/13 106/128/46 133/168/50 
f 136/171/50 21/29/17 16/22/13 138/173/13 
s 32
f 139/174/21 109/131/21 110/132/23 140/175/23 
f 141/176/23 58/73/35 57/72/21 142/177/21 
s 16
f 143/178/45 113/135/45 114/136/15 144/179/29 
f 145/180/29 96/115/16 95/114/45 146/181/45 
f 128/163/18 77/92/18 20/26/16 131/166/49 
f 130/165/49 45/56/16 44/55/18 125/160/18 
s 64
f 81/99/17 80/98/17 147/182/42 148/183/42 
f 124/159/17 123/158/17 149/184/42 150/185/42 
s 16
f 40/51/15 39/50/15 151/186/29 152/187/29 
f 76/91/15 75/90/15 153/188/29 154/189/29 
s 64
f 142/177/21 57/72/21 103/124/17 155/190/42 
f 156/191/42 122/157/17 109/131/21 139/174/21 
s 8
f 138/173/13 16/22/13 15/21/12 127/162/20 
f 126/161/20 104/126/20 108/130/13 137/172/13 
s 32
f 146/192/45 95/145/45 58/73/35 141/176/23 
f 140/175/23 110/132/23 113/150/45 143/193/45 
s 8
f 157/194/40 125/160/18 126/161/20 158/195/41 
f 159/196/41 127/162/20 128/163/18 160/197/40 
s 16
f 161/198/29 129/164/49 130/165/49 162/199/29 
f 163/200/29 131/166/49 132/167/49 164/201/29 
s 64
f 165/202/42 133/168/50 134/169/50 166/203/42 
f 167/204/42 135/170/50 136/171/50 168/205/42 
f 169/206/13 137/172/13 133/168/50 165/202/42 
f 168/205/42 136/171/50 138/173/13 170/207/13 
s 32
f 171/208/43 139/174/21 140/175/23 172/209/35 
f 173/210/35 141/176/23 142/177/21 174/211/43 
s 16
f 175/212/45 143/178/45 144/179/29 176/213/29 
f 177/214/29 145/180/29 146/181/45 178/215/45 
f 160/197/40 128/163/18 131/166/49 163/200/29 
f 162/199/29 130/165/49 125/160/18 157/194/40 
s 64
f 148/183/42 147/182/42 179/216/51 180/217/52 
f 150/185/42 149/184/42 181/218/53 182/219/54 
s 16
f 152/187/29 151/186/29 183/220/55 184/221/56 
f 154/189/29 153/188/29 185/222/57 186/223/58 
s 64
f 174/211/43 142/177/21 155/190/42 187/224/42 
f 188/225/42 156/191/42 139/174/21 171/208/43 
s 8
f 170/207/13 138/173/13 127/162/20 159/196/41 
f 158/195/41 126/161/20 137/172/13 169/206/13 
s 32
f 178/226/45 146/192/45 141/176/23 173/210/35 
f 172/209/35 140/175/23 143/193/45 175/227/45 
s 2
f 189/228/10 11/17/10 10/16/9 190/229/9 
f 191/230/9 86/104/9 88/106/10 192/231/10 
s 16
f 193/232/15 19/25/15 18/24/14 194/233/14 
f 195/234/14 94/112/14 96/115/16 196/235/16 
f 197/236/28 54/237/32 43/54/26 198/238/29 
f 199/239/29 97/116/29 89/119/28 93/240/28 
f 198/238/29 43/54/26 105/127/16 200/241/15 
f 201/242/15 114/136/15 97/116/29 199/239/29 
s 64
f 190/243/9 10/27/9 22/30/17 202/244/17 
f 203/245/17 103/124/17 86/125/9 191/246/9 
f 74/89/42 73/88/42 204/247/59 205/248/60 
f 112/134/42 111/133/42 206/249/61 207/250/62 
s 16
f 102/123/29 101/122/29 208/251/63 209/252/64 
f 68/83/29 67/82/29 210/253/65 211/254/66 
s 2
f 194/255/14 18/137/14 11/17/10 189/228/10 
f 192/231/10 88/106/10 94/148/14 195/256/14 
s 64
f 212/257/48 116/152/48 117/151/42 213/258/42 
f 214/259/42 51/62/30 115/260/47 215/261/48 
s off
f 213/258/42 117/151/42 122/157/17 216/262/17 
f 217/263/17 107/129/46 51/62/30 214/259/42 
s 64
f 202/244/17 22/30/17 135/170/50 218/264/42 
f 219/265/42 155/190/42 103/124/17 203/245/17 
f 216/262/17 122/157/17 156/191/42 220/266/42 
f 221/267/42 134/169/50 107/129/46 217/263/17 
s 16
f 196/235/16 96/115/16 145/180/29 222/268/29 
f 223/269/29 132/167/49 19/25/15 193/232/15 
f 200/241/15 105/127/16 129/164/49 224/270/29 
f 225/271/29 144/179/29 114/136/15 201/242/15 
s 64
f 218/264/42 135/170/50 167/204/42 226/272/67 
f 227/273/68 187/224/42 155/190/42 219/265/42 
f 220/266/42 156/191/42 188/225/42 228/274/69 
f 229/275/70 166/203/42 134/169/50 221/267/42 
s 16
f 222/268/29 145/180/29 177/214/29 230/276/71 
f 231/277/72 164/201/29 132/167/49 223/269/29 
f 224/270/29 129/164/49 161/198/29 232/278/73 
f 233/279/74 176/213/29 144/179/29 225/271/29 
s 8
f 64/79/40 157/194/40 158/195/41 65/80/41 
f 66/81/41 159/196/41 160/197/40 63/78/40 
s 16
f 68/83/29 161/198/29 162/199/29 69/84/29 
f 70/85/29 163/200/29 164/201/29 67/82/29 
s 64
f 72/87/42 165/202/42 166/203/42 73/88/42 
f 74/89/42 167/204/42 168/205/42 71/86/42 
f 79/95/13 169/206/13 165/202/42 72/87/42 
f 71/86/42 168/205/42 170/207/13 78/94/13 
s 32
f 83/101/43 171/208/43 172/209/35 84/102/35 
f 85/103/35 173/210/35 174/211/43 82/100/43 
s 16
f 100/121/45 175/212/45 176/213/29 101/122/29 
f 102/123/29 177/214/29 178/215/45 99/120/45 
f 63/78/40 160/197/40 163/200/29 70/85/29 
f 69/84/29 162/199/29 157/194/40 64/79/40 
s 64
f 82/100/43 174/211/43 187/224/42 111/133/42 
f 112/134/42 188/225/42 171/208/43 83/101/43 
s 8
f 78/94/13 170/207/13 159/196/41 66/81/41 
f 65/80/41 158/195/41 169/206/13 79/95/13 
s 32
f 99/147/45 178/226/45 173/210/35 85/103/35 
f 84/102/35 172/209/35 175/227/45 100/146/45 
s 64
f 73/88/42 166/203/42 229/275/70 204/247/59 
f 205/248/60 226/272/67 167/204/42 74/89/42 
f 111/133/42 187/224/42 227/273/68 206/249/61 
f 207/250/62 228/274/69 188/225/42 112/134/42 
s 16
f 101/122/29 176/213/29 233/279/74 208/251/63 
f 209/252/64 230/276/71 177/214/29 102/123/29 
f 67/82/29 164/201/29 231/277/72 210/253/65 
f 211/254/66 232/278/73 161/198/29 68/83/29 
s 2
f 32/40/10 189/228/10 190/229/9 33/41/9 
f 34/42/9 191/230/9 192/231/10 31/39/10 
s 16
f 40/51/15 193/232/15 194/233/14 41/52/14 
f 42/53/14 195/234/14 196/235/16 39/50/15 
f 48/59/28 197/236/28 198/238/29 49/60/29 
f 50/61/29 199/239/29 93/240/28 47/58/28 
f 49/60/29 198/238/29 200/241/15 75/90/15 
f 76/91/15 201/242/15 199/239/29 50/61/29 
s 64
f 33/97/9 190/243/9 202/244/17 80/98/17 
f 81/99/17 203/245/17 191/246/9 34/96/9 
s 2
f 41/140/14 194/255/14 189/228/10 32/40/10 
f 31/39/10 192/231/10 195/256/14 42/139/14 
s 64
f 119/154/48 212/257/48 213/258/42 120/155/42 
f 121/156/42 214/259/42 215/261/48 118/153/48 
s off
f 120/155/42 213/258/42 216/262/17 123/158/17 
f 124/159/17 217/263/17 214/259/42 121/156/42 
s 64
f 80/98/17 202/244/17 218/264/42 147/182/42 
f 148/183/42 219/265/42 203/245/17 81/99/17 
f 123/158/17 216/262/17 220/266/42 149/184/42 
f 150/185/42 221/267/42 217/263/17 124/159/17 
s 16
f 39/50/15 196/235/16 222/268/29 151/186/29 
f 152/187/29 223/269/29 193/232/15 40/51/15 
f 75/90/15 200/241/15 224/270/29 153/188/29 
f 154/189/29 225/271/29 201/242/15 76/91/15 
s 64
f 147/182/42 218/264/42 226/272/67 179/216/51 
f 180/217/52 227/273/68 219/265/42 148/183/42 
f 149/184/42 220/266/42 228/274/69 181/218/53 
f 182/219/54 229/275/70 221/267/42 150/185/42 
s 16
f 151/186/29 222/268/29 230/276/71 183/220/55 
f 184/221/56 231/277/72 223/269/29 152/187/29 
f 153/188/29 224/270/29 232/278/73 185/222/57 
f 186/223/58 233/279/74 225/271/29 154/189/29 
s 1
f 180/280/52 179/281/51 184/282/56 183/283/55 
f 179/284/51 226/285/67 231/286/72 184/287/56 
f 226/285/67 205/288/60 210/289/65 231/286/72 
f 205/288/60 204/290/59 211/291/66 210/289/65 
f 204/290/59 229/292/70 232/293/73 211/291/66 
f 229/292/70 182/294/54 185/295/57 232/293/73 
f 182/294/54 181/296/53 186/297/58 185/295/57 
f 181/296/53 228/298/69 233/299/74 186/297/58 
f 228/298/69 207/300/62 208/301/63 233/299/74 
f 207/300/62 206/302/61 209/303/64 208/301/63 
f 206/302/61 227/304/68 230/305/71 209/303/64 
f 227/304/68 180/280/52 183/283/55 230/305/71 
s 16
f 94/112/14 61/306/38 60/113/37 
s 64
f 56/71/34 87/307/44 86/125/9 
s 2
f 234/308/48 235/309/48 236/310/28 237/311/28 
s 8
f 238/312/75 239/313/76 240/314/77 241/315/78 
s 16
f 242/316/29 243/317/29 244/318/29 245/319/29 
s 32
f 246/320/13 247/321/13 248/322/40 249/323/40 
s 64
f 250/324/42 251/325/42 252/326/42 253/327/42 
s 8
f 254/328/79 255/329/4 256/330/6 257/331/80 
f 258/332/81 254/328/79 257/331/80 259/333/82 
f 239/313/76 258/332/81 259/333/82 240/314/77 
f 260/334/83 261/335/5 262/336/1 263/337/84 
f 241/315/78 260/334/83 263/337/84 238/312/75 
s 16
f 264/338/85 265/339/29 266/340/29 
f 266/340/29 265/339/29 243/317/29 242/316/29 
f 237/341/28 236/342/28 267/343/29 268/344/29 
f 268/344/29 267/343/29 245/319/29 244/318/29 
s 32
f 269/345/13 270/346/7 271/347/3 272/348/40 
f 273/349/13 269/345/13 272/348/40 274/350/40 
f 247/321/13 273/349/13 274/350/40 248/322/40 
f 275/351/40 276/352/2 277/353/8 278/354/13 
f 249/323/40 275/351/40 278/354/13 246/320/13 
s 64
f 279/355/86 280/356/42 281/357/42 
f 281/357/42 280/356/42 251/325/42 250/324/42 
f 235/358/48 234/359/48 282/360/42 283/361/42 
f 283/361/42 282/360/42 253/327/42 252/326/42 
s 2
f 235/309/48 277/362/8 276/363/2 236/310/28 
f 237/311/28 262/336/1 261/335/5 234/308/48 
s 4
f 284/364/87 271/365/3 270/366/7 285/367/88 
f 286/368/89 256/330/6 255/329/4 287/369/90 
s 16
f 243/317/29 239/370/76 238/371/75 244/318/29 
f 245/319/29 249/323/40 248/322/40 242/316/29 
s 64
f 251/325/42 247/321/13 246/320/13 252/326/42 
f 253/327/42 241/315/78 240/314/77 250/324/42 
s 16
f 287/372/90 255/373/4 254/374/79 264/338/85 
f 264/338/85 272/348/40 271/347/3 284/375/87 
f 264/338/85 254/374/79 258/376/81 265/339/29 
f 266/340/29 274/350/40 272/348/40 264/338/85 
f 265/339/29 258/376/81 239/370/76 243/317/29 
f 242/316/29 248/322/40 274/350/40 266/340/29 
f 236/342/28 276/352/2 275/351/40 267/343/29 
f 268/344/29 263/377/84 262/378/1 237/341/28 
f 267/343/29 275/351/40 249/323/40 245/319/29 
f 244/318/29 238/371/75 263/377/84 268/344/29 
s 64
f 285/379/88 270/346/7 269/345/13 279/355/86 
f 279/355/86 257/331/80 256/330/6 286/380/89 
f 279/355/86 269/345/13 273/349/13 280/356/42 
f 281/357/42 259/333/82 257/331/80 279/355/86 
f 280/356/42 273/349/13 247/321/13 251/325/42 
f 250/324/42 240/314/77 259/333/82 281/357/42 
f 234/359/48 261/335/5 260/334/83 282/360/42 
f 283/361/42 278/354/13 277/353/8 235/358/48 
f 282/360/42 260/334/83 241/315/78 253/327/42 
f 252/326/42 246/320/13 278/354/13 283/361/42 
s off
f 285/367/88 279/381/86 264/382/85 284/364/87 
f 279/381/86 286/368/89 287/369/90 264/382/85 
s 2
f 288/383/5 289/384/8 290/385/2 291/386/1 
s 4
f 292/387/6 293/388/4 294/389/3 295/390/7 
s 8
f 288/383/5 291/386/1 293/388/4 292/387/6 
s 16
f 291/391/1 290/392/2 294/393/3 293/394/4 
s 32
f 290/392/2 289/395/8 295/396/7 294/393/3 
s 64
f 289/395/8 288/383/5 292/387/6 295/396/7 
s 4
f 296/397/91 297/398/14 298/399/9 299/400/92 
s 8
f 300/401/5 301/402/1 302/403/45 303/404/43 
s 32
f 304/405/2 305/406/8 306/407/13 307/408/40 
s 2
f 308/409/93 305/410/8 304/411/2 309/412/94 
f 310/413/95 301/402/1 300/401/5 311/414/96 
s 4
f 297/398/14 312/415/3 313/416/7 298/399/9 
s 16
f 309/417/94 304/405/2 307/408/40 314/418/97 
f 296/419/91 315/420/98 314/418/97 
s 64
f 311/421/96 300/401/5 303/404/43 316/422/99 
f 298/423/9 313/424/7 306/407/13 316/422/99 
s 8
f 302/403/45 315/425/98 317/426/100 303/404/43 
s 16
f 314/418/97 297/427/14 296/419/91 
s 32
f 306/407/13 313/424/7 312/428/3 307/408/40 
s 64
f 316/422/99 299/429/92 298/423/9 
s 16
f 307/408/40 312/428/3 297/427/14 314/418/97 
f 302/430/45 301/431/1 310/432/95 314/418/97 
s 64
f 303/404/43 317/426/100 316/422/99 
f 306/407/13 305/406/8 308/433/93 316/422/99 
s off
f 311/414/96 316/434/99 314/435/97 310/413/95 
f 316/434/99 308/409/93 309/412/94 314/435/97 
f 299/400/92 317/426/100 315/425/98 296/397/91 
s 16
f 315/420/98 302/430/45 314/418/97 
s 64
f 317/426/100 299/429/92 316/422/99 
s 2
f 318/436/48 319/437/48 320/438/28 321/439/28 
s 4
f 322/440/101 323/441/102 324/442/103 325/443/104 
s 8
f 326/444/45 327/445/45 328/446/43 329/447/43 
s 16
f 330/448/29 331/449/29 332/450/29 333/451/29 
s 32
f 334/452/13 335/453/13 336/454/40 337/455/40 
s 64
f 338/456/50 339/457/50 340/458/42 341/459/42 
s 2
f 342/460/48 343/461/8 344/462/2 345/463/28 
f 346/464/48 342/460/48 345/463/28 347/465/28 
f 319/437/48 346/464/48 347/465/28 320/438/28 
f 348/466/28 349/467/28 350/468/48 351/469/48 
f 321/439/28 352/470/28 353/471/48 318/436/48 
s 4
f 354/472/105 355/473/3 356/474/7 357/475/106 
f 358/476/107 354/472/105 357/475/106 359/477/108 
f 323/441/102 358/476/107 359/477/108 324/442/103 
f 360/478/9 361/479/9 362/480/14 363/481/14 
f 325/443/104 364/482/109 365/483/110 322/440/101 
s 16
f 337/455/40 336/454/40 366/484/49 367/485/49 
f 367/485/49 366/484/49 368/486/49 369/487/49 
f 369/487/49 368/486/49 331/449/29 330/448/29 
f 370/488/29 371/489/29 333/451/29 332/450/29 
s 64
f 372/490/50 373/491/50 374/492/50 375/493/50 
f 375/493/50 374/492/50 339/457/50 338/456/50 
f 335/453/13 334/452/13 376/494/42 377/495/42 
f 377/495/42 376/494/42 341/459/42 340/458/42 
s 2
f 378/496/28 379/497/1 380/498/5 381/499/48 
f 349/467/28 378/496/28 381/499/48 350/468/48 
f 382/500/48 353/471/48 352/470/28 383/501/28 
f 351/469/48 382/500/48 383/501/28 348/466/28 
s 4
f 384/502/9 385/503/6 386/504/4 387/505/14 
f 361/479/9 384/502/9 387/505/14 362/480/14 
f 388/506/14 365/483/110 364/482/109 389/507/9 
f 363/481/14 388/506/14 389/507/9 360/478/9 
s 16
f 327/508/45 326/509/45 390/510/111 391/511/112 
f 371/489/29 370/488/29 392/512/113 393/513/114 
s 64
f 329/447/43 328/446/43 394/514/115 395/515/116 
f 373/491/50 372/490/50 396/516/117 397/517/118 
s 8
f 398/518/45 386/504/4 385/503/6 399/519/43 
f 327/445/45 398/518/45 399/519/43 328/446/43 
f 400/520/43 380/498/5 379/497/1 401/521/45 
f 329/447/43 400/520/43 401/521/45 326/444/45 
s 16
f 402/522/29 323/523/102 322/524/101 403/525/49 
f 331/449/29 402/522/29 403/525/49 332/450/29 
f 404/526/29 321/527/28 320/528/28 405/529/29 
f 333/451/29 404/526/29 405/529/29 330/448/29 
s 32
f 406/530/13 356/531/7 355/532/3 407/533/40 
f 335/453/13 406/530/13 407/533/40 336/454/40 
f 408/534/40 344/535/2 343/536/8 409/537/13 
f 337/455/40 408/534/40 409/537/13 334/452/13 
s 64
f 410/538/50 324/539/103 359/540/108 411/541/50 
f 339/457/50 410/538/50 411/541/50 340/458/42 
f 412/542/42 346/543/48 319/544/48 413/545/50 
f 341/459/42 412/542/42 413/545/50 338/456/50 
s 16
f 407/533/40 355/532/3 354/546/105 414/547/29 
f 336/454/40 407/533/40 414/547/29 366/484/49 
f 415/548/49 345/549/28 344/535/2 408/534/40 
f 367/485/49 415/548/49 408/534/40 337/455/40 
f 414/547/29 354/546/105 358/550/107 416/551/29 
f 366/484/49 414/547/29 416/551/29 368/486/49 
f 417/552/49 347/553/28 345/549/28 415/548/49 
f 369/487/49 417/552/49 415/548/49 367/485/49 
f 416/551/29 358/550/107 323/523/102 402/522/29 
f 368/486/49 416/551/29 402/522/29 331/449/29 
f 405/529/29 320/528/28 347/553/28 417/552/49 
f 330/448/29 405/529/29 417/552/49 369/487/49 
f 418/554/119 349/555/28 348/556/28 419/557/120 
f 420/558/121 363/559/14 362/560/14 421/561/122 
f 422/562/49 352/563/28 321/527/28 404/526/29 
f 371/489/29 422/562/49 404/526/29 333/451/29 
f 403/525/49 322/524/101 365/564/110 423/565/49 
f 332/450/29 403/525/49 423/565/49 370/488/29 
s 64
f 424/566/123 361/567/9 360/568/9 425/569/124 
f 426/570/125 351/571/48 350/572/48 427/573/126 
f 428/574/42 364/575/109 325/576/104 429/577/42 
f 373/491/50 428/574/42 429/577/42 374/492/50 
f 430/578/50 318/579/48 353/580/48 431/581/50 
f 375/493/50 430/578/50 431/581/50 372/490/50 
f 429/577/42 325/576/104 324/539/103 410/538/50 
f 374/492/50 429/577/42 410/538/50 339/457/50 
f 413/545/50 319/544/48 318/579/48 430/578/50 
f 338/456/50 413/545/50 430/578/50 375/493/50 
f 409/537/13 343/536/8 342/582/48 432/583/42 
f 334/452/13 409/537/13 432/583/42 376/494/42 
f 433/584/50 357/585/106 356/531/7 406/530/13 
f 377/495/42 433/584/50 406/530/13 335/453/13 
f 432/583/42 342/582/48 346/543/48 412/542/42 
f 376/494/42 432/583/42 412/542/42 341/459/42 
f 411/541/50 359/540/108 357/585/106 433/584/50 
f 340/458/42 411/541/50 433/584/50 377/495/42 
s 16
f 401/586/45 379/587/1 378/588/28 434/589/127 
f 326/509/45 401/586/45 434/589/127 390/510/111 
f 435/590/128 387/591/14 386/592/4 398/593/45 
f 391/511/112 435/590/128 398/593/45 327/508/45 
f 434/589/127 378/588/28 349/555/28 418/554/119 
f 421/561/122 362/560/14 387/591/14 435/590/128 
f 423/565/49 365/564/110 388/594/14 436/595/129 
f 370/488/29 423/565/49 436/595/129 392/512/113 
f 437/596/130 383/597/28 352/563/28 422/562/49 
f 393/513/114 437/596/130 422/562/49 371/489/29 
f 436/595/129 388/594/14 363/559/14 420/558/121 
f 419/557/120 348/556/28 383/597/28 437/596/130 
s 64
f 399/519/43 385/503/6 384/598/9 438/599/131 
f 328/446/43 399/519/43 438/599/131 394/514/115 
f 439/600/132 381/601/48 380/498/5 400/520/43 
f 395/515/116 439/600/132 400/520/43 329/447/43 
f 438/599/131 384/598/9 361/567/9 424/566/123 
f 427/573/126 350/572/48 381/601/48 439/600/132 
f 431/581/50 353/580/48 382/602/48 440/603/133 
f 372/490/50 431/581/50 440/603/133 396/516/117 
f 441/604/134 389/605/9 364/575/109 428/574/42 
f 397/517/118 441/604/134 428/574/42 373/491/50 
f 440/603/133 382/602/48 351/571/48 426/570/125 
f 425/569/124 360/568/9 389/605/9 441/604/134 
s 1
f 418/606/119 419/607/120 426/608/125 427/609/126 
f 419/607/120 437/610/130 440/611/133 426/608/125 
f 437/610/130 393/612/114 396/613/117 440/611/133 
f 393/612/114 392/614/113 397/615/118 396/613/117 
f 392/614/113 436/616/129 441/617/134 397/615/118 
f 436/616/129 420/618/121 425/619/124 441/617/134 
f 420/618/121 421/620/122 424/621/123 425/619/124 
f 421/622/122 435/623/128 438/624/131 424/625/123 
f 435/623/128 391/626/112 394/627/115 438/624/131 
f 391/626/112 390/628/111 395/629/116 394/627/115 
f 390/628/111 434/630/127 439/631/132 395/629/116 
f 434/630/127 418/606/119 427/609/126 439/631/132 
s 2
f 442/632/48 443/633/48 444/634/31 445/635/31 
s 8
f 446/636/5 447/637/22 448/638/35 449/639/43 
s 16
f 450/640/28 451/641/28 452/642/29 453/643/29 
s 64
f 443/644/48 442/645/48 454/646/42 455/647/42 
s 8
f 456/648/45 457/649/4 458/650/135 459/651/35 
s 32
f 460/652/13 461/653/7 462/654/11 463/655/41 
s 2
f 464/656/31 465/657/31 466/658/48 467/659/48 
f 450/660/28 468/661/1 447/637/22 445/635/31 
s 4
f 469/662/136 470/663/6 458/650/135 471/664/137 
s 16
f 472/665/29 473/666/29 474/667/28 475/668/28 
f 476/669/138 456/670/45 477/671/45 478/672/29 
s 64
f 442/645/48 446/636/5 449/639/43 454/646/42 
s 16
f 479/673/139 457/674/4 456/670/45 476/669/138 
f 480/675/14 481/676/14 482/677/29 483/678/29 
s 64
f 484/679/140 485/680/43 470/663/6 469/681/136 
s off
f 484/682/140 469/662/136 471/664/137 486/683/10 
f 476/684/138 487/685/141 488/686/142 486/683/10 
s 32
f 489/687/143 490/688/13 491/689/41 492/690/144 
s off
f 493/691/145 494/692/146 495/693/147 492/690/144 
s 8
f 496/694/45 497/695/45 498/696/35 499/697/35 
s 16
f 500/698/29 501/699/29 502/700/29 503/701/29 
s 64
f 504/702/42 505/703/42 506/704/42 507/705/42 
s 16
f 483/678/29 482/677/29 508/706/49 509/707/49 
f 510/708/45 468/709/1 450/640/28 453/643/29 
s 64
f 511/710/43 512/711/43 505/703/42 504/702/42 
f 467/712/48 466/713/48 513/714/42 514/715/42 
s 32
f 515/716/13 516/717/13 517/718/41 518/719/41 
s 2
f 519/720/48 520/721/148 495/722/147 521/723/31 
s 4
f 522/724/14 523/725/3 462/726/11 524/727/10 
f 524/727/10 525/728/10 526/729/14 522/724/14 
s 16
f 527/730/28 493/691/145 528/731/40 529/732/29 
f 530/733/29 531/734/40 523/735/3 522/736/14 
f 532/737/40 533/738/40 534/739/29 535/740/29 
s 64
f 536/741/42 490/688/13 489/687/143 519/742/48 
s 16
f 497/743/45 496/744/45 503/701/29 502/700/29 
s 8
f 477/745/45 456/648/45 459/651/35 537/746/35 
s 16
f 538/747/29 476/669/138 478/672/29 
s 64
f 539/748/42 484/679/140 540/749/42 
f 541/750/43 485/680/43 484/679/140 539/748/42 
s 32
f 542/751/13 460/652/13 463/655/41 543/752/41 
s 64
f 516/717/13 515/716/13 544/753/42 545/754/42 
s 16
f 546/755/40 531/734/40 530/733/29 547/756/29 
s 2
f 444/634/31 451/757/28 450/660/28 445/635/31 
s 8
f 447/637/22 468/661/1 510/758/45 448/638/35 
f 458/650/135 470/663/6 485/680/43 459/651/35 
s 32
f 462/654/11 523/735/3 531/734/40 463/655/41 
s 2
f 475/759/28 474/760/28 465/657/31 464/656/31 
f 447/637/22 446/636/5 442/632/48 445/635/31 
s 4
f 458/650/135 457/649/4 479/761/139 471/664/137 
s off
f 471/664/137 479/761/139 476/684/138 486/683/10 
f 488/686/142 548/762/149 484/682/140 486/683/10 
s 32
f 491/689/41 528/731/40 493/691/145 492/690/144 
s off
f 495/693/147 520/763/148 489/687/143 492/690/144 
s 8
f 512/711/43 511/710/43 499/697/35 498/696/35 
s 32
f 533/738/40 532/737/40 518/719/41 517/718/41 
s 2
f 495/722/147 494/764/146 527/765/28 521/723/31 
s 4
f 462/726/11 461/766/7 549/767/9 524/727/10 
s 8
f 459/651/35 485/680/43 541/750/43 537/746/35 
s 32
f 463/655/41 531/734/40 546/755/40 543/752/41 
s 64
f 461/653/7 460/652/13 550/768/42 549/769/9 
f 551/770/9 552/771/9 553/772/42 554/773/42 
s off
f 550/768/42 460/652/13 542/751/13 555/774/50 
f 554/773/42 553/772/42 556/775/42 557/776/42 
s 8
f 558/777/45 477/745/45 537/746/35 559/778/35 
f 560/779/35 448/638/35 510/758/45 561/780/45 
s 16
f 562/781/29 538/747/29 478/672/29 563/782/29 
f 564/783/29 453/643/29 452/642/29 565/784/29 
s 64
f 566/785/42 539/748/42 540/749/42 567/786/42 
f 568/787/42 455/647/42 454/646/42 569/788/42 
f 570/789/43 541/750/43 539/748/42 566/785/42 
f 569/788/42 454/646/42 449/639/43 571/790/43 
s 32
f 572/791/13 542/751/13 543/752/41 573/792/41 
f 574/793/41 491/689/41 490/688/13 575/794/13 
s 16
f 576/795/40 546/755/40 547/756/29 577/796/29 
f 578/797/49 529/732/29 528/731/40 579/798/40 
f 561/799/45 510/708/45 453/643/29 564/783/29 
f 563/782/29 478/672/29 477/671/45 558/800/45 
s 64
f 514/715/42 513/714/42 580/801/42 581/802/42 
f 557/776/42 556/775/42 582/803/42 583/804/42 
s 16
f 473/666/29 472/665/29 584/805/29 585/806/29 
f 509/707/49 508/706/49 586/807/29 587/808/29 
s 64
f 575/794/13 490/688/13 536/741/42 588/809/42 
f 589/810/42 555/774/50 542/751/13 572/791/13 
s 8
f 571/790/43 449/639/43 448/638/35 560/779/35 
f 559/778/35 537/746/35 541/750/43 570/789/43 
s 32
f 579/798/40 528/731/40 491/689/41 574/793/41 
f 573/792/41 543/752/41 546/755/40 576/795/40 
s 8
f 590/811/45 558/777/45 559/778/35 591/812/35 
f 592/813/35 560/779/35 561/780/45 593/814/45 
s 16
f 594/815/29 562/781/29 563/782/29 595/816/29 
f 596/817/29 564/783/29 565/784/29 597/818/29 
s 64
f 598/819/42 566/785/42 567/786/42 599/820/42 
f 600/821/42 568/787/42 569/788/42 601/822/42 
f 602/823/43 570/789/43 566/785/42 598/819/42 
f 601/822/42 569/788/42 571/790/43 603/824/43 
s 32
f 604/825/13 572/791/13 573/792/41 605/826/41 
f 606/827/41 574/793/41 575/794/13 607/828/13 
s 16
f 608/829/40 576/795/40 577/796/29 609/830/29 
f 610/831/49 578/797/49 579/798/40 611/832/40 
f 593/833/45 561/799/45 564/783/29 596/817/29 
f 595/816/29 563/782/29 558/800/45 590/834/45 
s 64
f 581/802/42 580/801/42 612/835/150 613/836/151 
f 583/804/42 582/803/42 614/837/152 615/838/153 
s 16
f 585/806/29 584/805/29 616/839/154 617/840/155 
f 587/808/29 586/807/29 618/841/156 619/842/157 
s 64
f 607/828/13 575/794/13 588/809/42 620/843/42 
f 621/844/42 589/810/42 572/791/13 604/825/13 
s 8
f 603/824/43 571/790/43 560/779/35 592/813/35 
f 591/812/35 559/778/35 570/789/43 602/823/43 
s 32
f 611/832/40 579/798/40 574/793/41 606/827/41 
f 605/826/41 573/792/41 576/795/40 608/829/40 
s 2
f 622/845/31 444/634/31 443/633/48 623/846/48 
f 624/847/48 519/720/48 521/723/31 625/848/31 
s 16
f 626/849/29 452/642/29 451/641/28 627/850/28 
f 628/851/28 527/730/28 529/732/29 629/852/29 
f 630/853/14 487/854/141 476/669/138 631/855/29 
f 632/856/29 530/733/29 522/736/14 526/857/14 
f 631/855/29 476/669/138 538/747/29 633/858/29 
f 634/859/29 547/756/29 530/733/29 632/856/29 
s 64
f 623/860/48 443/644/48 455/647/42 635/861/42 
f 636/862/42 536/741/42 519/742/48 624/863/48 
f 507/705/42 506/704/42 637/864/158 638/865/159 
f 545/754/42 544/753/42 639/866/160 640/867/161 
s 16
f 535/740/29 534/739/29 641/868/162 642/869/163 
f 501/699/29 500/698/29 643/870/164 644/871/165 
s 2
f 627/872/28 451/757/28 444/634/31 622/845/31 
f 625/848/31 521/723/31 527/765/28 628/873/28 
s 64
f 645/874/9 549/769/9 550/768/42 646/875/42 
f 647/876/42 484/679/140 548/877/149 648/878/9 
s off
f 646/875/42 550/768/42 555/774/50 649/879/50 
f 650/880/50 540/749/42 484/679/140 647/876/42 
s 64
f 635/861/42 455/647/42 568/787/42 651/881/42 
f 652/882/42 588/809/42 536/741/42 636/862/42 
f 649/879/50 555/774/50 589/810/42 653/883/42 
f 654/884/50 567/786/42 540/749/42 650/880/50 
s 16
f 629/852/29 529/732/29 578/797/49 655/885/49 
f 656/886/49 565/784/29 452/642/29 626/849/29 
f 633/858/29 538/747/29 562/781/29 657/887/49 
f 658/888/29 577/796/29 547/756/29 634/859/29 
s 64
f 651/881/42 568/787/42 600/821/42 659/889/166 
f 660/890/167 620/843/42 588/809/42 652/882/42 
f 653/883/42 589/810/42 621/844/42 661/891/168 
f 662/892/169 599/820/42 567/786/42 654/884/50 
s 16
f 655/885/49 578/797/49 610/831/49 663/893/170 
f 664/894/171 597/818/29 565/784/29 656/886/49 
f 657/887/49 562/781/29 594/815/29 665/895/172 
f 666/896/173 609/830/29 577/796/29 658/888/29 
s 8
f 497/695/45 590/811/45 591/812/35 498/696/35 
f 499/697/35 592/813/35 593/814/45 496/694/45 
s 16
f 501/699/29 594/815/29 595/816/29 502/700/29 
f 503/701/29 596/817/29 597/818/29 500/698/29 
s 64
f 505/703/42 598/819/42 599/820/42 506/704/42 
f 507/705/42 600/821/42 601/822/42 504/702/42 
f 512/711/43 602/823/43 598/819/42 505/703/42 
f 504/702/42 601/822/42 603/824/43 511/710/43 
s 32
f 516/717/13 604/825/13 605/826/41 517/718/41 
f 518/719/41 606/827/41 607/828/13 515/716/13 
s 16
f 533/738/40 608/829/40 609/830/29 534/739/29 
f 535/740/29 610/831/49 611/832/40 532/737/40 
f 496/744/45 593/833/45 596/817/29 503/701/29 
f 502/700/29 595/816/29 590/834/45 497/743/45 
s 64
f 515/716/13 607/828/13 620/843/42 544/753/42 
f 545/754/42 621/844/42 604/825/13 516/717/13 
s 8
f 511/710/43 603/824/43 592/813/35 499/697/35 
f 498/696/35 591/812/35 602/823/43 512/711/43 
s 32
f 532/737/40 611/832/40 606/827/41 518/719/41 
f 517/718/41 605/826/41 608/829/40 533/738/40 
s 64
f 506/704/42 599/820/42 662/892/169 637/864/158 
f 638/865/159 659/889/166 600/821/42 507/705/42 
f 544/753/42 620/843/42 660/890/167 639/866/160 
f 640/867/161 661/891/168 621/844/42 545/754/42 
s 16
f 534/739/29 609/830/29 666/896/173 641/868/162 
f 642/869/163 663/893/170 610/831/49 535/740/29 
f 500/698/29 597/818/29 664/894/171 643/870/164 
f 644/871/165 665/895/172 594/815/29 501/699/29 
s 2
f 465/657/31 622/845/31 623/846/48 466/658/48 
f 467/659/48 624/847/48 625/848/31 464/656/31 
s 16
f 473/666/29 626/849/29 627/850/28 474/667/28 
f 475/668/28 628/851/28 629/852/29 472/665/29 
f 481/676/14 630/853/14 631/855/29 482/677/29 
f 483/678/29 632/856/29 526/857/14 480/675/14 
f 482/677/29 631/855/29 633/858/29 508/706/49 
f 509/707/49 634/859/29 632/856/29 483/678/29 
s 64
f 466/713/48 623/860/48 635/861/42 513/714/42 
f 514/715/42 636/862/42 624/863/48 467/712/48 
s 2
f 474/760/28 627/872/28 622/845/31 465/657/31 
f 464/656/31 625/848/31 628/873/28 475/759/28 
s 64
f 552/771/9 645/874/9 646/875/42 553/772/42 
f 554/773/42 647/876/42 648/878/9 551/770/9 
s off
f 553/772/42 646/875/42 649/879/50 556/775/42 
f 557/776/42 650/880/50 647/876/42 554/773/42 
s 64
f 513/714/42 635/861/42 651/881/42 580/801/42 
f 581/802/42 652/882/42 636/862/42 514/715/42 
f 556/775/42 649/879/50 653/883/42 582/803/42 
f 583/804/42 654/884/50 650/880/50 557/776/42 
s 16
f 472/665/29 629/852/29 655/885/49 584/805/29 
f 585/806/29 656/886/49 626/849/29 473/666/29 
f 508/706/49 633/858/29 657/887/49 586/807/29 
f 587/808/29 658/888/29 634/859/29 509/707/49 
s 64
f 580/801/42 651/881/42 659/889/166 612/835/150 
f 613/836/151 660/890/167 652/882/42 581/802/42 
f 582/803/42 653/883/42 661/891/168 614/837/152 
f 615/838/153 662/892/169 654/884/50 583/804/42 
s 16
f 584/805/29 655/885/49 663/893/170 616/839/154 
f 617/840/155 664/894/171 656/886/49 585/806/29 
f 586/807/29 657/887/49 665/895/172 618/841/156 
f 619/842/157 666/896/173 658/888/29 587/808/29 
s 1
f 613/897/151 612/898/150 617/899/155 616/900/154 
f 612/898/150 659/901/166 664/902/171 617/899/155 
f 659/901/166 638/903/159 643/904/164 664/902/171 
f 638/903/159 637/905/158 644/906/165 643/904/164 
f 637/905/158 662/907/169 665/908/172 644/906/165 
f 662/907/169 615/909/153 618/910/156 665/908/172 
f 615/911/153 614/912/152 619/913/157 618/914/156 
f 614/912/152 661/915/168 666/916/173 619/913/157 
f 661/915/168 640/917/161 641/918/162 666/916/173 
f 640/917/161 639/919/160 642/920/163 641/918/162 
f 639/919/160 660/921/167 663/922/170 642/920/163 
f 660/921/167 613/897/151 616/900/154 663/922/170 
s 16
f 527/730/28 494/692/146 493/691/145 
s 64
f 489/687/143 520/763/148 519/742/48 
s 2
f 667/923/48 668/924/48 669/925/28 670/926/28 
s 8
f 671/927/5 672/928/1 673/929/45 674/930/43 
s 16
f 670/931/28 669/932/28 675/933/174 676/934/49 
s 32
f 677/935/2 678/936/8 679/937/175 680/938/176 
s 64
f 668/939/48 667/940/48 681/941/42 682/942/177 
s 2
f 668/924/48 678/943/8 677/944/2 669/925/28 
f 670/926/28 672/928/1 671/927/5 667/923/48 
s 4
f 683/945/4 684/946/3 685/947/7 686/948/6 
f 687/949/178 688/950/6 689/951/4 690/952/179 
s 16
f 669/932/28 677/935/2 680/938/176 675/933/174 
f 690/953/179 689/954/4 691/955/45 692/956/29 
s 64
f 667/940/48 671/927/5 674/930/43 681/941/42 
f 686/957/6 685/958/7 693/959/13 694/960/180 
s 8
f 691/961/45 689/951/4 688/950/6 695/962/43 
s 16
f 696/963/181 690/953/179 692/956/29 
s 32
f 693/959/13 685/958/7 684/964/3 697/965/40 
s 64
f 698/966/42 687/967/178 694/960/180 
s 16
f 697/965/40 684/964/3 683/968/4 696/963/181 
f 691/955/45 699/969/45 700/970/29 692/956/29 
s 64
f 695/962/43 688/950/6 687/967/178 698/966/42 
f 693/959/13 701/971/182 702/972/42 694/960/180 
s off
f 686/948/6 694/973/180 696/974/181 683/945/4 
f 694/973/180 687/949/178 690/952/179 696/974/181 
s 8
f 699/975/45 691/961/45 695/962/43 703/976/43 
s 16
f 704/977/29 696/963/181 692/956/29 700/970/29 
s 32
f 701/971/182 693/959/13 697/965/40 705/978/183 
s 64
f 706/979/42 698/966/42 694/960/180 702/972/42 
s 16
f 705/978/183 697/965/40 696/963/181 704/977/29 
s 64
f 703/976/43 695/962/43 698/966/42 706/979/42 
s 16
f 699/969/45 673/980/45 676/934/49 700/970/29 
s 64
f 701/971/182 682/942/177 702/972/42 
s 8
f 673/929/45 699/975/45 703/976/43 674/930/43 
s 16
f 675/933/174 704/977/29 700/970/29 676/934/49 
s 64
f 681/941/42 706/979/42 702/972/42 682/942/177 
f 674/930/43 703/976/43 706/979/42 681/941/42 
s 16
f 673/980/45 672/981/1 670/931/28 676/934/49 
s 64
f 679/937/175 678/936/8 668/939/48 682/942/177 
s 16
f 705/978/183 704/977/29 675/933/174 
s off
f 705/978/183 675/933/174 682/942/177 701/971/182 
f 675/933/174 680/938/176 679/937/175 682/942/177 
s 4
f 707/982/184 708/983/28 709/984/48 710/985/185 
s 8
f 711/986/7 712/987/3 713/988/40 714/989/186 
s 32
f 715/990/4 716/991/6 717/992/43 718/993/187 
s 2
f 719/994/188 716/991/6 715/990/4 720/995/189 
f 721/996/190 712/997/3 711/998/7 722/999/191 
s 4
f 708/983/28 723/1000/1 724/1001/5 709/984/48 
s 16
f 720/1002/189 715/1003/4 718/1004/187 725/1005/192 
f 707/1006/184 726/1007/193 725/1005/192 
s 64
f 722/1008/191 711/986/7 714/989/186 727/1009/194 
f 709/1010/48 724/1001/5 717/992/43 727/1009/194 
s 8
f 713/988/40 726/1007/193 728/1011/195 714/989/186 
s 16
f 725/1005/192 708/1012/28 707/1006/184 
s 32
f 717/992/43 724/1001/5 723/1000/1 718/993/187 
s 64
f 727/1009/194 710/1013/185 709/1010/48 
s 16
f 718/1004/187 723/1014/1 708/1012/28 725/1005/192 
f 713/988/40 712/987/3 721/1015/190 725/1005/192 
s 64
f 714/989/186 728/1011/195 727/1009/194 
f 717/992/43 716/991/6 719/1016/188 727/1009/194 
s off
f 722/999/191 727/1017/194 725/1018/192 721/996/190 
f 727/1017/194 719/994/188 720/995/189 725/1018/192 
f 710/985/185 728/1019/195 726/1020/193 707/982/184 
s 16
f 726/1007/193 713/988/40 725/1005/192 
s 64
f 728/1011/195 710/1013/185 727/1009/194 
s 2
f 729/1021/5 730/1022/8 731/1023/2 732/1024/1 
s 4
f 733/1025/6 734/1026/4 735/1027/3 736/1028/7 
s 8
f 729/1021/5 732/1024/1 734/1026/4 733/1025/6 
s 16
f 732/1029/1 731/1030/2 735/1031/3 734/1032/4 
s 32
f 731/1030/2 730/1033/8 736/1034/7 735/1031/3 
s 64
f 730/1033/8 729/1021/5 733/1025/6 736/1034/7 
s 2
f 737/1035/1 738/1036/2 739/1037/3 740/1038/4 
s 4
f 741/1039/5 742/1040/6 743/1041/7 744/1042/8 
s 8
f 737/1035/1 740/1038/4 742/1043/6 741/1044/5 
s 16
f 740/1038/4 739/1037/3 743/1041/7 742/1040/6 
s 32
f 739/1037/3 738/1036/2 744/1045/8 743/1046/7 
s 64
f 738/1036/2 737/1035/1 741/1047/5 744/1048/8 
s 4
f 524/727/10 549/767/9 645/1049/9 525/728/10 
f 525/728/10 745/1050/10 480/1051/14 526/729/14 
f 645/1049/9 552/1052/9 745/1050/10 525/728/10 
f 745/1050/10 746/1053/196 481/1054/14 480/1051/14 
f 552/1052/9 551/1055/9 746/1053/196 745/1050/10 
f 746/1053/196 747/1056/10 630/1057/14 481/1054/14 
f 551/1055/9 648/1058/9 747/1056/10 746/1053/196 
f 747/1056/10 488/686/142 487/685/141 630/1057/14 
f 648/1058/9 548/762/149 488/686/142 747/1056/10 
f 91/109/31 116/149/48 212/1059/48 92/110/31 
f 92/110/31 748/1060/197 47/1061/28 93/111/28 
f 212/1059/48 119/1062/48 748/1060/197 92/110/31 
f 748/1060/197 749/1063/198 48/1064/28 47/1061/28 
f 119/1062/48 118/1065/48 749/1063/198 748/1060/197 
f 749/1063/198 750/1066/198 197/1067/28 48/1064/28 
f 118/1065/48 215/1068/48 750/1066/198 749/1063/198 
f 750/1066/198 55/70/33 54/69/32 197/1067/28 
f 215/1068/48 115/144/47 55/70/33 750/1066/198 
# 721 polygons - 26 triangles

