# 3ds Max Wavefront OBJ Exporter v0.97b - (c)2007 guruware
# File Created: 19.11.2019 14:47:05

mtllib fence 3.mtl

#
# object fence_003
#

v  2.1450 65.1756 49.8140
v  2.1450 65.1756 -49.5702
v  2.1450 68.9276 -49.5702
v  2.1450 68.9276 49.8140
v  0.6196 65.1756 49.8140
v  0.6196 68.9276 49.8140
v  0.6196 68.9276 -49.5702
v  0.6196 65.1756 -49.5702
v  -0.9843 0.0000 48.5337
v  -0.9843 0.0000 38.6912
v  0.9843 0.0000 38.6912
v  0.9843 0.0000 48.5337
v  -0.9843 78.7402 48.5337
v  0.9842 78.7402 48.5337
v  0.9842 78.7402 38.6912
v  -0.9843 78.7402 38.6912
v  -0.9843 0.0000 29.8727
v  -0.9843 0.0000 29.3102
v  0.9843 0.0000 29.3102
v  0.9843 0.0000 29.8727
v  0.9842 68.6614 37.0239
v  0.9842 69.3123 36.8126
v  -0.9843 69.3123 36.8126
v  -0.9843 68.6614 37.0239
v  0.9842 69.3123 29.0057
v  0.9842 69.3123 29.5313
v  0.9842 68.6614 29.6429
v  0.9842 68.6614 29.1053
v  -0.9843 68.6614 27.6161
v  -0.9843 69.3123 27.6161
v  0.9842 69.3123 27.6161
v  0.9842 68.6614 27.6161
v  -0.9843 69.3123 29.5313
v  -0.9843 69.3123 29.0057
v  -0.9843 68.6614 29.1053
v  -0.9843 68.6614 29.6429
v  0.9842 70.6142 37.4586
v  0.9842 78.7402 37.4586
v  -0.9843 78.7402 37.4586
v  -0.9843 70.6142 37.4586
v  0.9842 69.9633 37.0239
v  -0.9843 69.9633 37.0239
v  -0.9843 68.0105 37.4586
v  -0.9843 0.0000 37.4586
v  0.9843 0.0000 37.4586
v  0.9842 68.0105 37.4586
v  0.9842 70.6142 29.5915
v  0.9842 69.9633 29.6429
v  0.9842 69.9633 29.1053
v  0.9842 68.0105 29.3102
v  0.9842 68.0105 29.8727
v  -0.9843 70.6142 27.6161
v  -0.9843 78.7402 27.6161
v  0.9842 78.7402 27.6161
v  0.9842 70.6142 27.6161
v  -0.9843 69.9633 27.6161
v  0.9842 69.9633 27.6161
v  0.9842 68.0105 27.6161
v  0.9843 0.0000 27.6161
v  -0.9843 0.0000 27.6161
v  -0.9843 68.0105 27.6161
v  -0.9843 70.6142 29.5915
v  -0.9843 69.9633 29.1053
v  -0.9843 69.9633 29.6429
v  -0.9843 68.0105 29.8727
v  -0.9843 68.0105 29.3102
v  0.9842 78.7402 29.3102
v  -0.9843 78.7402 29.3102
v  -0.9843 78.7402 29.8727
v  0.9842 78.7402 29.8727
v  -0.9843 0.0000 26.5021
v  -0.9843 0.0000 16.6596
v  0.9843 0.0000 16.6596
v  0.9843 0.0000 26.5021
v  -0.9843 78.0040 26.5021
v  0.9842 78.0040 26.5021
v  0.9842 78.0040 16.6596
v  -0.9843 78.0040 16.6596
v  -0.9843 78.9588 12.6646
v  -0.9843 78.9588 13.2271
v  0.9843 78.9588 13.2271
v  0.9843 78.9588 12.6646
v  0.9843 10.2974 5.5135
v  0.9843 9.6465 5.7247
v  -0.9842 9.6465 5.7247
v  -0.9842 10.2974 5.5135
v  0.9843 9.6465 13.5316
v  0.9843 9.6465 13.0061
v  0.9843 10.2974 12.8944
v  0.9843 10.2974 13.4320
v  -0.9842 10.2974 14.9213
v  -0.9842 9.6465 14.9213
v  0.9843 9.6465 14.9213
v  0.9843 10.2974 14.9213
v  -0.9842 9.6465 13.0061
v  -0.9842 9.6465 13.5316
v  -0.9842 10.2974 13.4320
v  -0.9842 10.2974 12.8944
v  0.9843 8.3446 5.0788
v  0.9843 0.2186 5.0788
v  -0.9842 0.2186 5.0788
v  -0.9842 8.3446 5.0788
v  0.9843 8.9955 5.5135
v  -0.9842 8.9955 5.5135
v  -0.9842 10.9483 5.0788
v  -0.9843 78.9588 5.0787
v  0.9843 78.9588 5.0787
v  0.9843 10.9483 5.0788
v  0.9843 8.3446 12.9459
v  0.9843 8.9955 12.8944
v  0.9843 8.9955 13.4320
v  0.9843 10.9483 13.2271
v  0.9843 10.9483 12.6646
v  -0.9842 8.3446 14.9213
v  -0.9842 0.2186 14.9213
v  0.9843 0.2186 14.9213
v  0.9843 8.3446 14.9213
v  -0.9842 8.9955 14.9213
v  0.9843 8.9955 14.9213
v  0.9843 10.9483 14.9213
v  0.9843 78.9588 14.9213
v  -0.9843 78.9588 14.9213
v  -0.9842 10.9483 14.9213
v  -0.9842 8.3446 12.9459
v  -0.9842 8.9955 13.4320
v  -0.9842 8.9955 12.8944
v  -0.9842 10.9483 12.6646
v  -0.9842 10.9483 13.2271
v  0.9843 0.2186 13.2271
v  -0.9842 0.2186 13.2271
v  -0.9842 0.2186 12.6646
v  0.9843 0.2186 12.6646
v  0.9843 77.9345 1.4570
v  0.9843 77.9345 0.4483
v  -0.9843 77.9345 0.4483
v  -0.9843 77.9345 1.4570
v  -0.9843 2.5214 4.3507
v  0.9843 2.5214 4.3507
v  0.9843 19.8664 4.3507
v  -0.9843 19.8664 4.3507
v  0.9843 2.5214 -5.4918
v  -0.9843 2.5214 -5.4918
v  -0.9843 19.8664 -5.4918
v  0.9843 19.8664 -5.4918
v  -0.9843 2.5214 0.4483
v  0.9843 2.5214 0.4483
v  0.9843 2.5214 1.4570
v  -0.9843 2.5214 1.4570
v  0.9843 77.9345 -5.4918
v  -0.9843 77.9345 -5.4918
v  0.9843 19.8664 0.9526
v  0.9843 74.1127 4.3507
v  -0.9843 19.8664 0.9526
v  -0.9843 74.1481 4.3507
v  -0.9843 0.0000 -6.3338
v  -0.9843 0.0000 -16.1763
v  0.9843 0.0000 -16.1763
v  0.9843 0.0000 -6.3338
v  -0.9843 78.7402 -6.3338
v  0.9842 78.7402 -6.3338
v  0.9842 78.7402 -16.1763
v  -0.9843 78.7402 -16.1763
v  0.9843 1.6930 -23.9323
v  0.9843 1.6930 -22.9236
v  -0.9843 1.6930 -22.9236
v  -0.9843 1.6930 -23.9323
v  -0.9843 77.1061 -26.8261
v  0.9843 77.1061 -26.8261
v  0.9843 59.7611 -26.8261
v  -0.9843 59.7611 -26.8261
v  0.9843 77.1061 -16.9836
v  -0.9843 77.1061 -16.9836
v  -0.9843 59.7611 -16.9836
v  0.9843 59.7611 -16.9836
v  -0.9843 77.1061 -22.9236
v  0.9843 77.1061 -22.9236
v  0.9843 77.1061 -23.9323
v  -0.9843 77.1061 -23.9323
v  0.9843 1.6930 -16.9836
v  -0.9843 1.6930 -16.9836
v  0.9843 59.7611 -23.4280
v  0.9843 5.5148 -26.8261
v  -0.9843 59.7611 -23.4280
v  -0.9843 5.4794 -26.8261
v  0.9843 3.3270 -34.7020
v  0.9843 3.3270 -33.6933
v  -0.9843 3.3270 -33.6933
v  -0.9843 3.3270 -34.7020
v  -0.9843 78.7402 -37.5957
v  0.9843 78.7402 -37.5957
v  0.9843 61.3951 -37.5957
v  -0.9843 61.3951 -37.5957
v  0.9843 78.7402 -27.7532
v  -0.9843 78.7402 -27.7532
v  -0.9843 61.3951 -27.7532
v  0.9843 61.3951 -27.7532
v  -0.9843 78.7402 -33.6932
v  0.9843 78.7402 -33.6932
v  0.9843 78.7402 -34.7019
v  -0.9843 78.7402 -34.7019
v  0.9843 3.3270 -27.7532
v  -0.9843 3.3270 -27.7532
v  0.9843 61.3951 -34.1976
v  0.9843 7.1489 -37.5957
v  -0.9843 61.3951 -34.1976
v  -0.9843 7.1134 -37.5957
v  -0.9843 0.0000 -38.3971
v  -0.9843 0.0000 -48.2396
v  0.9843 0.0000 -48.2396
v  0.9843 0.0000 -38.3971
v  -0.9843 78.7402 -38.3971
v  0.9842 78.7402 -38.3971
v  0.9842 78.7402 -48.2396
v  -0.9843 78.7402 -48.2396
v  2.1450 16.3850 49.8140
v  2.1450 16.3850 -49.5702
v  2.1450 20.1370 -49.5702
v  2.1450 20.1370 49.8140
v  0.6196 16.3850 49.8140
v  0.6196 20.1370 49.8140
v  0.6196 20.1370 -49.5702
v  0.6196 16.3850 -49.5702
# 222 vertices

vn 0.5774 -0.5774 0.5774
vn 0.5774 -0.5774 -0.5774
vn 0.5774 0.5774 -0.5774
vn 0.5774 0.5774 0.5774
vn -0.5774 -0.5774 0.5774
vn -0.5774 0.5774 0.5774
vn -0.5774 0.5774 -0.5774
vn -0.5774 -0.5774 -0.5774
vn -0.7071 -0.7071 -0.0000
vn 0.7071 -0.7071 -0.0000
vn 0.7382 0.2824 0.6126
vn 0.7798 0.0000 0.6260
vn -0.7798 -0.0000 0.6261
vn -0.7382 0.2824 0.6126
vn 1.0000 0.0000 -0.0000
vn -0.7071 -0.0000 -0.7071
vn 0.7071 0.0000 -0.7071
vn -1.0000 -0.0000 -0.0000
vn 0.6494 -0.2119 0.7303
vn -0.6494 -0.2119 0.7303
vn 0.7383 -0.2824 0.6126
vn -0.7382 -0.2824 0.6126
vn -0.6494 0.2119 0.7303
vn 0.6494 0.2119 0.7303
vn 0.9999 0.0166 -0.0000
vn -0.9999 0.0166 -0.0000
vn 0.5791 0.5859 0.5669
vn -0.5791 0.5859 0.5669
vn -0.5791 0.5859 -0.5669
vn 0.5791 0.5859 -0.5669
vn -0.7071 0.7071 -0.0000
vn 0.7071 0.7071 -0.0000
vn 0.7383 -0.2824 -0.6126
vn 0.7797 -0.0000 -0.6261
vn -0.7798 0.0000 -0.6261
vn -0.7382 -0.2824 -0.6127
vn -0.7071 -0.0000 0.7071
vn 0.7071 0.0000 0.7071
vn -1.0000 -0.0000 0.0000
vn 0.6494 0.2119 -0.7303
vn -0.6494 0.2119 -0.7303
vn 0.7382 0.2824 -0.6126
vn -0.7383 0.2824 -0.6126
vn -0.6494 -0.2119 -0.7303
vn 0.6494 -0.2119 -0.7303
vn 0.9999 -0.0166 -0.0000
vn -0.7071 0.0000 0.7071
vn -0.9999 -0.0166 -0.0000
vn 0.5791 -0.5859 -0.5669
vn -0.5791 -0.5859 -0.5669
vn -0.5791 -0.5859 0.5669
vn 0.5791 -0.5859 0.5669
vn 0.6174 0.7000 0.3590
vn -0.6177 0.7005 0.3573
vn -0.5788 -0.5845 0.5686
vn 0.5788 -0.5845 0.5686
vn 0.5788 -0.5845 -0.5686
vn -0.5788 -0.5845 -0.5686
vn 0.9999 -0.0139 -0.0000
vn 0.6462 0.2315 0.7272
vn -0.9999 -0.0139 -0.0000
vn -0.6417 0.2392 0.7287
vn 0.6174 -0.7000 -0.3590
vn -0.6177 -0.7005 -0.3573
vn 0.7071 -0.0000 -0.7071
vn -0.5788 0.5845 -0.5687
vn 0.5789 0.5846 -0.5685
vn 0.5788 0.5845 0.5686
vn -0.5788 0.5845 0.5686
vn 0.9999 0.0139 -0.0001
vn 0.6462 -0.2315 -0.7272
vn -0.9999 0.0139 0.0001
vn -0.6417 -0.2392 -0.7287
vn -0.7071 0.0000 -0.7071
vn 0.7071 -0.0000 0.7071
vn -0.5788 0.5845 -0.5686
vn 0.5788 0.5845 -0.5686
vn 0.5789 0.5846 0.5685
vn -0.5788 0.5845 0.5687
vn 0.9999 0.0139 0.0001
vn -0.9999 0.0139 -0.0001
# 81 vertex normals

vt 0.9130 0.0130 -0.4506
vt 0.9130 0.5182 -0.4506
vt 0.8930 0.5182 0.4506
vt 0.8930 0.0130 0.4506
vt 0.8640 0.0130 0.4506
vt 0.8841 0.0130 0.4506
vt 0.8841 0.5182 0.4506
vt 0.8640 0.5182 0.4506
vt 0.8930 0.0048 0.4506
vt 0.9130 0.0048 0.4506
vt 0.9130 0.5263 0.4506
vt 0.8930 0.5263 0.4506
vt 0.9219 0.0130 0.4506
vt 0.9219 0.5182 0.4506
vt 0.4461 0.8603 0.4857
vt 0.3950 0.8603 -0.4857
vt 0.3950 0.8496 -0.4857
vt 0.4461 0.8496 -0.4857
vt 0.8765 0.8603 0.4857
vt 0.8765 0.8496 -0.4857
vt 0.9276 0.8496 -0.4857
vt 0.9276 0.8603 -0.4857
vt 0.4461 0.9732 -0.4857
vt 0.4461 0.9222 -0.4857
vt 0.8765 0.9222 -0.4857
vt 0.8765 0.9732 -0.4857
vt 0.4461 0.9114 -0.4857
vt 0.8765 0.9114 -0.4857
vt 0.2135 0.5481 -0.4761
vt 0.2107 0.5481 -0.4761
vt 0.2107 0.5376 -0.4761
vt 0.2136 0.5377 -0.4761
vt 0.6160 0.5406 -0.4761
vt 0.6195 0.5408 -0.4761
vt 0.6193 0.5526 -0.4761
vt 0.6151 0.5519 -0.4761
vt 0.6185 0.6252 -0.4761
vt 0.6185 0.6282 -0.4761
vt 0.6146 0.6289 -0.4761
vt 0.6146 0.6257 -0.4761
vt 0.6149 0.6063 -0.4761
vt 0.6187 0.6063 -0.4761
vt 0.6186 0.6176 -0.4761
vt 0.6148 0.6175 -0.4761
vt 0.6187 0.5958 -0.4761
vt 0.6187 0.5987 -0.4761
vt 0.6149 0.5982 -0.4761
vt 0.6150 0.5951 -0.4761
vt 0.6268 0.5403 -0.4761
vt 0.6726 0.5364 -0.4761
vt 0.6735 0.5483 0.4761
vt 0.6278 0.5505 -0.4761
vt 0.6229 0.5407 -0.4761
vt 0.6236 0.5519 -0.4761
vt 0.6110 0.5505 -0.4761
vt 0.2516 0.5483 0.4761
vt 0.2517 0.5379 -0.4761
vt 0.6116 0.5402 -0.4761
vt 0.6261 0.6285 -0.4761
vt 0.6223 0.6288 -0.4761
vt 0.6223 0.6258 -0.4761
vt 0.2509 0.6266 -0.4761
vt 0.2510 0.6203 -0.4761
vt 0.6106 0.6266 -0.4761
vt 0.6105 0.6305 -0.4761
vt 0.6262 0.6064 -0.4761
vt 0.6729 0.6066 -0.4761
vt 0.6729 0.6179 -0.4761
vt 0.6261 0.6177 -0.4761
vt 0.6224 0.6063 -0.4761
vt 0.6223 0.6176 -0.4761
vt 0.6111 0.6174 -0.4761
vt 0.2511 0.6118 -0.4761
vt 0.2513 0.6014 -0.4761
vt 0.6112 0.6064 -0.4761
vt 0.6262 0.5956 -0.4761
vt 0.6225 0.5982 -0.4761
vt 0.6225 0.5953 -0.4761
vt 0.2514 0.5929 -0.4761
vt 0.2515 0.5866 -0.4761
vt 0.6109 0.5934 -0.4761
vt 0.6109 0.5972 -0.4761
vt 0.2022 0.5480 -0.4761
vt 0.2022 0.5376 -0.4761
vt 0.8149 0.5253 -0.4761
vt 0.8247 0.5246 -0.4761
vt 0.8256 0.5365 -0.4761
vt 0.8158 0.5373 -0.4761
vt 0.7172 0.5449 -0.4761
vt 0.7162 0.5330 -0.4761
vt 0.6186 0.6687 -0.4761
vt 0.6148 0.6699 -0.4761
vt 0.6737 0.6299 -0.4761
vt 0.6739 0.6721 -0.4761
vt 0.6262 0.6723 -0.4761
vt 0.6729 0.6271 -0.4761
vt 0.6224 0.6699 -0.4761
vt 0.6111 0.6723 -0.4761
vt 0.2501 0.6648 -0.4761
vt 0.6730 0.5973 -0.4761
vt 0.6755 0.5927 -0.4761
vt 0.7665 0.5411 -0.4761
vt 0.7656 0.5291 -0.4761
vt 0.8446 0.0608 0.4812
vt 0.8446 0.0097 -0.4812
vt 0.8554 0.0097 -0.4812
vt 0.8554 0.0608 -0.4812
vt 0.8446 0.4872 0.4812
vt 0.8554 0.4872 -0.4812
vt 0.8554 0.5383 -0.4812
vt 0.8446 0.5383 -0.4812
vt 0.7318 0.0608 -0.4812
vt 0.7828 0.0608 -0.4812
vt 0.7828 0.4872 -0.4812
vt 0.7318 0.4872 -0.4812
vt 0.7936 0.0608 -0.4812
vt 0.7936 0.4872 -0.4812
vt 0.9400 0.6997 -0.4733
vt 0.9372 0.6997 -0.4733
vt 0.9371 0.6893 -0.4733
vt 0.9400 0.6893 -0.4733
vt 0.5655 0.7679 -0.4733
vt 0.5611 0.7687 -0.4733
vt 0.5612 0.7550 -0.4733
vt 0.5654 0.7556 -0.4733
vt 0.5625 0.8156 -0.4733
vt 0.5625 0.8127 -0.4733
vt 0.5663 0.8119 -0.4733
vt 0.5664 0.8151 -0.4733
vt 0.5661 0.7008 -0.4733
vt 0.5624 0.7008 -0.4733
vt 0.5626 0.6899 -0.4733
vt 0.5662 0.6899 -0.4733
vt 0.5622 0.7112 -0.4733
vt 0.5623 0.7083 -0.4733
vt 0.5661 0.7089 -0.4733
vt 0.5660 0.7120 -0.4733
vt 0.5527 0.7671 -0.4733
vt 0.5054 0.7681 -0.4733
vt 0.5053 0.7559 -0.4733
vt 0.5523 0.7568 -0.4733
vt 0.5569 0.7682 -0.4733
vt 0.5568 0.7556 -0.4733
vt 0.5695 0.7568 -0.4733
vt 0.9292 0.7525 -0.4733
vt 0.9293 0.7640 -0.4733
vt 0.5699 0.7666 -0.4733
vt 0.5549 0.8126 -0.4733
vt 0.5587 0.8122 -0.4733
vt 0.5588 0.8151 -0.4733
vt 0.9295 0.8056 -0.4733
vt 0.9295 0.8119 -0.4733
vt 0.5704 0.8141 -0.4733
vt 0.5704 0.8102 -0.4733
vt 0.5551 0.7007 -0.4733
vt 0.5093 0.6997 0.4732
vt 0.5096 0.6886 -0.4733
vt 0.5553 0.6897 -0.4733
vt 0.5587 0.7008 -0.4733
vt 0.5589 0.6898 -0.4733
vt 0.5698 0.6900 -0.4733
vt 0.9287 0.6893 -0.4733
vt 0.9287 0.6997 0.4733
vt 0.5697 0.7008 -0.4733
vt 0.5548 0.7113 -0.4733
vt 0.5586 0.7088 -0.4733
vt 0.5585 0.7117 -0.4733
vt 0.9287 0.7082 -0.4733
vt 0.9287 0.7144 -0.4733
vt 0.5700 0.7137 -0.4733
vt 0.5701 0.7099 -0.4733
vt 0.9780 0.6892 -0.4733
vt 0.9780 0.6996 -0.4733
vt 0.5005 0.6884 -0.4733
vt 0.5002 0.6995 -0.4733
vt 0.4088 0.6973 -0.4733
vt 0.3683 0.6963 -0.4733
vt 0.3685 0.6852 -0.4733
vt 0.4090 0.6862 -0.4733
vt 0.5664 0.8233 -0.4733
vt 0.5626 0.8233 -0.4733
vt 0.5061 0.8121 -0.4733
vt 0.5551 0.8234 -0.4733
vt 0.5080 0.8242 -0.4733
vt 0.5079 0.8149 -0.4733
vt 0.5589 0.8234 -0.4733
vt 0.9296 0.8204 -0.4733
vt 0.5702 0.8232 -0.4733
vt 0.5091 0.7087 -0.4733
vt 0.5059 0.7119 -0.4733
vt 0.4545 0.6984 -0.4733
vt 0.4548 0.6873 -0.4733
vt 0.0173 0.0570 -0.4652
vt 0.0173 0.0518 -0.4652
vt 0.0280 0.0517 -0.4652
vt 0.0280 0.0570 -0.4652
vt 0.0281 0.4740 0.4652
vt 0.0174 0.4740 -0.4652
vt 0.0174 0.3792 -0.4652
vt 0.0281 0.3792 -0.4652
vt 0.0898 0.4741 -0.4652
vt 0.0791 0.4741 -0.4652
vt 0.0792 0.3793 -0.4652
vt 0.0899 0.3793 -0.4652
vt 0.0283 0.6789 -0.4652
vt 0.0283 0.7097 -0.4652
vt 0.0176 0.7097 -0.4652
vt 0.0175 0.6789 -0.4652
vt 0.0174 0.4891 -0.4652
vt 0.0281 0.4890 -0.4652
vt 0.0172 0.0209 -0.4652
vt 0.0279 0.0209 -0.4652
vt 0.1207 0.4741 -0.4652
vt 0.1234 0.3793 -0.4652
vt 0.1266 0.0619 -0.4652
vt 0.1416 0.0828 -0.4652
vt 0.0431 0.4740 -0.4652
vt 0.0458 0.3792 -0.4652
vt 0.0487 0.0618 -0.4652
vt 0.0795 0.0619 -0.4652
vt 0.0174 0.0827 -0.4652
vt 0.0281 0.0825 0.4652
vt 0.1211 0.0619 -0.4652
vt 0.0903 0.0619 -0.4652
vt 0.0431 0.0618 -0.4652
vt 0.1410 0.3793 -0.4652
vt 0.1408 0.4741 -0.4652
vt 0.1258 0.4741 -0.4652
vt 0.0483 0.4740 -0.4652
vt 0.0282 0.5839 -0.4652
vt 0.0174 0.5840 -0.4652
vt 0.2199 0.1632 0.4857
vt 0.1688 0.1632 -0.4857
vt 0.1688 0.1525 -0.4857
vt 0.2199 0.1525 -0.4857
vt 0.6503 0.1632 0.4857
vt 0.6503 0.1525 -0.4857
vt 0.7014 0.1525 -0.4857
vt 0.7014 0.1632 -0.4857
vt 0.2199 0.2761 -0.4857
vt 0.2199 0.2250 -0.4857
vt 0.6503 0.2250 -0.4857
vt 0.6503 0.2761 -0.4857
vt 0.2199 0.2143 -0.4857
vt 0.6503 0.2143 -0.4857
vt 0.1679 0.9371 -0.4651
vt 0.1679 0.9319 -0.4651
vt 0.1572 0.9319 -0.4651
vt 0.1572 0.9371 -0.4651
vt 0.1062 0.4888 -0.4651
vt 0.0954 0.4888 -0.4651
vt 0.0953 0.5836 -0.4651
vt 0.1061 0.5836 -0.4651
vt 0.1679 0.4889 -0.4651
vt 0.1572 0.4889 0.4651
vt 0.1571 0.5837 -0.4651
vt 0.1679 0.5837 -0.4651
vt 0.1572 0.4580 -0.4651
vt 0.1679 0.4580 -0.4651
vt 0.1681 0.2681 -0.4651
vt 0.1681 0.2531 -0.4651
vt 0.1574 0.2531 -0.4651
vt 0.1574 0.2681 -0.4651
vt 0.1679 0.9010 -0.4651
vt 0.1572 0.9010 0.4651
vt 0.0753 0.4888 -0.4651
vt 0.0444 0.4888 -0.4651
vt 0.0443 0.5836 -0.4651
vt 0.0777 0.5836 -0.4651
vt 0.0800 0.9010 -0.4651
vt 0.0950 0.8801 -0.4651
vt 0.1212 0.4889 -0.4651
vt 0.1237 0.5837 -0.4651
vt 0.1263 0.9010 -0.4651
vt 0.1058 0.8803 -0.4651
vt 0.0745 0.9010 -0.4651
vt 0.1208 0.9010 -0.4651
vt 0.0437 0.9009 -0.4651
vt 0.0804 0.4888 -0.4651
vt 0.1263 0.4888 -0.4651
vt 0.1573 0.3631 -0.4651
vt 0.1680 0.3631 -0.4651
vt 0.1572 0.9627 -0.4651
vt 0.1679 0.9628 -0.4651
vt 0.1385 0.0120 -0.4651
vt 0.1437 0.0120 -0.4651
vt 0.1437 0.0228 -0.4651
vt 0.1385 0.0228 -0.4651
vt 0.5867 0.0738 -0.4651
vt 0.5868 0.0845 -0.4651
vt 0.4920 0.0846 -0.4651
vt 0.4919 0.0739 -0.4651
vt 0.5867 0.0120 -0.4651
vt 0.5867 0.0228 0.4651
vt 0.4919 0.0228 -0.4651
vt 0.4919 0.0121 -0.4651
vt 0.6176 0.0228 -0.4651
vt 0.6176 0.0120 -0.4651
vt 0.8075 0.0122 -0.4651
vt 0.8225 0.0122 -0.4651
vt 0.8225 0.0230 -0.4651
vt 0.8075 0.0230 -0.4651
vt 0.1745 0.0120 -0.4651
vt 0.1745 0.0228 0.4651
vt 0.5868 0.1047 -0.4651
vt 0.5868 0.1355 -0.4651
vt 0.4920 0.1357 -0.4651
vt 0.4920 0.1023 -0.4651
vt 0.1746 0.0999 -0.4651
vt 0.1955 0.0849 -0.4651
vt 0.5867 0.0588 -0.4651
vt 0.4919 0.0562 -0.4651
vt 0.1745 0.0536 -0.4651
vt 0.1953 0.0741 -0.4651
vt 0.1746 0.1055 -0.4651
vt 0.1745 0.0592 -0.4651
vt 0.1747 0.1363 -0.4651
vt 0.5868 0.0995 -0.4651
vt 0.5867 0.0536 -0.4651
vt 0.7125 0.0229 -0.4651
vt 0.7125 0.0121 -0.4651
vt 0.1129 0.0228 -0.4651
vt 0.1128 0.0120 -0.4651
vt 0.2355 0.3224 0.4857
vt 0.1844 0.3224 -0.4857
vt 0.1844 0.3116 -0.4857
vt 0.2355 0.3116 -0.4857
vt 0.6659 0.3224 0.4857
vt 0.6659 0.3116 -0.4857
vt 0.7170 0.3116 -0.4857
vt 0.7170 0.3224 -0.4857
vt 0.2355 0.4353 -0.4857
vt 0.2355 0.3842 -0.4857
vt 0.6659 0.3842 -0.4857
vt 0.6659 0.4353 -0.4857
vt 0.2355 0.3735 -0.4857
vt 0.6659 0.3735 -0.4857
vt 0.9818 0.0130 -0.4506
vt 0.9818 0.5182 -0.4506
vt 0.9617 0.5182 0.4506
vt 0.9617 0.0130 0.4506
vt 0.9328 0.0130 0.4506
vt 0.9529 0.0130 0.4506
vt 0.9529 0.5182 0.4506
vt 0.9328 0.5182 0.4506
vt 0.9617 0.0048 0.4506
vt 0.9818 0.0048 0.4506
vt 0.9818 0.5263 0.4506
vt 0.9617 0.5263 0.4506
vt 0.9906 0.0130 0.4506
vt 0.9906 0.5182 0.4506
# 351 texture coords

o fence_003
g fence_003
usemtl 03___Default
s 2
f 1/1/1 2/2/2 3/3/3 4/4/4 
s 4
f 5/5/5 6/6/6 7/7/7 8/8/8 
s 8
f 1/1/1 4/4/4 6/9/6 5/10/5 
s 16
f 4/4/4 3/3/3 7/7/7 6/6/6 
s 32
f 3/3/3 2/2/2 8/11/8 7/12/7 
s 64
f 2/2/2 1/1/1 5/13/5 8/14/8 
s 2
f 9/15/5 10/16/8 11/17/2 12/18/1 
s 4
f 13/19/6 14/20/4 15/21/3 16/22/7 
s 8
f 9/15/5 12/18/1 14/20/4 13/19/6 
s 16
f 12/23/1 11/24/2 15/25/3 14/26/4 
s 32
f 11/24/2 10/27/8 16/28/7 15/25/3 
s 64
f 10/27/8 9/15/5 13/19/6 16/28/7 
s 2
f 17/29/9 18/30/9 19/31/10 20/32/10 
s 8
f 21/33/11 22/34/12 23/35/13 24/36/14 
s 16
f 25/37/15 26/38/15 27/39/15 28/40/15 
s 32
f 29/41/16 30/42/16 31/43/17 32/44/17 
s 64
f 33/45/18 34/46/18 35/47/18 36/48/18 
s 8
f 37/49/19 38/50/4 39/51/6 40/52/20 
f 41/53/21 37/49/19 40/52/20 42/54/22 
f 22/34/12 41/53/21 42/54/22 23/35/13 
f 43/55/23 44/56/5 45/57/1 46/58/24 
f 24/36/14 43/55/23 46/58/24 21/33/11 
s 16
f 47/59/25 48/60/15 49/61/15 
f 49/61/15 48/60/15 26/38/15 25/37/15 
f 20/62/10 19/63/10 50/64/15 51/65/15 
f 51/65/15 50/64/15 28/40/15 27/39/15 
s 32
f 52/66/16 53/67/7 54/68/3 55/69/17 
f 56/70/16 52/66/16 55/69/17 57/71/17 
f 30/42/16 56/70/16 57/71/17 31/43/17 
f 58/72/17 59/73/2 60/74/8 61/75/16 
f 32/44/17 58/72/17 61/75/16 29/41/16 
s 64
f 62/76/26 63/77/18 64/78/18 
f 64/78/18 63/77/18 34/46/18 33/45/18 
f 18/79/9 17/80/9 65/81/18 66/82/18 
f 66/82/18 65/81/18 36/48/18 35/47/18 
s 2
f 18/30/9 60/83/8 59/84/2 19/31/10 
f 20/32/10 45/57/1 44/56/5 17/29/9 
s 4
f 67/85/27 54/86/3 53/87/7 68/88/28 
f 69/89/29 39/51/6 38/50/4 70/90/30 
s 16
f 26/38/15 22/91/12 21/92/11 27/39/15 
f 28/40/15 32/44/17 31/43/17 25/37/15 
s 64
f 34/46/18 30/42/16 29/41/16 35/47/18 
f 36/48/18 24/36/14 23/35/13 33/45/18 
s 16
f 70/93/30 38/94/4 37/95/19 47/59/25 
f 47/59/25 55/69/17 54/68/3 67/96/27 
f 47/59/25 37/95/19 41/97/21 48/60/15 
f 49/61/15 57/71/17 55/69/17 47/59/25 
f 48/60/15 41/97/21 22/91/12 26/38/15 
f 25/37/15 31/43/17 57/71/17 49/61/15 
f 19/63/10 59/73/2 58/72/17 50/64/15 
f 51/65/15 46/98/24 45/99/1 20/62/10 
f 50/64/15 58/72/17 32/44/17 28/40/15 
f 27/39/15 21/92/11 46/98/24 51/65/15 
s 64
f 68/100/28 53/67/7 52/66/16 62/76/26 
f 62/76/26 40/52/20 39/51/6 69/101/29 
f 62/76/26 52/66/16 56/70/16 63/77/18 
f 64/78/18 42/54/22 40/52/20 62/76/26 
f 63/77/18 56/70/16 30/42/16 34/46/18 
f 33/45/18 23/35/13 42/54/22 64/78/18 
f 17/80/9 44/56/5 43/55/23 65/81/18 
f 66/82/18 61/75/16 60/74/8 18/79/9 
f 65/81/18 43/55/23 24/36/14 36/48/18 
f 35/47/18 29/41/16 61/75/16 66/82/18 
s off
f 68/88/28 62/102/26 47/103/25 67/85/27 
f 62/102/26 69/89/29 70/90/30 47/103/25 
s 2
f 71/104/5 72/105/8 73/106/2 74/107/1 
s 4
f 75/108/6 76/109/4 77/110/3 78/111/7 
s 8
f 71/104/5 74/107/1 76/109/4 75/108/6 
s 16
f 74/112/1 73/113/2 77/114/3 76/115/4 
s 32
f 73/113/2 72/116/8 78/117/7 77/114/3 
s 64
f 72/116/8 71/104/5 75/108/6 78/117/7 
s 2
f 79/118/31 80/119/31 81/120/32 82/121/32 
s 8
f 83/122/33 84/123/34 85/124/35 86/125/36 
s 16
f 87/126/15 88/127/15 89/128/15 90/129/15 
s 32
f 91/130/37 92/131/37 93/132/38 94/133/38 
s 64
f 95/134/18 96/135/18 97/136/39 98/137/39 
s 8
f 99/138/40 100/139/2 101/140/8 102/141/41 
f 103/142/42 99/138/40 102/141/41 104/143/43 
f 84/123/34 103/142/42 104/143/43 85/124/35 
f 105/144/44 106/145/7 107/146/3 108/147/45 
f 86/125/36 105/144/44 108/147/45 83/122/33 
s 16
f 109/148/46 110/149/15 111/150/15 
f 111/150/15 110/149/15 88/127/15 87/126/15 
f 82/151/32 81/152/32 112/153/15 113/154/15 
f 113/154/15 112/153/15 90/129/15 89/128/15 
s 32
f 114/155/47 115/156/5 116/157/1 117/158/38 
f 118/159/37 114/155/47 117/158/38 119/160/38 
f 92/131/37 118/159/37 119/160/38 93/132/38 
f 120/161/38 121/162/4 122/163/6 123/164/37 
f 94/133/38 120/161/38 123/164/37 91/130/37 
s 64
f 124/165/48 125/166/18 126/167/18 
f 126/167/18 125/166/18 96/135/18 95/134/18 
f 80/168/31 79/169/31 127/170/18 128/171/18 
f 128/171/18 127/170/18 98/137/39 97/136/39 
s 2
f 80/119/31 122/163/6 121/162/4 81/120/32 
f 82/121/32 107/172/3 106/173/7 79/118/31 
s 4
f 129/174/49 116/157/1 115/156/5 130/175/50 
f 131/176/51 101/177/8 100/178/2 132/179/52 
s 16
f 88/127/15 84/123/34 83/122/33 89/128/15 
f 90/129/15 94/180/38 93/181/38 87/126/15 
s 64
f 96/135/18 92/131/37 91/130/37 97/136/39 
f 98/137/39 86/125/36 85/124/35 95/134/18 
s 16
f 132/182/52 100/139/2 99/138/40 109/148/46 
f 109/148/46 117/183/38 116/184/1 129/185/49 
f 109/148/46 99/138/40 103/142/42 110/149/15 
f 111/150/15 119/186/38 117/183/38 109/148/46 
f 110/149/15 103/142/42 84/123/34 88/127/15 
f 87/126/15 93/181/38 119/186/38 111/150/15 
f 81/152/32 121/187/4 120/188/38 112/153/15 
f 113/154/15 108/147/45 107/146/3 82/151/32 
f 112/153/15 120/188/38 94/180/38 90/129/15 
f 89/128/15 83/122/33 108/147/45 113/154/15 
s 64
f 130/189/50 115/156/5 114/155/47 124/165/48 
f 124/165/48 102/141/41 101/140/8 131/190/51 
f 124/165/48 114/155/47 118/159/37 125/166/18 
f 126/167/18 104/143/43 102/141/41 124/165/48 
f 125/166/18 118/159/37 92/131/37 96/135/18 
f 95/134/18 85/124/35 104/143/43 126/167/18 
f 79/169/31 106/145/7 105/144/44 127/170/18 
f 128/171/18 123/164/37 122/163/6 80/168/31 
f 127/170/18 105/144/44 86/125/36 98/137/39 
f 97/136/39 91/130/37 123/164/37 128/171/18 
s off
f 130/175/50 124/191/48 109/192/46 129/174/49 
f 124/191/48 131/176/51 132/179/52 109/192/46 
s 4
f 133/193/53 134/194/32 135/195/31 136/196/54 
s 8
f 137/197/5 138/198/1 139/199/38 140/200/37 
s 32
f 141/201/2 142/202/8 143/203/16 144/204/17 
s 2
f 145/205/55 142/206/8 141/207/2 146/208/56 
f 147/209/57 138/198/1 137/197/5 148/210/58 
s 4
f 134/194/32 149/211/3 150/212/7 135/195/31 
s 16
f 146/213/56 141/201/2 144/204/17 151/214/59 
f 133/215/53 152/216/60 151/214/59 
s 64
f 148/217/58 137/197/5 140/200/37 153/218/61 
f 135/219/31 150/220/7 143/203/16 153/218/61 
s 8
f 139/199/38 152/221/60 154/222/62 140/200/37 
s 16
f 151/214/59 134/223/32 133/215/53 
s 32
f 143/203/16 150/220/7 149/224/3 144/204/17 
s 64
f 153/218/61 136/225/54 135/219/31 
s 16
f 144/204/17 149/224/3 134/223/32 151/214/59 
f 139/226/38 138/227/1 147/228/57 151/214/59 
s 64
f 140/200/37 154/222/62 153/218/61 
f 143/203/16 142/202/8 145/229/55 153/218/61 
s off
f 148/210/58 153/230/61 151/231/59 147/209/57 
f 153/230/61 145/205/55 146/208/56 151/231/59 
f 136/196/54 154/222/62 152/221/60 133/193/53 
s 16
f 152/216/60 139/226/38 151/214/59 
s 64
f 154/222/62 136/225/54 153/218/61 
s 2
f 155/232/5 156/233/8 157/234/2 158/235/1 
s 4
f 159/236/6 160/237/4 161/238/3 162/239/7 
s 8
f 155/232/5 158/235/1 160/237/4 159/236/6 
s 16
f 158/240/1 157/241/2 161/242/3 160/243/4 
s 32
f 157/241/2 156/244/8 162/245/7 161/242/3 
s 64
f 156/244/8 155/232/5 159/236/6 162/245/7 
s 4
f 163/246/63 164/247/10 165/248/9 166/249/64 
s 8
f 167/250/7 168/251/3 169/252/65 170/253/16 
s 32
f 171/254/4 172/255/6 173/256/47 174/257/38 
s 2
f 175/258/66 172/255/6 171/254/4 176/259/67 
f 177/260/68 168/261/3 167/262/7 178/263/69 
s 4
f 164/247/10 179/264/1 180/265/5 165/248/9 
s 16
f 176/266/67 171/267/4 174/268/38 181/269/70 
f 163/270/63 182/271/71 181/269/70 
s 64
f 178/272/69 167/250/7 170/253/16 183/273/72 
f 165/274/9 180/265/5 173/256/47 183/273/72 
s 8
f 169/252/65 182/271/71 184/275/73 170/253/16 
s 16
f 181/269/70 164/276/10 163/270/63 
s 32
f 173/256/47 180/265/5 179/264/1 174/257/38 
s 64
f 183/273/72 166/277/64 165/274/9 
s 16
f 174/268/38 179/278/1 164/276/10 181/269/70 
f 169/252/65 168/251/3 177/279/68 181/269/70 
s 64
f 170/253/16 184/275/73 183/273/72 
f 173/256/47 172/255/6 175/280/66 183/273/72 
s off
f 178/263/69 183/281/72 181/282/70 177/260/68 
f 183/281/72 175/258/66 176/259/67 181/282/70 
f 166/249/64 184/283/73 182/284/71 163/246/63 
s 16
f 182/271/71 169/252/65 181/269/70 
s 64
f 184/275/73 166/277/64 183/273/72 
s 4
f 185/285/63 186/286/10 187/287/9 188/288/64 
s 8
f 189/289/7 190/290/3 191/291/17 192/292/74 
s 32
f 193/293/4 194/294/6 195/295/37 196/296/75 
s 2
f 197/297/76 194/294/6 193/293/4 198/298/77 
f 199/299/78 190/300/3 189/301/7 200/302/79 
s 4
f 186/286/10 201/303/1 202/304/5 187/287/9 
s 16
f 198/305/77 193/306/4 196/307/75 203/308/80 
f 185/309/63 204/310/71 203/308/80 
s 64
f 200/311/79 189/289/7 192/292/74 205/312/81 
f 187/313/9 202/304/5 195/295/37 205/312/81 
s 8
f 191/291/17 204/310/71 206/314/73 192/292/74 
s 16
f 203/308/80 186/315/10 185/309/63 
s 32
f 195/295/37 202/304/5 201/303/1 196/296/75 
s 64
f 205/312/81 188/316/64 187/313/9 
s 16
f 196/307/75 201/317/1 186/315/10 203/308/80 
f 191/291/17 190/290/3 199/318/78 203/308/80 
s 64
f 192/292/74 206/314/73 205/312/81 
f 195/295/37 194/294/6 197/319/76 205/312/81 
s off
f 200/302/79 205/320/81 203/321/80 199/299/78 
f 205/320/81 197/297/76 198/298/77 203/321/80 
f 188/288/64 206/322/73 204/323/71 185/285/63 
s 16
f 204/310/71 191/291/17 203/308/80 
s 64
f 206/314/73 188/316/64 205/312/81 
s 2
f 207/324/5 208/325/8 209/326/2 210/327/1 
s 4
f 211/328/6 212/329/4 213/330/3 214/331/7 
s 8
f 207/324/5 210/327/1 212/329/4 211/328/6 
s 16
f 210/332/1 209/333/2 213/334/3 212/335/4 
s 32
f 209/333/2 208/336/8 214/337/7 213/334/3 
s 64
f 208/336/8 207/324/5 211/328/6 214/337/7 
s 2
f 215/338/1 216/339/2 217/340/3 218/341/4 
s 4
f 219/342/5 220/343/6 221/344/7 222/345/8 
s 8
f 215/338/1 218/341/4 220/346/6 219/347/5 
s 16
f 218/341/4 217/340/3 221/344/7 220/343/6 
s 32
f 217/340/3 216/339/2 222/348/8 221/349/7 
s 64
f 216/339/2 215/338/1 219/350/5 222/351/8 
# 189 polygons - 22 triangles

